<?xml version="1.0" encoding="utf-8"?>
<!-- Generator: Adobe Illustrator 17.0.0, SVG Export Plug-In . SVG Version: 6.00 Build 0)  -->
<!DOCTYPE svg PUBLIC "-//W3C//DTD SVG 1.1//EN" "http://www.w3.org/Graphics/SVG/1.1/DTD/svg11.dtd">
<svg version="1.1" id="Layer_1" xmlns="http://www.w3.org/2000/svg" xmlns:xlink="http://www.w3.org/1999/xlink" x="0px" y="0px"
	 width="1080px" height="450px" viewBox="0 0 1080 450" enable-background="new 0 0 1080 450" xml:space="preserve">
<rect x="-7" fill="#E2FAFA" width="1095" height="438"/>
<path fill="#74BDC1" d="M1056.918,330.432L1056.918,330.432c-4.082-0.701-12.916,3.682-13.908,4.095
	c-0.617,0.257-1.255,0.523-1.931,0.822c-4.219,1.867-8.007,4.239-11.248,6.98l3.978,7.409l-6.333-5.258
	c-4.649,4.595-7.861,10.022-9.155,15.761c-0.281,1.248-0.457,2.417-0.628,3.547c-0.27,1.793-0.525,3.487-1.113,4.529
	c-1.092,1.934-4.59,3.859-8.293,5.897c-5.294,2.913-11.882,6.538-15.421,12.512c-2.62,4.424-2.815,8.941-2.972,12.57
	c-0.107,2.478-0.208,4.819-1.031,6.269c-0.904,1.591-3.382,3.341-6.006,5.194c-1.778,1.256-3.793,2.679-5.664,4.294
	c-7.521,6.489-11.521,15.157-10.977,23.781l21.934-0.794c-0.271-4.294,1.803-8.788,5.548-12.019
	c1.147-0.989,2.599-2.015,4.137-3.101c3.775-2.666,8.473-5.984,11.2-10.781c2.465-4.338,2.648-8.567,2.808-12.299
	c0.108-2.506,0.21-4.872,1.06-6.308c1.144-1.931,4.617-3.842,8.294-5.865c5.392-2.967,12.103-6.66,15.576-12.813
	c0.218-0.386,0.415-0.771,0.598-1.156h-9.595l10.759-3.113c0.504-1.765,0.757-3.44,0.978-4.913c0.143-0.946,0.277-1.84,0.456-2.632
	c1.226-5.44,5.897-10.549,12.19-13.333c0.431-0.191,0.92-0.394,1.436-0.61c2.287-0.953,5.134-2.139,7.744-4.135
	c0.667-0.51,1.275-1.04,1.828-1.582c0.196-0.192,0.374-0.389,0.542-0.588l-8.064-1.569l9.691-1.945
	C1065.856,335.369,1062.541,331.398,1056.918,330.432z"/>
<path fill="#8FD0D6" d="M1067.671,370.087L1067.671,370.087c-2.927-1.009-10.476,1.249-11.308,1.443
	c-0.517,0.121-1.052,0.246-1.622,0.391c-10.059,2.565-18.373,8.565-22.241,16.05c-0.468,0.906-0.841,1.765-1.201,2.596
	c-0.571,1.317-1.111,2.562-1.768,3.277c-1.219,1.327-4.247,2.363-7.453,3.46c-4.583,1.568-10.286,3.52-14.176,7.598
	c-2.881,3.021-3.956,6.397-4.82,9.109c-0.59,1.852-1.147,3.602-2.064,4.596c-1.008,1.091-3.232,2.116-5.588,3.201
	c-1.596,0.735-3.405,1.569-5.145,2.564c-6.993,3.997-11.786,10.048-13.148,16.603l16.669,1.987c0.679-3.264,3.163-6.401,6.645-8.391
	c1.066-0.609,2.37-1.21,3.75-1.846c3.389-1.561,7.606-3.505,10.644-6.794c2.746-2.974,3.753-6.135,4.641-8.924
	c0.596-1.873,1.159-3.642,2.094-4.622c1.258-1.319,4.264-2.347,7.447-3.437c4.668-1.597,10.477-3.586,14.355-7.807
	c0.922-1.003,1.638-2.036,2.225-3.045l-5.843-1.702l7.271-1.165c0.101-0.23,0.2-0.456,0.295-0.675
	c0.302-0.695,0.587-1.352,0.884-1.927c2.041-3.949,6.606-7.243,11.914-8.597c0.363-0.093,0.773-0.188,1.206-0.29
	c1.917-0.447,4.303-1.004,6.677-2.199c0.607-0.305,1.173-0.632,1.7-0.975C1074.301,377.586,1073.174,371.983,1067.671,370.087z"/>
<path opacity="0.5" fill="#FFFFFF" d="M398.156,171.748c-2.428-2.956-6.136-5.166-9.903-7.161
	c-19.392-10.271-42.503-16.473-66.108-17.739c-5.559-0.298-12.422-0.992-14.305-4.963c-1.729-3.647,2.377-7.508,7.01-9.153
	c4.633-1.646,9.948-2.006,14.476-3.812c4.528-1.805,8.182-6.052,5.805-9.484c-1.427-2.061-4.507-3.094-7.408-3.863
	c-18.286-4.848-37.577-5.065-57.031-3.805c-13.089,3.31-26.363,6.201-39.775,8.659c-15.841,2.903-32.089,5.263-46.606,10.875
	c-1.292,0.499-2.558,1.022-3.804,1.564c11.9,1.942,23.921,3.462,36.01,4.544c5.054,0.452,11.125,1.398,12.818,5.032
	c1.447,3.106-1.251,6.633,0.023,9.782c1.694,4.192,8.853,5.121,14.638,5.289c5.785,0.168,12.94,1.073,14.671,5.256
	c0.77,1.861,0.13,3.926-1.147,5.62c-3.317,4.401-10.336,6.447-16.997,6.939c-6.66,0.492-13.396-0.231-20.06,0.228
	c-15.693,1.082-30.966,8.638-46.179,5.525c-6.783-1.388-12.512-4.764-18.875-7.02c-6.124-2.171-12.633-3.254-19.321-3.706
	c-4.186,5.97-7.884,12.212-11.221,18.535c13.595-0.253,28.046-0.322,39.616,5.082c3.373,1.576,6.383,3.573,9.808,5.083
	c4.421,1.949,9.451,3.04,14.541,3.43c19.973,1.531,38.435-7.342,57.788-11.384c26.769-5.592,55.404-1.828,82.014,4.182
	c10.644,2.404,21.27,5.18,32.342,5.851c11.072,0.67,22.913-1.033,31.22-6.616C400.506,188.934,404.023,178.89,398.156,171.748z"/>
<path fill="#74BDC1" d="M907.845,433.543c0,0-43.881-28.542-91.138-8.52c0,0,0-36.21-34.88-40.044
	c-34.88-3.834-65.822,17.04-57.946,39.618c0,0-72.573-10.65-86.075,15.336l270.038,1.704V433.543z"/>
<path fill="#9DE0DE" d="M1027.776,446.585c-27.275-39.326-77.341-21.502-77.341-21.502s-8.594-36.214-72.484-25.746
	c0,0-26.901,5.941-30.638,30.838c0,0-37.363-10.185-44.462,17.824L1027.776,446.585z"/>
<path fill="#333333" d="M225.928,189.182c0,0-5.604,2.4-7.287,5.794c-1.438,2.898-7.845,2.39-11.852,6.263
	c-4.45,4.301-10.778,10.733,3.735,15.071c9.015,2.694,23.37,4.768,26.625,2.949c3.255-1.818,11.014-1.09,9.269-20.202
	c0,0-21.221-6.707-21.434-6.748C224.77,192.268,225.928,189.182,225.928,189.182z"/>
<ellipse fill="#333333" cx="233.379" cy="197.33" rx="13.055" ry="9.885"/>
<path fill="#FFC0BB" d="M281.429,227.199l-0.952,0.338c-4.058,0.738-27.192,4.911-28.259,4.377c-1.17-0.585-6.399-8.758-6.399-8.758
	l-5.938,7.319c0,0,5.364,7.695,8.854,8.912c3.406,1.188,27.388-5.408,34.145-8.516l0.683-0.23c0.658,0.105,2.382,0.29,2.382,0.29
	c6.894,0.592,6.185,0.623,6.24,0.42c0.055-0.203-2.729-1.113-2.566-1.31c0.164-0.197,4.217,0.011,4.024-0.248
	c-0.193-0.258-3.929-0.825-3.857-1.007c0.071-0.181,3.982,0.066,3.969-0.368c-0.013-0.434-4.302-0.586-4.143-0.927
	c0.159-0.341,4.553-0.094,4.464-0.491c-0.075-0.334-4.988-0.709-6.549-0.821c-0.202-0.014-0.312-0.208-0.195-0.339
	c1.802-2.016,1.794-2.265,1.471-2.389c-0.23-0.088-2.496,1.21-4.705,2.321L281.429,227.199z"/>
<g>
	<path fill="#E03268" d="M172.492,261.574h147.686c6.128,0,11.096,3.762,11.096,8.402v163.152c0,4.64-4.968,8.402-11.096,8.402
		H172.492c-6.128,0-11.096-3.762-11.096-8.402V269.976C161.396,265.336,166.364,261.574,172.492,261.574z"/>
	<rect x="173.905" y="270.172" fill="#F3FCFF" width="144.861" height="153.455"/>
	<path fill="#CFE4FF" d="M282.471,274.126h-78.435v-6.823c0-6.245,6.686-11.307,14.933-11.307h48.57
		c8.247,0,14.933,5.062,14.933,11.307V274.126z"/>
	<rect x="184.507" y="287.837" fill="#CFE4FF" width="76.194" height="4.283"/>
	<rect x="184.507" y="303.56" fill="#CFE4FF" width="76.194" height="4.283"/>
	<rect x="184.507" y="319.281" fill="#CFE4FF" width="76.194" height="4.283"/>
	<rect x="184.507" y="335.004" fill="#CFE4FF" width="76.194" height="4.283"/>
	<rect x="184.507" y="350.726" fill="#CFE4FF" width="76.194" height="4.283"/>
	<rect x="184.507" y="366.448" fill="#CFE4FF" width="76.194" height="4.283"/>
	<rect x="184.507" y="382.17" fill="#CFE4FF" width="76.194" height="4.283"/>
	<rect x="184.507" y="397.893" fill="#CFE4FF" width="76.194" height="4.283"/>
	<rect x="277.9" y="287.837" fill="#CFE4FF" width="43.219" height="31.408"/>
	<rect x="277.9" y="329.302" fill="#CFE4FF" width="43.219" height="31.408"/>
	<rect x="277.9" y="370.767" fill="#CFE4FF" width="43.219" height="31.409"/>
</g>
<polygon fill="#FFC0BB" points="272.04,294.762 271.702,300.956 264.598,298.887 265.543,294.431 "/>
<g>
	<path fill="#122F5B" d="M277.939,308.617l-16.491-4.155c-0.51-0.128-0.785-0.545-0.616-0.931l0,0c0.17-0.386,0.72-0.595,1.23-0.466
		l16.491,4.155c0.51,0.128,0.785,0.545,0.616,0.931l0,0C278.999,308.536,278.449,308.745,277.939,308.617z"/>
	<path fill="#55769F" d="M263.844,298.798l-2.315,3.733c-0.285,0.46-0.122,0.984,0.342,1.102l16.158,4.071
		c0.42,0.106,0.922,0.012,1.306-0.306c0.394-0.325,0.692-0.89,0.309-1.847c-0.758-1.893-5.259-3.456-7.043-5.337
		c-0.036-0.038-0.087-0.067-0.146-0.082l-7.436-1.873C264.6,298.154,264.102,298.382,263.844,298.798z"/>
	<g>
		<path fill="#FFFFFF" d="M270.413,302.125L270.413,302.125c-0.093-0.084-0.07-0.244,0.047-0.34
			c0.551-0.452,2.113-1.499,4.013-0.724c0.11,0.045,0.137,0.182,0.064,0.298l-0.002,0.004c-0.071,0.112-0.209,0.162-0.316,0.119
			c-1.706-0.689-3.051,0.241-3.504,0.623C270.62,302.186,270.49,302.195,270.413,302.125z"/>
	</g>
	<g>
		<path fill="#FFFFFF" d="M271.872,303.048L271.872,303.048c-0.093-0.084-0.07-0.244,0.047-0.34
			c0.551-0.452,2.112-1.499,4.013-0.724c0.11,0.045,0.137,0.182,0.064,0.298l-0.002,0.004c-0.071,0.112-0.209,0.162-0.316,0.119
			c-1.706-0.689-3.051,0.241-3.504,0.623C272.078,303.109,271.949,303.118,271.872,303.048z"/>
	</g>
	<g>
		<path fill="#FFFFFF" d="M273.227,303.908L273.227,303.908c-0.093-0.084-0.07-0.244,0.047-0.34
			c0.551-0.452,2.113-1.499,4.013-0.724c0.11,0.045,0.137,0.182,0.064,0.298l-0.002,0.004c-0.071,0.112-0.209,0.162-0.316,0.119
			c-1.706-0.689-3.051,0.241-3.504,0.623C273.434,303.969,273.304,303.978,273.227,303.908z"/>
	</g>
</g>
<path fill="#122F5B" d="M218.151,251.459c0,0-3.315,11.814,11.727,14.619c15.042,2.805,34.026,3.09,34.026,3.09l0.351,27.518
	l7.918,0.687c0,0,23.626-37.081-4.189-44.384l-25.45-1.122l-10.429-1.067c0,0-10.436-2.49-10.592-2.118
	C221.356,249.052,218.384,251.66,218.151,251.459z"/>
<path fill="#FFC0BB" d="M235.862,212.47c0,0-9.275-1.572-14.086-1.449c-4.811,0.123,1.728,9.71,1.728,9.71l7.858,0.132
	c0,0,4.792-2.418,5.492-2.386c2.649,0.12,0.583-5.651,0.583-5.651L235.862,212.47z"/>
<path fill="#FFC0BB" d="M226.533,204.91l-2.76,6.342c0,0,2.403,3.761,9.76,2.139c0,0-0.839-1.314,0.287-4.019
	C234.971,206.609,226.533,204.91,226.533,204.91z"/>
<path opacity="0.6" fill="#FC8D84" d="M226.533,204.91l-1.295,2.963c0.771,2.165,3.275,3.64,7.998,4.098
	c-0.002-0.644,0.13-1.505,0.585-2.598C234.971,206.609,226.533,204.91,226.533,204.91z"/>
<path fill="#F99893" d="M243.366,200.266c-0.597,1.03-0.199,2.158,0.889,2.52c1.088,0.362,2.454-0.18,3.051-1.21
	c0.597-1.03,0.199-2.158-0.889-2.52C245.329,198.694,243.963,199.236,243.366,200.266z"/>
<path fill="#FFC0BB" d="M242.757,206.35c0.358-0.442,0.664-0.913,0.914-1.407c0.706-1.326,1.088-2.742,1.291-3.979
	c0.044-0.266,0.107-0.528,0.177-0.791c0.284-1.059,0.318-2.186,0.029-3.353c-0.93-3.753-5.085-6.65-10.102-7.033
	c-6.759-0.517-12.5,3.418-12.676,8.423c-0.708-0.317-1.513-0.403-2.232-0.177c-1.379,0.434-1.917,1.844-1.202,3.149
	c0.716,1.306,2.414,2.013,3.794,1.579c0.192-0.06,0.365-0.141,0.523-0.236c0.423,4.27,4.916,7.651,10.445,7.693
	c2.704,0.021,5.181-0.762,7.07-2.064c0.126-0.076,0.258-0.164,0.398-0.268C241.8,207.432,242.317,206.91,242.757,206.35z"/>
<path fill="#F99893" d="M240.132,198.684c-0.218,0.472-0.331,0.964-0.368,1.466c-0.018,0.252-0.01,0.505,0.035,0.765
	c0.052,0.258,0.131,0.524,0.348,0.781l0.095,0.093l0.086,0.08c0.035,0.037,0.09,0.069,0.114,0.109
	c0.068,0.075,0.109,0.155,0.125,0.239c0.046,0.168-0.058,0.351-0.22,0.514c-0.349,0.329-0.96,0.51-1.598,0.608
	c0.635,0.095,1.39,0.035,1.952-0.354c0.275-0.188,0.487-0.486,0.456-0.811c-0.008-0.08-0.024-0.16-0.062-0.234
	c-0.028-0.078-0.079-0.145-0.13-0.212c-0.047-0.071-0.12-0.121-0.181-0.181c-0.039-0.034-0.045-0.045-0.065-0.064l-0.053-0.052
	c-0.136-0.155-0.22-0.374-0.285-0.594c-0.072-0.222-0.092-0.459-0.131-0.696C240.196,199.667,240.172,199.181,240.132,198.684z"/>
<polygon fill="#FFC0BB" points="258.861,294.018 255.203,301.954 249.822,297.879 251.765,294.12 "/>
<path fill="#333333" d="M236.244,199.694c-0.006,0.42-0.459,0.756-1.013,0.752c-0.554-0.004-0.998-0.348-0.993-0.767
	c0.006-0.419,0.459-0.756,1.013-0.752C235.805,198.931,236.249,199.275,236.244,199.694z"/>
<path fill="#333333" d="M243.693,199.833c-0.005,0.419-0.459,0.756-1.013,0.752c-0.554-0.004-0.999-0.348-0.993-0.767
	c0.006-0.419,0.459-0.756,1.013-0.752C243.255,199.07,243.699,199.413,243.693,199.833z"/>
<path opacity="0.3" fill="#F99893" d="M236.095,204.741c0,0,1.365-0.37,2.648,0.267c0,0,1.388-0.658,2.482-0.03
	c0,0-0.508,1.565-2.788,1.46C236.157,206.332,236.095,204.741,236.095,204.741z"/>
<path fill="#F99893" d="M234.901,204.18c0.258,0.158,0.527,0.304,0.81,0.431c0.279,0.131,0.568,0.249,0.867,0.349
	c0.597,0.198,1.227,0.338,1.871,0.379c0.644,0.044,1.294-0.017,1.915-0.161c0.619-0.15,1.205-0.385,1.757-0.664
	c-0.246,0.169-0.511,0.324-0.793,0.46c-0.282,0.137-0.588,0.245-0.901,0.342c-0.316,0.09-0.646,0.155-0.983,0.191
	c-0.337,0.033-0.678,0.039-1.017,0.02c-0.677-0.048-1.337-0.2-1.933-0.437C235.899,204.855,235.348,204.554,234.901,204.18z"/>
<path fill="#333333" d="M236.617,197.424c-0.516-0.105-1.001-0.183-1.479-0.226c-0.477-0.042-0.942-0.039-1.394,0.016
	c-0.448,0.058-0.898,0.144-1.326,0.306c-0.229,0.061-0.425,0.17-0.656,0.251c-0.221,0.091-0.425,0.205-0.674,0.296
	c0.118-0.18,0.257-0.356,0.42-0.519c0.182-0.148,0.355-0.315,0.586-0.43c0.428-0.266,0.975-0.427,1.531-0.496
	c0.56-0.067,1.137-0.021,1.655,0.12C235.797,196.886,236.273,197.108,236.617,197.424z"/>
<path fill="#333333" d="M241.196,197.425c0.392-0.282,0.9-0.458,1.434-0.553c0.536-0.092,1.117-0.084,1.662,0.033
	c0.541,0.119,1.058,0.329,1.44,0.633c0.211,0.136,0.356,0.317,0.513,0.481c0.137,0.177-0.375,0.008-0.287,0.197
	c-0.232-0.113,0.205,0.111,0,0c-0.216-0.101-0.393-0.228-0.61-0.309c-0.399-0.2-0.831-0.327-1.267-0.426
	c-0.439-0.096-0.9-0.142-1.381-0.144C242.219,197.335,241.725,197.368,241.196,197.425z"/>
<path fill="#3660AC" d="M241.501,230.358c0,0-2.042,4.522-2.414,6.923c-0.922,5.964,0.784,11.085,2.414,14.48
	c2.287,4.762-17.091,2.117-17.473,1.973c-0.381-0.144-16.388-4.834-16.388-4.834l-1.206-9.347l-1.842-9.194l0.857-5.411
	L241.501,230.358z"/>
<path fill="#FFC0BB" d="M210.803,217.213c0,0,2.48,0.163,2.21,3.429c-0.27,3.266-2.283,9.484-2.283,9.484
	s-19.559,28.464-23.845,31.232c-0.232,0.15-0.526,0.234-0.831,0.242l-13.18-0.04c0,0,0.845-0.641,1.753-0.823l6.143-1.234
	c0.242-0.049,0.447-0.17,0.568-0.337l1.968-2.72l14.834-29.96c1.513-2.669,5.113-4.195,7.587-6.415
	C207.534,218.449,209.505,217.052,210.803,217.213z"/>
<g>
	<path fill="#3660AC" d="M237.437,212.825c-0.184,2.839-5.432,7.57-5.432,7.57c-0.951-1.582-10.114-9.278-10.229-9.374
		c-3.774,0.044-11.783,0.467-16.678,3.099c-6.574,3.535-10.511,11.476-10.511,11.476s11.91,4.545,14.863,4.762h33.061
		c0,0,5.05-0.289,9.909-2.164C252.421,228.193,251.638,216.43,237.437,212.825z"/>
</g>
<path fill="#DAEEF7" d="M214.745,220.863c-0.34,0.772-0.642,1.552-0.947,2.331c-0.307,0.78-0.583,1.565-0.857,2.352
	c-0.262,0.789-0.526,1.578-0.754,2.374c-0.226,0.796-0.448,1.595-0.617,2.403l0.252-0.191c-0.325,0.025-0.724,0.017-1.092-0.006
	c-0.375-0.019-0.752-0.061-1.127-0.102c-0.749-0.101-1.5-0.209-2.238-0.366l-0.555-0.111l-0.55-0.128
	c-0.366-0.087-0.735-0.167-1.097-0.266l-1.09-0.285l-1.077-0.316c-0.721-0.205-1.425-0.445-2.139-0.667l-2.108-0.727l-2.089-0.765
	c-0.687-0.269-1.376-0.537-2.072-0.797c0.655,0.314,1.317,0.62,1.981,0.925c0.669,0.297,1.345,0.587,2.025,0.872
	c0.686,0.276,1.378,0.543,2.074,0.807l1.059,0.372c0.352,0.125,0.705,0.25,1.068,0.358c1.43,0.468,2.905,0.864,4.414,1.178
	l0.567,0.116l0.574,0.099c0.381,0.072,0.771,0.116,1.159,0.168c0.391,0.04,0.782,0.082,1.18,0.099
	c0.403,0.02,0.782,0.033,1.228-0.005l0.217-0.018l0.035-0.173c0.321-1.595,0.749-3.185,1.195-4.771l0.681-2.38L214.745,220.863z"/>
<path fill="#DAEEF7" d="M239.881,219.037c0.466,0.923,0.89,1.85,1.268,2.785c0.371,0.936,0.7,1.879,0.919,2.835
	c0.122,0.476,0.2,0.957,0.254,1.438c0.064,0.481,0.071,0.964,0.048,1.445c-0.047,0.964-1.933,5.498-2.488,6.396
	c0.783-0.796,2.837-5.369,2.975-6.366c0.159-1.002,0.05-2.013-0.173-2.996c-0.124-0.491-0.268-0.978-0.448-1.457
	c-0.188-0.477-0.387-0.951-0.627-1.414C241.138,220.776,240.58,219.874,239.881,219.037z"/>
<path fill="#224887" d="M207.103,248.56c-3.196,3.178-3.868,7.472-1.535,11.054c1.621,2.487,4.68,4.806,10.321,5.858
	c15.042,2.805,34.026,3.09,34.026,3.09l0.351,27.518l7.918,0.687c0,0,23.626-37.082-4.188-44.385l-25.45-1.122l-10.429-1.067
	c0,0-10.436-2.49-10.592-2.118C207.491,248.153,207.333,248.331,207.103,248.56z"/>
<path fill="#DAEEF7" d="M254.143,269.297c-0.404-0.056-0.807-0.107-1.206-0.178c-0.398-0.07-0.792-0.152-1.181-0.24
	c-0.195-0.046-0.392-0.096-0.584-0.15c0.202-0.032,0.398-0.076,0.593-0.129c0.385-0.103,0.744-0.251,1.082-0.419
	c0.326-0.182,0.635-0.378,0.905-0.603c0.271-0.223,0.504-0.47,0.709-0.726l-0.401,0.33c-0.144,0.102-0.277,0.21-0.427,0.305
	c-0.286,0.201-0.605,0.37-0.932,0.523c-0.33,0.151-0.679,0.273-1.038,0.369c-0.357,0.092-0.744,0.158-1.101,0.168l-0.654,0.018
	l0.581,0.204c0.394,0.139,0.787,0.23,1.19,0.315c0.401,0.085,0.809,0.145,1.218,0.198c0.409,0.05,0.819,0.094,1.231,0.117
	c0.412,0.023,0.825,0.038,1.237,0.037C254.955,269.39,254.547,269.352,254.143,269.297z"/>
<g>
	<path fill="#FFFFFF" d="M913.843,140.124c-0.13-7.677-7.339-14.237-17.285-15.728l-17.955-2.691
		c-2.837-0.425-5.378-1.606-7.164-3.329l-6.947-6.703c-1.903-1.836-4.814-2.908-7.896-2.908h-47.307
		c-3.082,0-5.993,1.072-7.896,2.908l-6.947,6.703c-1.785,1.723-4.327,2.904-7.164,3.329l-17.955,2.691
		c-9.946,1.491-17.156,8.051-17.285,15.728l-2.101,124.859c-0.089,5.245,2.938,10.243,8.248,13.612
		c10.351,6.567,30.937,15.708,65.208,15.578v7.749c0,4.529,4.849,8.2,10.829,8.2l0,0c5.981,0,10.829-3.671,10.829-8.2v-7.758
		c32.735-0.322,52.552-9.168,62.641-15.569c5.311-3.369,8.336-8.367,8.248-13.612L913.843,140.124z M832.943,116.655
		c4.847,0,8.776,2.975,8.776,6.645c0,3.67-3.929,6.646-8.776,6.646c-4.847,0-8.776-2.975-8.776-6.646
		C824.167,119.63,828.096,116.655,832.943,116.655z"/>
	<path fill="#DAEEF7" d="M768.883,152.598c-4.049,0.416-7.083,2.992-7.135,6.06l-1.68,99.027c-0.078,4.567,2.579,8.919,7.241,11.852
		c9.368,5.894,28.283,14.169,60.064,13.531c3.713-0.075,7.428-0.075,11.141,0c31.78,0.638,50.695-7.638,60.063-13.531
		c4.663-2.933,7.319-7.285,7.242-11.852l-1.695-99.891c-0.053-3.094-3.139-5.688-7.228-6.071
		C844.357,146.803,797.184,149.688,768.883,152.598z"/>
	<path fill="#E72C3B" d="M898.133,190.795l-65.055,7.355L767.88,185.76l-0.042-0.049l-1.133,67.353
		c-0.07,4.186,2.344,8.175,6.582,10.863c8.515,5.402,25.707,12.987,54.593,12.402c3.375-0.069,6.752-0.069,10.127,0
		c28.886,0.585,46.078-7,54.593-12.402c4.238-2.688,6.653-6.677,6.582-10.863L898.133,190.795L898.133,190.795z"/>
	<path fill="#B20B1F" d="M767.88,185.76c0,0,55.549,12.243,88.479-1.804c32.93-14.047,61.894,5.861,23.925,20.786
		C841.295,220.068,767.88,185.76,767.88,185.76z"/>
	<path fill="#FFFFFF" d="M818.405,210.797H775.95c-1.797,0-3.253-1.103-3.253-2.463v-32.148c0-1.36,1.457-2.463,3.253-2.463h42.455
		c1.797,0,3.253,1.103,3.253,2.463v32.148C821.658,209.694,820.202,210.797,818.405,210.797z"/>
	<path opacity="0.5" fill="#FFFFFF" d="M886.908,259.241h-4.238c-3.711,0-6.718-2.278-6.718-5.087v-90.557
		c0-2.81,3.008-5.087,6.718-5.087h4.238c3.711,0,6.719,2.278,6.719,5.087v90.557C893.626,256.964,890.618,259.241,886.908,259.241z"
		/>
	<rect x="778.131" y="180.661" fill="#B6D5E0" width="37.67" height="1.71"/>
	<rect x="778.131" y="186.724" fill="#B6D5E0" width="37.67" height="1.71"/>
	<rect x="778.131" y="192.786" fill="#B6D5E0" width="37.67" height="1.71"/>
	<rect x="778.131" y="198.849" fill="#B6D5E0" width="37.67" height="1.71"/>
</g>
<path fill="#FFC0BB" d="M659.361,262.206c-0.939-0.043-1.633-0.685-1.623-1.397c0.08-5.628,0.244-36.97-6.08-36.134
	c-6.948,0.919-5.734,43.507-5.404,48.183c0.331,4.677,1.103,27.39,2.647,32.568c1.544,5.177,4.945,114.905,3.198,140.458h65.175
	c0,0-17.203-119.08-13.675-127.932s6.176-15.031,14.557-24.05c8.381-9.019,7.278-24.217,9.925-28.559
	c2.647-4.342,8.822-10.438,3.529-12.275c-5.293-1.837-15.108,9.854-19.078,21.044c0,0-2.536,3.09-4.411-0.751
	c-1.875-3.841-5.183-46.346-5.404-49.52c-0.221-3.173-2.206-5.845-5.183-5.595c-2.977,0.251-4.301,8.1-4.632,20.96
	c-0.331,12.86,0.573,23.298-3.077,22.797c-3.65-0.501-1.996-40.584-4.863-47.348c-2.867-6.764-8.492-2.088-8.381,6.096
	c0.11,8.184,1.765,40.083-1.654,39.749c-3.419-0.334-1.764-44.342-7.719-43.924c-6.153,0.431-6.176,7.265-6.176,18.956
	C661.031,246.199,664.245,262.429,659.361,262.206z"/>
<g>
	<rect x="733.193" y="333.291" opacity="0.9" fill="#FFFFFF" width="22.934" height="106.526"/>
	<path fill="#FEB546" d="M758.314,342.472h-27.306c-1.213,0-2.196-0.745-2.196-1.663v-12.05c0-0.919,0.983-1.663,2.196-1.663h27.306
		c1.213,0,2.197,0.745,2.197,1.663v12.05C760.51,341.727,759.527,342.472,758.314,342.472z"/>
	<rect x="731.999" y="327.096" fill="#F4A640" width="3.643" height="15.321"/>
	<rect x="739.226" y="327.096" fill="#F4A640" width="3.643" height="15.321"/>
	<rect x="746.452" y="327.096" fill="#F4A640" width="3.643" height="15.321"/>
	<rect x="753.678" y="327.096" fill="#F4A640" width="3.643" height="15.321"/>
	<path fill="#F4A640" d="M750.381,347.311H738.94c-1.821,0-3.297-1.118-3.297-2.496v-2.399h18.035v2.399
		C753.678,346.194,752.202,347.311,750.381,347.311z"/>
	<polygon fill="#E72C3B" points="753.724,439.817 735.596,439.817 735.596,383.235 743.316,385.392 753.724,383.235 	"/>
	<path fill="#B20B1F" d="M735.596,383.235c0,0,7.885,1.784,12.56-0.263s8.152,0.073,3.397,3.028
		C746.658,389.043,735.596,383.235,735.596,383.235z"/>
	<path opacity="0.2" fill="#FFFFFF" d="M739.912,438.379h-1.373c-0.61,0-1.105-0.374-1.105-0.836v-91.842
		c0-0.462,0.495-0.837,1.105-0.837h1.373c0.61,0,1.105,0.375,1.105,0.837v91.842C741.017,438.004,740.522,438.379,739.912,438.379z"
		/>
	<rect x="772.826" y="333.291" opacity="0.9" fill="#FFFFFF" width="22.934" height="106.526"/>
	<path fill="#FEB546" d="M797.946,342.472H770.64c-1.213,0-2.196-0.745-2.196-1.663v-12.05c0-0.919,0.983-1.663,2.196-1.663h27.306
		c1.213,0,2.197,0.745,2.197,1.663v12.05C800.142,341.727,799.159,342.472,797.946,342.472z"/>
	<rect x="771.632" y="327.096" fill="#F4A640" width="3.643" height="15.321"/>
	<rect x="778.858" y="327.096" fill="#F4A640" width="3.643" height="15.321"/>
	<rect x="786.084" y="327.096" fill="#F4A640" width="3.643" height="15.321"/>
	<rect x="793.31" y="327.096" fill="#F4A640" width="3.643" height="15.321"/>
	<path fill="#F4A640" d="M790.014,347.311h-11.442c-1.821,0-3.297-1.118-3.297-2.496v-2.399h18.035v2.399
		C793.31,346.194,791.834,347.311,790.014,347.311z"/>
	<polygon fill="#E72C3B" points="793.357,439.817 775.229,439.817 775.229,383.235 782.948,385.392 793.357,383.235 	"/>
	<path fill="#B20B1F" d="M775.229,383.235c0,0,7.885,1.784,12.56-0.263s8.152,0.073,3.397,3.028
		C786.29,389.043,775.229,383.235,775.229,383.235z"/>
	<path opacity="0.2" fill="#FFFFFF" d="M779.545,438.379h-1.373c-0.61,0-1.105-0.374-1.105-0.836v-91.842
		c0-0.462,0.495-0.837,1.105-0.837h1.373c0.61,0,1.105,0.375,1.105,0.837v91.842C780.649,438.004,780.155,438.379,779.545,438.379z"
		/>
	<rect x="812.458" y="333.291" opacity="0.9" fill="#FFFFFF" width="22.934" height="106.526"/>
	<path fill="#FEB546" d="M837.578,342.472h-27.306c-1.213,0-2.196-0.745-2.196-1.663v-12.05c0-0.919,0.983-1.663,2.196-1.663h27.306
		c1.213,0,2.197,0.745,2.197,1.663v12.05C839.775,341.727,838.791,342.472,837.578,342.472z"/>
	<rect x="811.264" y="327.096" fill="#F4A640" width="3.643" height="15.321"/>
	<rect x="818.49" y="327.096" fill="#F4A640" width="3.643" height="15.321"/>
	<rect x="825.717" y="327.096" fill="#F4A640" width="3.643" height="15.321"/>
	<rect x="832.943" y="327.096" fill="#F4A640" width="3.643" height="15.321"/>
	<path fill="#F4A640" d="M829.646,347.311h-11.442c-1.821,0-3.297-1.118-3.297-2.496v-2.399h18.035v2.399
		C832.943,346.194,831.467,347.311,829.646,347.311z"/>
	<polygon fill="#E72C3B" points="832.989,439.817 814.861,439.817 814.861,383.235 822.581,385.392 832.989,383.235 	"/>
	<path fill="#B20B1F" d="M814.861,383.235c0,0,7.886,1.784,12.561-0.263c4.675-2.047,8.152,0.073,3.397,3.028
		C825.922,389.043,814.861,383.235,814.861,383.235z"/>
	<path opacity="0.2" fill="#FFFFFF" d="M819.177,438.379h-1.373c-0.61,0-1.105-0.374-1.105-0.836v-91.842
		c0-0.462,0.495-0.837,1.105-0.837h1.373c0.61,0,1.105,0.375,1.105,0.837v91.842C820.282,438.004,819.787,438.379,819.177,438.379z"
		/>
</g>
<path fill="#18196B" d="M867.342,369.463c1.997,0,3.616-1.226,3.616-2.738v-6.969c0-1.512-1.619-2.738-3.616-2.738H701.244
	c-1.997,0-3.616,1.226-3.616,2.738v6.969c0,1.512,1.619,2.738,3.616,2.738h12.162v68.916h-13.111c-1.472,0-2.666,0.904-2.666,2.019
	v3.595c0,1.115,1.194,2.019,2.666,2.019h167.997c1.472,0,2.666-0.904,2.666-2.019v-3.595c0-1.115-1.194-2.019-2.666-2.019H855.18
	v-68.916H867.342z M848.826,438.379H719.76v-68.916h129.066V438.379z"/>
<path fill="#FFFFFF" d="M886.641,378.386c-1.448-12.3-10.219-23.071-17.967-32.585c-3.79-4.653-7.708-9.464-11.886-14.075
	c-1.173-1.294-2.39-2.603-3.568-3.87c-7.008-7.537-14.256-15.33-15.881-24.081l-7.371,0.785
	c1.876,10.098,9.649,18.457,17.166,26.541c1.165,1.252,2.369,2.547,3.516,3.813c4.076,4.498,7.946,9.25,11.698,13.857
	c7.306,8.971,15.588,19.14,16.879,30.115c0.864,7.34-1.695,14.332-7.022,19.183c-6.901,6.285-18.863,9.786-36.573,10.703
	c-5.376,0.278-11.098,0.402-16.523-0.574c-2.88-0.518-5.681-1.344-8.647-2.218c-1.064-0.313-2.165-0.638-3.268-0.946
	c-12.943-3.619-24.824-4.534-35.313-2.721c-9.726,1.682-18.131,5.662-26.259,9.511c-2.121,1.004-4.313,2.042-6.468,3.008
	c-12.378,5.548-22.516,7.456-30.997,5.834c-7.789-1.49-14.913-6.231-19.544-13.007c-4.153-6.076-3.769-11.031-5.248-18.041
	c-0.708,1.074-2.169,1.814-3.862,1.814c-1.03,0-1.975-0.274-2.717-0.73c0.332,4.163,1.492,14.1,5.216,19.548
	c5.61,8.207,14.479,13.996,24.332,15.881c2.546,0.487,5.178,0.731,7.91,0.731c8.517,0,17.985-2.376,28.702-7.179
	c2.233-1.001,4.465-2.058,6.623-3.08c7.954-3.767,15.468-7.325,23.969-8.795c9.057-1.566,19.513-0.72,31.077,2.514
	c1.043,0.291,2.113,0.607,3.148,0.912c3.07,0.905,6.245,1.841,9.625,2.449c6.408,1.152,13.075,1.008,18.752,0.714
	c19.848-1.028,33.517-5.19,41.788-12.722C884.503,395.686,887.678,387.198,886.641,378.386z"/>
<path fill="#E72C3B" d="M884.602,378.524c-1.405-11.936-10.042-22.541-17.671-31.908c-3.777-4.637-7.682-9.432-11.832-14.012
	c-1.166-1.286-2.379-2.591-3.553-3.854c-7.148-7.687-14.54-15.636-16.235-24.757l-3.317,0.353
	c1.807,9.728,9.436,17.931,16.813,25.864c1.168,1.256,2.376,2.555,3.53,3.828c4.105,4.529,7.988,9.297,11.753,13.92
	c7.426,9.117,15.841,19.451,17.176,30.791c0.912,7.745-1.817,15.148-7.487,20.312c-7.277,6.628-19.709,10.31-38.007,11.258
	c-5.537,0.287-11.445,0.411-17.136-0.613c-3.018-0.543-6.016-1.427-8.916-2.281c-1.056-0.311-2.148-0.633-3.235-0.937
	c-12.564-3.513-24.053-4.41-34.148-2.664c-9.39,1.624-17.646,5.533-25.63,9.314c-2.131,1.009-4.334,2.053-6.51,3.028
	c-12.866,5.767-23.511,7.731-32.541,6.003c-8.357-1.599-15.96-6.627-20.862-13.797c-4.134-6.048-3.575-10.787-4.86-17.508
	c-0.693,0.358-1.529,0.568-2.431,0.568c-0.293,0-0.578-0.023-0.854-0.065c1.323,6.896,0.838,11.832,5.172,18.17
	c5.341,7.814,13.73,13.314,23.015,15.091c2.378,0.455,4.843,0.683,7.407,0.683c8.143,0,17.268-2.304,27.661-6.963
	c2.211-0.991,4.432-2.043,6.581-3.06c7.748-3.669,15.761-7.464,24.599-8.992c9.45-1.634,20.298-0.769,32.242,2.571
	c1.059,0.296,2.138,0.614,3.18,0.921c3.006,0.886,6.114,1.802,9.356,2.385c6.126,1.102,12.338,0.976,18.138,0.676
	c19.26-0.998,32.46-4.977,40.354-12.167C882.585,395.007,885.592,386.931,884.602,378.524z"/>
<polygon fill="#FFC0BB" points="923.078,436.415 922.909,440.086 930.511,439.805 932.302,435.315 "/>
<polygon fill="#FFC0BB" points="970.956,430.867 976.469,437.113 982.422,433.521 980.41,429.085 "/>
<g>
	<path fill="#FFFFFF" d="M973.567,445.84l14.075-7.721c0.435-0.239,0.532-0.699,0.217-1.028l0,0
		c-0.315-0.329-0.923-0.403-1.358-0.164l-14.075,7.721c-0.435,0.239-0.532,0.699-0.217,1.028l0,0
		C972.524,446.005,973.132,446.078,973.567,445.84z"/>
	<path fill="#333333" d="M983.105,433.264l3.692,3.033c0.455,0.374,0.508,0.911,0.112,1.129l-13.791,7.565
		c-0.358,0.197-0.874,0.221-1.367,0.007c-0.505-0.221-1.014-0.691-1.029-1.691c-0.03-1.978,3.642-4.494,4.595-6.695
		c0.019-0.045,0.056-0.083,0.107-0.111l6.346-3.481C982.128,432.822,982.694,432.926,983.105,433.264z"/>
	<g>
		<path fill="#FFFFFF" d="M978.163,437.934L978.163,437.934c0.055-0.101-0.03-0.248-0.18-0.313c-0.705-0.306-2.61-0.948-4.115,0.224
			c-0.087,0.068-0.059,0.205,0.057,0.299l0.004,0.003c0.112,0.091,0.264,0.107,0.349,0.042c1.353-1.046,3.005-0.465,3.589-0.205
			C977.991,438.039,978.117,438.018,978.163,437.934z"/>
	</g>
	<g>
		<path fill="#FFFFFF" d="M977.139,439.147L977.139,439.147c0.056-0.101-0.03-0.248-0.18-0.313
			c-0.706-0.306-2.611-0.948-4.115,0.224c-0.087,0.068-0.058,0.205,0.057,0.299l0.004,0.003c0.112,0.091,0.264,0.107,0.349,0.042
			c1.353-1.046,3.005-0.465,3.589-0.205C976.967,439.252,977.094,439.231,977.139,439.147z"/>
	</g>
	<g>
		<path fill="#FFFFFF" d="M976.189,440.276L976.189,440.276c0.055-0.101-0.03-0.248-0.18-0.313c-0.705-0.306-2.61-0.948-4.115,0.224
			c-0.087,0.068-0.059,0.205,0.057,0.299l0.004,0.003c0.112,0.091,0.264,0.107,0.349,0.042c1.353-1.046,3.005-0.465,3.589-0.205
			C976.016,440.381,976.143,440.36,976.189,440.276z"/>
	</g>
</g>
<path fill="#E72C3B" d="M835.311,303.992c0,0-1.822-17.105,1.275-36.478c3.097-19.373-7.226,1.587-7.226,1.587
	s-0.221,27.21,2.634,35.245C834.85,312.381,835.311,303.992,835.311,303.992z"/>
<path fill="#333333" d="M958.29,292.478c0.284,0.119,0.558,0.257,0.79,0.43c0.782,0.584,1.014,1.509,1.854,2.043
	c0.419,0.266,0.948,0.407,1.437,0.591c0.668,0.252,1.307,0.623,1.569,1.152c0.148,0.299,0.164,0.625,0.178,0.945
	c0.026,0.578,0.05,1.169-0.178,1.721c-0.132,0.321-0.346,0.621-0.453,0.948c-0.212,0.647,0.015,1.333-0.117,1.992
	c-0.1,0.497-0.399,0.957-0.694,1.407c-0.155,0.236-0.313,0.476-0.551,0.667c-0.61,0.49-1.604,0.563-2.491,0.498
	c-0.886-0.065-1.781-0.233-2.655-0.106c-0.732,0.107-1.381,0.413-2.064,0.639c-1.047,0.346-2.199,0.506-3.34,0.465
	c-0.32-0.011-0.649-0.041-0.928-0.161c-0.289-0.124-0.495-0.332-0.693-0.535c-1.089-1.115-2.187-2.242-2.932-3.509
	c-0.745-1.267-1.117-2.705-0.69-4.054c0.32-1.009,1.069-1.916,1.977-2.693c0.908-0.776,1.977-1.435,3.039-2.089
	C953.186,291.699,956.221,291.611,958.29,292.478z"/>
<path fill="#FFC0BB" d="M928.121,341.285l2.016-6.563l-8.228-4.685c0,0-1.424,7.824-2.14,10.966l-16.624,0.22l-3.191,0.457
	c0,0,22.169,7.029,23.58,4.872c0.397-0.608,1.586-1.486,2.722-2.515c0.589,0.109,0.965,0.178,0.965,0.178l0.536-1.746
	c0.3-0.385,0.548-0.781,0.712-1.183L928.121,341.285z"/>
<path fill="#1B4B79" d="M934.824,311.186c0,0-10.626,3.175-14.74,19.819c0,0,2.659,2.726,8.593,3.027
	c5.934,0.302,4.128-10.688,4.128-10.688L934.824,311.186z"/>
<polygon fill="#FFC0BB" points="947.352,305.721 946.948,310.544 938.267,311.911 936.734,311.911 937.054,306.132 946.261,303.67 
	"/>
<path fill="#FFC0BB" d="M933.737,313.443c-0.393,3.24,1.377,3.844,1.377,3.844l13.11-7.367c-8.137,0.604-13.399,1.266-13.399,1.266
	S934.148,313.532,933.737,313.443z"/>
<path fill="#333333" d="M955.486,295.232c0,0,2.677-8.316-3.699-11.43c-6.376-3.115-13.133-2.768-17.736-0.902
	c-4.603,1.866-7.358,8.372-5.295,12.09l15.277-3.55L955.486,295.232z"/>
<path fill="#FFC0BB" d="M901.724,336.939c-1.523-0.5-2.635-1.014-3.07-1.525l-0.49-0.963c-0.608-1.204-1.529-1.731-2.108-1.497
	l-0.099,0.06c0,0,0.387,1.949,0.702,3.544l-1.322-0.151l-0.699,6.07l6.301-0.642L901.724,336.939z"/>
<path fill="#122F5B" d="M949.977,351.555l-6.304,41.754c0,0-5.976,35.731-10.803,43.676h-10.703l2.33-79.853l18.867-8.98
	L949.977,351.555z"/>
<path fill="#F99893" d="M947.539,304.461c0,0-0.184,1.4-0.345,3.144c-3.302,2.738-9.49,1.798-10.307,1.533
	c0.05-0.877,0-2.652,0-2.652L947.539,304.461z"/>
<path fill="#224887" d="M955.011,347.517c0,0,11.962,11.68,9.129,30.273c-2.833,18.593-2.203,25.267-2.203,25.267
	s15.425,10.727,20.147,26.221c0,0-6.768,3.576-11.333,4.171c0,0-22.665-26.221-24.396-29.32
	c-1.731-3.099-12.501-51.821-12.501-51.821L955.011,347.517z"/>
<path fill="#F99893" d="M930.742,296.459c0.544,1.119,0.026,2.293-1.156,2.623s-2.581-0.311-3.125-1.429
	c-0.544-1.119-0.026-2.293,1.156-2.623C928.799,294.7,930.199,295.34,930.742,296.459z"/>
<path fill="#FFC0BB" d="M930.867,302.925c-0.341-0.485-0.625-0.998-0.846-1.533c-0.633-1.438-0.917-2.954-1.026-4.273
	c-0.023-0.283-0.068-0.564-0.12-0.845c-0.21-1.134-0.15-2.329,0.256-3.549c1.305-3.925,5.948-6.787,11.288-6.947
	c7.195-0.216,12.933,4.228,12.692,9.532c0.776-0.301,1.634-0.352,2.376-0.078c1.422,0.526,1.871,2.044,1.003,3.391
	c-0.869,1.346-2.726,2.011-4.148,1.485c-0.198-0.073-0.374-0.167-0.533-0.275c-0.812,4.497-5.854,7.854-11.707,7.628
	c-2.863-0.11-5.416-1.059-7.304-2.53c-0.127-0.086-0.26-0.187-0.398-0.303C931.788,304.117,931.285,303.54,930.867,302.925z"/>
<path fill="#333333" d="M941.821,296.577c-0.032,0.478,0.453,0.885,1.085,0.91c0.631,0.024,1.169-0.343,1.201-0.821
	c0.032-0.478-0.453-0.885-1.084-0.91C942.391,295.731,941.853,296.099,941.821,296.577z"/>
<path fill="#333333" d="M931.662,296.577c-0.032,0.478,0.453,0.885,1.085,0.91c0.631,0.024,1.169-0.343,1.201-0.821
	c0.032-0.478-0.453-0.885-1.085-0.91C932.232,295.731,931.694,296.099,931.662,296.577z"/>
<path fill="#333333" d="M940.859,295.132c0.52-0.209,1.061-0.364,1.611-0.468c0.552-0.099,1.115-0.137,1.668-0.097
	c0.277,0.017,0.551,0.06,0.819,0.117c0.136,0.026,0.266,0.064,0.399,0.099c0.066,0.017,0.129,0.041,0.195,0.061
	c0.065,0.02,0.131,0.039,0.194,0.064c0.511,0.185,0.993,0.427,1.464,0.696c-0.35-0.36-0.796-0.671-1.312-0.909
	c-0.258-0.119-0.534-0.219-0.824-0.291c-0.289-0.074-0.59-0.125-0.896-0.145c-0.61-0.043-1.23,0.019-1.797,0.174
	c-0.285,0.075-0.557,0.175-0.814,0.289C941.311,294.841,941.066,294.972,940.859,295.132z"/>
<path fill="#333333" d="M936.248,295.132c-0.208-0.16-0.452-0.292-0.706-0.409c-0.257-0.114-0.529-0.214-0.814-0.289
	c-0.568-0.155-1.187-0.217-1.798-0.174c-0.305,0.02-0.606,0.071-0.896,0.145c-0.29,0.072-0.567,0.172-0.824,0.291
	c-0.516,0.238-0.963,0.549-1.313,0.909c0.471-0.269,0.952-0.511,1.464-0.696c0.063-0.025,0.129-0.044,0.194-0.064
	c0.066-0.02,0.129-0.043,0.195-0.061c0.133-0.035,0.263-0.073,0.399-0.099c0.268-0.057,0.542-0.1,0.819-0.117
	c0.554-0.04,1.117-0.003,1.668,0.097C935.187,294.768,935.728,294.924,936.248,295.132z"/>
<path fill="#FFFFFF" d="M962.392,324.255c-0.276-0.218-0.537-0.463-0.777-0.713c-0.238-0.253-0.464-0.513-0.661-0.785
	c-0.204-0.27-0.385-0.55-0.541-0.839c-0.166-0.287-0.286-0.587-0.411-0.889c0.053,0.313,0.133,0.627,0.263,0.929
	c0.058,0.153,0.136,0.301,0.21,0.451c0.085,0.146,0.164,0.294,0.261,0.436c0.19,0.285,0.402,0.562,0.647,0.823
	c0.195,0.211,0.402,0.412,0.635,0.603c-0.211,0.032-0.431,0.053-0.648,0.061c-0.301,0.011-0.604,0.002-0.903-0.032
	c-0.151-0.013-0.298-0.04-0.447-0.064c-0.145-0.033-0.294-0.06-0.436-0.103c-0.291-0.074-0.561-0.186-0.832-0.302
	c0.24,0.149,0.496,0.29,0.783,0.39c0.281,0.108,0.585,0.184,0.895,0.234c0.31,0.05,0.629,0.077,0.948,0.072
	c0.321-0.003,0.633-0.027,0.956-0.091l0.229-0.046L962.392,324.255z"/>
<path fill="#F99893" d="M937.59,296.178c-0.322,0.394-0.597,0.806-0.846,1.228c-0.25,0.421-0.468,0.854-0.638,1.304
	c-0.079,0.227-0.15,0.456-0.172,0.704c-0.002,0.063-0.002,0.127,0.009,0.194c0.005,0.034,0.017,0.07,0.027,0.104
	c0.02,0.038,0.032,0.074,0.067,0.112c0.018,0.019,0.037,0.038,0.057,0.055l0.047,0.031c0.032,0.02,0.063,0.042,0.096,0.06
	c0.067,0.035,0.132,0.072,0.201,0.101c0.271,0.126,0.558,0.216,0.848,0.293c0.292,0.074,0.586,0.137,0.888,0.177
	c-0.549-0.198-1.103-0.394-1.574-0.653c-0.06-0.031-0.112-0.068-0.166-0.102l-0.075-0.054l-0.036-0.027
	c-0.002-0.006-0.006-0.01-0.01-0.014c-0.037-0.045-0.041-0.161-0.027-0.261c0.028-0.21,0.096-0.43,0.178-0.646
	c0.157-0.435,0.357-0.866,0.548-1.299C937.21,297.053,937.409,296.62,937.59,296.178z"/>
<path fill="#3660AC" d="M960.319,338.01c0-0.001,0-0.001,0-0.002c1.559-6.57,2.231-13.622,2.231-13.622
	c0.088-1.625,0.061-3.064-0.05-4.337c-2.174-1.339-5.206-3.239-5.206-3.239l-5.184-6.688c0,0,0.002-0.003,0.003-0.005
	c-1.97-0.139-4.059-0.202-4.059-0.202l-12.939,7.373l-0.289-6.102c-0.065,0.037-0.13,0.074-0.193,0.112
	c-5.591,3.458-9.22,8.456-10.002,13.952c-0.552,3.879-0.485,8.011-0.177,11.704l0,0c0,0-2.212,21.384-3.274,24.801
	c0,0,29.329,2.211,44.989,0C966.168,361.755,960.176,347.327,960.319,338.01z"/>
<g>
	<path fill="#333333" d="M922.704,354.912l-22.435,1.025c-1.417,0.065-2.988-0.623-3.509-1.537l-11.802-20.68
		c-0.521-0.913,0.205-1.706,1.622-1.771l22.435-1.024c1.417-0.065,2.988,0.623,3.51,1.537l11.802,20.68
		C924.847,354.055,924.121,354.848,922.704,354.912z"/>
	<path fill="#C8EEF1" d="M902.371,332.268l-7.638,0.349c-0.612,0.028-1.291-0.269-1.516-0.664l-0.212-0.371
		c-0.225-0.395,0.089-0.737,0.701-0.765l7.638-0.349c0.612-0.028,1.291,0.269,1.517,0.664l0.211,0.371
		C903.297,331.897,902.984,332.24,902.371,332.268z"/>
</g>
<path fill="#FFC0BB" d="M894.021,349.629l-0.095,0.032c-0.565,0.189-1.228,0.024-1.536-0.381l-3.516-4.623
	c-0.177-0.223-0.168-0.502,0.023-0.718c0.595-0.673,1.877-2.056,2.315-2.005c0.578,0.067-1.185,2.366-0.945,2.412
	c0.24,0.046,2.734-1.485,2.946-1.235c0.189,0.224-2.006,2.005-1.905,2.143c0.101,0.139,2.636-0.977,2.91-0.777
	c0.247,0.18-2.142,1.62-2.108,1.721L894.021,349.629z"/>
<path fill="#FFC0BB" d="M914.192,354.965c0.024-0.322,3.587-2.356,3.384-2.499c-0.203-0.143-4.175,1.658-4.464,1.243
	c-0.289-0.416,4.15-2.279,3.743-2.538c-0.407-0.259-4.892,1.736-5.075,1.325c-0.154-0.346,4.791-2.671,6.368-3.402
	c0.204-0.094,0.185-0.322-0.031-0.399c-3.32-1.185-3.486-1.424-3.23-1.67c0.182-0.175,3.491,0.144,6.611,0.31l3.787,0.275
	c1.064-0.19,32.863-5.878,34.597-7.457c1.763-1.606-2.968-10.291-2.968-10.291l10.328-3.357c0,0,4.728,14.245,0.174,18.634
	c-2.455,2.366-41.946,6.587-41.946,6.587c-0.624,0.363-2.322,1.23-2.322,1.23c-6.894,3.323-6.12,3.069-6.32,2.899
	c-0.201-0.17,2.114-2.147,1.803-2.268C918.319,353.466,914.168,355.287,914.192,354.965z"/>
<path fill="#3660AC" d="M952.109,310.122c0,0,11.567,3.317,18.892,16.213c0,0-3.595,6.019-15.501,6.225L952.109,310.122z"/>
<path fill="#FBF9EB" d="M971.001,326.335c-0.783,0.996-1.816,1.859-2.977,2.591c-1.148,0.744-2.434,1.355-3.79,1.846
	c-1.382,0.449-2.794,0.848-4.271,1.078c-0.728,0.144-1.484,0.188-2.224,0.288c-0.749,0.057-1.503,0.083-2.254,0.127l0.393,0.226
	c-0.379-1.142-0.81-2.263-1.268-3.383c-0.468-1.116-0.948-2.231-1.53-3.318c-0.567-1.091-1.207-2.162-1.932-3.2
	c-0.753-1.019-1.58-2.048-2.769-2.807c1.06,0.853,1.795,1.885,2.427,2.939c0.647,1.05,1.217,2.128,1.711,3.228
	c0.486,1.101,0.986,2.199,1.414,3.315c0.433,1.114,0.834,2.239,1.191,3.363l0.079,0.248l0.314-0.022
	c0.773-0.053,1.547-0.09,2.318-0.158c0.763-0.111,1.539-0.167,2.289-0.324c0.754-0.143,1.508-0.286,2.235-0.5
	c0.746-0.172,1.438-0.45,2.142-0.696c1.37-0.558,2.658-1.23,3.781-2.038C969.377,328.32,970.37,327.397,971.001,326.335z"/>
<path fill="#FFC0BB" d="M891.937,346.251c0,0,2.538-0.584,2.762-0.367c0.224,0.217-2.775,1.441-2.762,1.385
	C891.949,347.212,891.937,346.251,891.937,346.251z"/>
<path fill="#333333" d="M954.655,294.086l-0.287-0.026l-0.192-1.804l-1.066-1.669c0,0-4.174-4.487-4.32-4.598
	c-0.147-0.111-3.33-1.557-3.526-1.631c-0.196-0.074-4.652,0.482-4.652,0.482s-7.839-1.277-6.512,2.039
	c1.326,3.317,7.051,5.043,7.345,4.894c-0.93-0.741-1.028-2.855-1.028-2.855c4.407,3.856,12.694,6.392,12.694,6.392
	s0.869-0.502,2.376-0.078L954.655,294.086z"/>
<path fill="#FFFFFF" d="M935.05,301.906c0.304,1.024,1.615,1.784,3.168,1.764c1.553-0.02,2.826-0.814,3.082-1.845L935.05,301.906z"
	/>
<g>
	<g>
		<path fill="#55769F" d="M218.909,369.344h-5.282v-10.595c0-2.67-2.869-4.843-6.396-4.843h-52.727
			c-3.527,0-6.396,2.173-6.396,4.843v10.595h-5.282v-10.595c0-4.876,5.239-8.843,11.678-8.843h52.727
			c6.439,0,11.678,3.967,11.678,8.843V369.344z"/>
	</g>
	<path fill="#224887" d="M152.548,368.22h-14.162v-0.897c0-1.174,1.257-2.127,2.809-2.127h8.545c1.551,0,2.809,0.952,2.809,2.127
		V368.22z"/>
	<path fill="#224887" d="M223.349,368.22h-14.162v-0.897c0-1.174,1.257-2.127,2.809-2.127h8.545c1.551,0,2.809,0.952,2.809,2.127
		V368.22z"/>
	<path fill="#FEB546" d="M236.106,441.55H122.835c-4.19,0-7.587-2.572-7.587-5.745v-61.839c0-3.173,3.397-5.745,7.587-5.745h113.271
		c4.19,0,7.587,2.572,7.587,5.745v61.839C243.694,438.977,240.297,441.55,236.106,441.55z"/>
	<rect x="136.412" y="368.219" fill="#F4A640" width="18.11" height="73.33"/>
	<rect x="207.213" y="368.219" fill="#F4A640" width="18.11" height="73.33"/>
	<polygon fill="#FFFFFF" points="198.979,401.261 185.653,401.261 185.653,391.17 176.083,391.17 176.083,401.261 162.756,401.261 
		162.756,408.508 176.083,408.508 176.083,418.599 185.653,418.599 185.653,408.508 198.979,408.508 	"/>
</g>
<path fill="#333333" d="M222.39,198.21c0,0,9.156-2.447,15.079-7.538c0,0,4.391,4.572,7.398,5.225c0,0,0.271-7.286-9.626-8.286
	C225.343,186.612,220.197,192.445,222.39,198.21z"/>
<path fill="#B20B1F" d="M298.52,182.056l-7.058-9.812l-7.058,9.812c0,0-15.601,21.953-10.586,31.315
	c0.05,0.094,0.101,0.186,0.153,0.278c6.572,11.688,28.411,11.688,34.983,0c0.052-0.092,0.103-0.185,0.153-0.278
	C314.121,204.009,298.52,182.056,298.52,182.056z"/>
<path fill="#E72C3B" d="M291.462,172.244l-7.058,9.812c0,0-12.986,18.275-11.451,28.588c8.98,6.627,25.212,5.043,30.721-4.754
	c0.052-0.092,0.103-0.184,0.153-0.278c3.598-6.717-3.415-19.912-7.666-26.835L291.462,172.244z"/>
<path fill="#FFFFFF" d="M318.012,186.1c-0.962,0.618-1.885,1.259-2.79,1.911c-1.806,1.306-3.517,2.668-5.166,4.067
	c-1.643,1.402-3.216,2.845-4.729,4.324c-1.026,1.004-2.024,2.026-2.992,3.065l-0.723-0.434c-0.478-0.284-0.968-0.558-1.451-0.837
	c-0.486-0.277-0.985-0.544-1.477-0.816c-1-0.532-2.008-1.058-3.053-1.555c-1.045-0.497-2.104-0.983-3.233-1.414
	c0.608,0.839,1.286,1.624,1.978,2.397c0.692,0.774,1.421,1.518,2.158,2.257c0.377,0.363,0.746,0.731,1.128,1.09
	c0.385,0.356,0.764,0.717,1.155,1.069l1.18,1.05l1.206,1.029l1.609,1.374l1.847-1.559c1.653-1.396,3.232-2.836,4.753-4.31
	c1.52-1.475,2.98-2.984,4.37-4.535c1.384-1.554,2.705-3.146,3.933-4.793c0.611-0.825,1.205-1.66,1.759-2.519
	c0.555-0.858,1.091-1.727,1.545-2.645C319.955,184.874,318.974,185.481,318.012,186.1z"/>
<path opacity="0.8" fill="#FFFFFF" d="M273.477,160.483c-0.997-3.287-4.881-5.739-9.525-5.739c-0.852,0-1.679,0.083-2.467,0.238
	c-2.292-3.711-7.265-6.282-13.032-6.282c-1.491,0-2.929,0.172-4.281,0.491c-3.105-3.893-8.745-6.496-15.189-6.496
	c-7.667,0-14.196,3.685-16.671,8.843c-1.751-0.739-3.768-1.162-5.915-1.162c-6.72,0-12.168,4.125-12.168,9.214
	c0,0.302,0.02,0.6,0.058,0.894H273.477z"/>
<path fill="#9CDEDC" d="M73.564,436.592c1.23,0.904,2.262,2.694,3.354,4.59c0.887,1.538,1.84,3.188,3.111,4.818h32.275
	c-0.876-0.414-1.771-0.805-2.693-1.161c-2.085-0.805-4.203-1.431-6.072-1.983c-2.758-0.814-5.363-1.583-6.697-2.594
	c-1.215-0.921-2.236-2.692-3.317-4.567c-1.582-2.746-3.552-6.163-7.343-8.949c-5.119-3.761-11.631-5.018-16.863-6.028
	c-3.66-0.707-7.117-1.374-8.733-2.604c-0.871-0.663-1.749-1.902-2.678-3.215c-0.586-0.827-1.192-1.683-1.91-2.574
	c-5.936-7.366-16.208-12.533-27.475-13.823c-0.639-0.073-1.235-0.13-1.811-0.184c-0.927-0.087-9.465-1.406-12.311,0.075l0,0
	c-5.351,2.783-5.159,8.866,0.428,11.369c0.642,0.288,1.321,0.553,2.038,0.79c2.805,0.927,5.465,1.178,7.602,1.38
	c0.483,0.046,0.939,0.089,1.347,0.135c5.946,0.68,11.585,3.517,14.717,7.404c0.456,0.566,0.919,1.22,1.41,1.913
	c0.155,0.218,0.314,0.443,0.478,0.672l7.975,0.203l-5.758,2.626c0.87,0.984,1.883,1.975,3.104,2.905
	c5.142,3.914,11.774,5.194,17.103,6.223C68.477,434.714,71.909,435.376,73.564,436.592z"/>
<path fill="#8FD0D6" d="M78.086,415.432c1.253,1.397,1.945,3.885,2.677,6.519c1.091,3.923,2.327,8.368,6.004,12.606
	c4.067,4.686,9.852,7.53,14.501,9.814c1.135,0.558,2.23,1.097,3.24,1.629h29.974c-3.086-4.972-7.644-9.415-13.33-12.866
	c-2.376-1.443-4.858-2.662-7.048-3.738c-3.231-1.588-6.283-3.088-7.632-4.642c-1.228-1.416-1.913-3.877-2.637-6.482
	c-1.061-3.815-2.381-8.563-6.243-12.869c-5.215-5.815-13.075-8.716-19.391-11.047c-4.418-1.631-8.591-3.171-10.223-5.061
	c-0.879-1.019-1.567-2.773-2.294-4.631c-0.459-1.171-0.933-2.382-1.539-3.661c-2.784-5.885-7.519-11.168-13.568-15.368l-5.398,6.455
	l2.378-8.396c-4.103-2.439-8.693-4.412-13.614-5.789c-0.789-0.221-1.529-0.411-2.244-0.596c-1.15-0.297-11.572-3.68-15.714-2.362
	l0,0c-5.706,1.817-8.231,6.484-6.717,10.543l10.726,0.685l-8.139,2.8c0.228,0.186,0.464,0.369,0.719,0.545
	c0.718,0.495,1.491,0.969,2.323,1.414c3.251,1.741,6.554,2.592,9.207,3.276c0.6,0.155,1.166,0.301,1.669,0.441
	c7.34,2.053,13.539,6.794,16.178,12.372c0.384,0.812,0.747,1.738,1.131,2.719c0.598,1.526,1.278,3.261,2.247,5.056l12.143,1.769
	l-10.145,1.358c0.287,0.381,0.591,0.76,0.917,1.138c5.19,6.014,13.196,8.968,19.629,11.342
	C72.256,412.023,76.4,413.552,78.086,415.432z"/>
<path fill="#74BDC1" d="M69.005,363.177c-0.232,2.925-0.512,6.482,0.354,10.271c6.239,2.66,18.424,7.858,17.035,7.299
	c-1.302-0.525-10.286-2.103-15.549-3.001c3.134,6.702,9.365,11.582,14.492,15.594c3.962,3.101,7.705,6.03,8.566,8.602
	c0.64,1.912,0.089,4.851-0.493,7.963c-0.868,4.635-1.851,9.888-0.047,15.648c1.996,6.371,6.85,11.239,10.749,15.149
	c1.589,1.593,3.089,3.098,4.222,4.508c0.208,0.259,0.406,0.523,0.599,0.79h29.312c-1.349-4.083-3.491-8.018-6.394-11.63
	c-1.849-2.301-3.931-4.389-5.768-6.231c-2.711-2.718-5.271-5.286-5.933-7.399c-0.603-1.925-0.058-4.832,0.518-7.91
	c0.844-4.507,1.894-10.117-0.078-16.01c-2.663-7.956-9.762-13.513-15.468-17.978c-3.991-3.123-7.76-6.073-8.556-8.641
	c-0.429-1.384-0.26-3.517-0.08-5.775c0.113-1.424,0.23-2.896,0.239-4.483c0.071-12.258-6.782-24.316-18.474-32.755l-5.381,1.798
	l2.656-3.643c-0.673-0.427-1.317-0.82-1.941-1.199c-1.107-0.673-10.764-7.533-16.005-7.336l0,0
	c-9.852,0.37-16.009,8.355-11.416,14.965c0.528,0.76,1.127,1.513,1.805,2.253c2.652,2.892,5.829,4.823,8.381,6.375
	c0.577,0.351,1.122,0.682,1.6,0.988c6.975,4.469,11.283,11.544,11.244,18.463C69.189,360.859,69.1,361.985,69.005,363.177z"/>
<g>
	<path fill="#74BDC1" d="M158.121,220.577h-7.199v-4.425h-5.844v-5.451h5.844v-4.425h7.199v4.425h5.844v5.451h-5.844V220.577z
		 M151.889,219.845h5.267v-4.425h5.844v-3.988h-5.844v-4.425h-5.267v4.425h-5.844v3.988h5.844V219.845z"/>
</g>
<g>
	<path fill="#74BDC1" d="M138.8,324.918h-4.776v-2.936h-3.877v-3.617h3.877v-2.936h4.776v2.936h3.877v3.617H138.8V324.918z
		 M134.665,324.432h3.494v-2.936h3.877v-2.646h-3.877v-2.936h-3.494v2.936h-3.877v2.646h3.877V324.432z"/>
</g>
<g>
	<g>
		<path fill="#9CDEDC" d="M969.396,256.052c-3.361,0-6.095-2.07-6.095-4.615s2.734-4.615,6.095-4.615
			c3.361,0,6.095,2.07,6.095,4.615S972.756,256.052,969.396,256.052z M969.396,247.992c-2.508,0-4.549,1.545-4.549,3.445
			c0,1.899,2.041,3.445,4.549,3.445s4.549-1.545,4.549-3.445C973.944,249.538,971.904,247.992,969.396,247.992z"/>
	</g>
</g>
<g>
	<path fill="#74BDC1" d="M84.49,306.779c-3.827,0-6.941-2.358-6.941-5.256c0-2.898,3.114-5.256,6.941-5.256
		c3.827,0,6.941,2.358,6.941,5.256C91.432,304.421,88.318,306.779,84.49,306.779z M84.49,297.6c-2.856,0-5.181,1.76-5.181,3.923
		c0,2.163,2.324,3.923,5.181,3.923c2.857,0,5.181-1.76,5.181-3.923C89.671,299.36,87.347,297.6,84.49,297.6z"/>
</g>
<g>
	<path fill="#FFFFFF" d="M913.82,445.884l17.38-0.038c0.537-0.001,0.971-0.332,0.97-0.738l0,0c-0.002-0.407-0.438-0.736-0.975-0.734
		l-17.38,0.038c-0.537,0.001-0.971,0.332-0.97,0.738l0,0C912.846,445.556,913.283,445.885,913.82,445.884z"/>
	<path fill="#333333" d="M931.265,439.899l0.656,4.094c0.081,0.505-0.29,0.964-0.78,0.965l-17.029,0.038
		c-0.442,0.001-0.88-0.207-1.115-0.6c-0.24-0.402-0.29-1.009,0.469-1.827c1.503-1.619,6.424-2.036,8.895-3.4
		c0.05-0.028,0.11-0.043,0.173-0.043l7.836-0.017C930.812,439.108,931.192,439.442,931.265,439.899z"/>
	<g>
		<path fill="#FFFFFF" d="M923.651,441.502L923.651,441.502c0.123-0.058,0.167-0.215,0.095-0.334
			c-0.336-0.56-1.387-1.924-3.512-1.639c-0.123,0.017-0.206,0.14-0.184,0.268l0.001,0.004c0.021,0.123,0.132,0.204,0.251,0.188
			c1.905-0.25,2.798,0.952,3.07,1.422C923.429,441.511,923.548,441.55,923.651,441.502z"/>
	</g>
	<g>
		<path fill="#FFFFFF" d="M921.884,442.033L921.884,442.033c0.123-0.058,0.167-0.215,0.096-0.334
			c-0.337-0.56-1.387-1.924-3.512-1.639c-0.123,0.017-0.206,0.14-0.184,0.268l0.001,0.004c0.021,0.123,0.132,0.204,0.251,0.188
			c1.905-0.25,2.798,0.952,3.07,1.422C921.663,442.042,921.782,442.081,921.884,442.033z"/>
	</g>
	<g>
		<path fill="#FFFFFF" d="M920.241,442.529L920.241,442.529c0.123-0.058,0.167-0.215,0.096-0.334
			c-0.336-0.56-1.387-1.924-3.512-1.639c-0.123,0.016-0.206,0.14-0.184,0.268l0.001,0.004c0.021,0.123,0.132,0.204,0.251,0.188
			c1.905-0.25,2.798,0.952,3.07,1.422C920.02,442.537,920.139,442.576,920.241,442.529z"/>
	</g>
</g>
<g>
	<path fill="#122F5B" d="M256.793,310.873l-12.84-8.869c-0.397-0.274-0.425-0.74-0.063-1.04l0,0c0.362-0.3,0.977-0.322,1.374-0.048
		l12.841,8.869c0.397,0.274,0.425,0.74,0.063,1.04l0,0C257.805,311.125,257.19,311.147,256.793,310.873z"/>
	<path fill="#55769F" d="M249.18,297.565l-4.118,2.699c-0.508,0.333-0.64,0.862-0.278,1.112l12.581,8.69
		c0.327,0.226,0.836,0.294,1.357,0.123c0.535-0.176,1.11-0.6,1.273-1.592c0.323-1.963-2.952-4.776-3.572-7.043
		c-0.013-0.047-0.043-0.088-0.09-0.12l-5.79-3.999C250.217,297.209,249.639,297.264,249.18,297.565z"/>
	<g>
		<path fill="#FFFFFF" d="M253.398,302.626L253.398,302.626c-0.04-0.105,0.067-0.244,0.226-0.296
			c0.746-0.244,2.735-0.72,4.056,0.573c0.076,0.075,0.028,0.208-0.101,0.292l-0.004,0.003c-0.125,0.081-0.278,0.084-0.353,0.012
			c-1.189-1.154-2.917-0.718-3.535-0.509C253.555,302.745,253.432,302.713,253.398,302.626z"/>
	</g>
	<g>
		<path fill="#FFFFFF" d="M254.236,303.918L254.236,303.918c-0.04-0.105,0.067-0.244,0.226-0.296
			c0.746-0.244,2.735-0.72,4.056,0.573c0.076,0.075,0.028,0.208-0.101,0.292l-0.004,0.003c-0.125,0.081-0.278,0.084-0.353,0.012
			c-1.189-1.154-2.917-0.718-3.535-0.509C254.392,304.037,254.269,304.005,254.236,303.918z"/>
	</g>
	<g>
		<path fill="#FFFFFF" d="M255.013,305.121L255.013,305.121c-0.04-0.105,0.067-0.244,0.226-0.296
			c0.746-0.244,2.734-0.72,4.056,0.573c0.076,0.075,0.028,0.208-0.101,0.292l-0.004,0.003c-0.125,0.081-0.278,0.084-0.353,0.012
			c-1.189-1.154-2.917-0.718-3.535-0.509C255.17,305.24,255.047,305.208,255.013,305.121z"/>
	</g>
</g>
</svg>
