<?xml version="1.0" encoding="utf-8"?>
<!-- Generator: Adobe Illustrator 17.0.0, SVG Export Plug-In . SVG Version: 6.00 Build 0)  -->
<!DOCTYPE svg PUBLIC "-//W3C//DTD SVG 1.1//EN" "http://www.w3.org/Graphics/SVG/1.1/DTD/svg11.dtd">
<svg version="1.1" id="Слой_1" xmlns="http://www.w3.org/2000/svg" xmlns:xlink="http://www.w3.org/1999/xlink" x="0px" y="0px"
	 width="3000px" height="1620.514px" viewBox="0 0 3000 1620.514" enable-background="new 0 0 3000 1620.514" xml:space="preserve">
<g>
	<path fill="#EBF3FA" d="M208.021,1614.2c0,0-134.619-154.898-93.747-386.466c31.033-175.822,55.728-216.455,362.732-401.574
		c296.222-178.617,42.339-707.551,801.25-692.288c462.324,9.298,630.098-162.692,969.395,31.84
		c324.365,185.971,20.245,379.58,523.016,712.057c181.17,119.806,164.493,613.611-67.626,734.186L208.021,1614.2z"/>
	<g>
		<g>
			<g>
				<path fill="#FFFFFF" d="M2219.608,1582.355h-175.787v-5.359h175.787c49.358,0,89.516-40.156,89.516-89.517v-414.335h5.359
					v414.335C2314.483,1539.795,2271.921,1582.355,2219.608,1582.355z"/>
			</g>
			<g>
				<path fill="#D14842" d="M2219.814,1580.211h-175.788v-1.072h175.788c50.541,0,91.659-41.118,91.659-91.66v-414.335h1.072
					v414.335C2312.545,1538.613,2270.946,1580.211,2219.814,1580.211z"/>
			</g>
		</g>
		<path fill="#FFB27D" d="M2334.552,1061.449c0,0-0.035-1.401-1.456-3.407c-0.817-2.077-2.25-8.845-2.18-10.209
			c0.135-2.598-3.034-1.646-4.402,0.409c-0.457,0.687,0.217,3.536,0.117,4.406c-4.462-2.506-11.427-5.007-22.342-6.684
			c0,0-8.374-1.649-3.502,5.979c3.257,5.099,6.423,5.397,11.128,12.511c4.706,7.114,12.313,11.464,18.484,10.218l6.966,1.435
			l5.524-10.834L2334.552,1061.449z"/>
		<path fill="#9DB0F4" d="M2497.575,1045.814c0,0,33.553,128.524-68.455,107.162c-27.541-5.768-100.91-78.884-100.91-78.884
			s7.06-11.14,15.752-9.958c0,0,70.884,23.049,82.22,31.393c6.279,4.622,13.449-68.193,35.161-67.157
			C2483.055,1029.406,2497.575,1045.814,2497.575,1045.814z"/>
		<path fill="#163560" d="M2543.544,1589.285c0,0-1.875,30.228-7.723,30.662c-0.778,0.058-29.662,0.058-29.662,0.058l-36.873-0.214
			c0,0,0.241-8.885,11.019-10.763c10.777-1.878,28.819-9.453,35.347-23.698C2522.521,1570.343,2543.544,1589.285,2543.544,1589.285z
			"/>
		<path fill="#2B478B" d="M2545.669,1591.383c0,0-11.209,3.75-19.96,3.75c-9.762,0-18.634-2.659-18.634-2.659
			s-2.111-20.408-13.723-65.374c-6.089-23.568-14.783-53.873-27.153-91.527c-34.201-104.069-44.603-164.95-45.552-170.716
			c-0.051-0.303-0.071-0.455-0.071-0.455l0.112-0.05l105.15-46.168c0,0-12.996,143.431,3.584,198.484
			c2.323,7.695,4.313,16.662,6.019,26.376C2545.911,1502.844,2545.669,1591.383,2545.669,1591.383z"/>
		<path fill="#233862" d="M2535.439,1443.045l-42.088,84.056c-6.089-23.568-14.783-53.873-27.153-91.527
			c-34.201-104.069-44.603-164.95-45.552-170.716c0.011-0.172,0.021-0.334,0.04-0.505l105.15-46.168
			c0,0-12.996,143.431,3.584,198.484C2531.744,1424.364,2533.733,1433.331,2535.439,1443.045z"/>
		<path fill="#163560" d="M2461.416,1589.285c0,0-1.874,30.228-7.721,30.662c-0.779,0.058-29.663,0.058-29.663,0.058l-36.872-0.214
			c0,0,0.241-8.885,11.02-10.763c10.778-1.878,28.817-9.453,35.347-23.698C2440.393,1570.343,2461.416,1589.285,2461.416,1589.285z"
			/>
		<path fill="#2B478B" d="M2401.799,1221.564c0,0-1.365,92.944,14.716,207.064c16.081,114.119,10.63,162.562,10.63,162.562
			s11.049,3.579,15.508,3.943c11.36,0.925,23.008-2.663,23.008-2.663s23.017-114.162,16.418-171.281
			c-6.6-57.12,31.519-196.002,31.519-196.002L2401.799,1221.564z"/>
		<path fill="#FFB27D" d="M2478.384,1000.395l-18.438,16.19l-30.139-1.327c0.071-2.429,0.623-12.527,1.133-21.676
			c0.032-0.54,0.064-1.08,0.092-1.606c0.443-7.786,0.831-14.476,0.831-14.476l25.72-15.974l9.59-5.954
			c-0.005,0.163,0.393,8.516,0.456,9.733C2468.727,986.95,2478.384,1000.395,2478.384,1000.395z"/>
		<path fill="#AEC3FF" d="M2395.67,1225.586c0.422,49.057,3.691,163.824,6.1,166.158c25.551,24.665,137.943-6.763,143.903-33.936
			c5.951-27.173-22.646-348.415-66.289-361.244c-9.055-2.657-57.475,12.994-57.475,12.994s-7.591,19.864-12.573,45.176
			c-1.846,9.378-7.871,76.288-11.389,121c-0.927,11.918-1.688,22.256-2.135,29.507
			C2395.629,1208.238,2395.587,1215.538,2395.67,1225.586z"/>
		<path fill="#FCA56B" d="M2465.624,965.974c-4.583,11.053-25.781,23.044-34.684,27.608c0.032-0.54,0.064-1.08,0.092-1.606
			c0.443-7.786,0.831-14.476,0.831-14.476l25.72-15.974C2463.633,960.589,2467.515,961.424,2465.624,965.974z"/>
		<path fill="#FFB27D" d="M2422.353,978.59c0,0,46.538,4.326,48.787-24.697c2.248-29.023,9.77-48.011-19.85-52.001
			c-29.618-3.99-36.257,6.637-39.363,16.143C2408.821,927.54,2410.305,976.716,2422.353,978.59z"/>
		<path fill="#163560" d="M2413.082,915.039c0,0,9.546,31.185,15.823,28.408c6.278-2.778,12.022-5.069,13.098,4.715
			c1.076,9.783-5.684,22.784,14.93,20.169c20.615-2.616,38.615-61.044,30.946-69.749
			C2465.754,873.463,2382.471,885.167,2413.082,915.039z"/>
		<path fill="#9DB0F4" d="M2433.777,997.273c0.575-0.242,33.216-14.885,37.033-13.624c3.817,1.261,8.575,12.919,8.575,12.919
			l-57.475,12.994C2421.911,1009.562,2426.434,1000.364,2433.777,997.273z"/>
		<path fill="#9DB0F4" d="M2395.67,1225.586c87.451-63.238,89.848-149.479,89.848-149.479
			c-41.608,23.474-74.751,56.976-87.572,99.627c-0.927,11.918-1.688,22.256-2.135,29.507
			C2395.629,1208.238,2395.587,1215.538,2395.67,1225.586z"/>
		<g>
			<rect x="2240.368" y="965.193" fill="#FFFFFF" width="14.567" height="646.84"/>
			<g>
				<path fill="#FFFFFF" d="M2311.803,1073.144h-0.751c-12.621,0-22.948-10.326-22.948-22.947v-62.012h46.646v62.012
					C2334.75,1062.818,2324.424,1073.144,2311.803,1073.144z"/>
				<path fill="#D14842" d="M2311.428,1068.916L2311.428,1068.916c-10.773,0-19.587-8.814-19.587-19.586v-13.794h39.173v13.794
					C2331.014,1060.101,2322.2,1068.916,2311.428,1068.916z"/>
			</g>
			<rect x="2240.368" y="965.193" fill="#FFFFFF" width="104.348" height="11.597"/>
			<rect x="2307.911" y="976.79" fill="#FFFFFF" width="8.04" height="14.011"/>
		</g>
		<path fill="#FFB27D" d="M2267.657,1176.366c0,0-0.619-1.258-2.749-2.483c-1.612-1.545-5.831-6.404-6.354-7.666
			c-1.655-3.989-3.985-1.673-3.282,2.066c0.153,0.81,1.233,2.578,1.507,3.411c-5.102-0.407-12.475,0.238-23.087,3.287
			c0,0-8.296,2.01-0.677,6.897c5.094,3.266,8.094,2.211,15.346,6.7c7.253,4.489,15.981,5.253,21.064,1.537l6.927-1.614l0.478-12.152
			L2267.657,1176.366z"/>
		<path fill="#AEC3FF" d="M2461.342,1028.37c0,0,85.19,35.303-56.268,139.911c-22.624,16.73-131.69,24.818-131.69,24.818
			s-3.956-12.582,2.555-18.46c0,0,86.16-37.348,94.896-36.399c7.751,0.841,43.024-77.485,57.825-93.406
			C2443.461,1028.912,2461.342,1028.37,2461.342,1028.37z"/>
	</g>
	<path fill="#DFEBFD" d="M2097.413,338.11c-16.659-61.513-120.463-42.29-120.463-42.29s-70.483,107.648-90.987,110.211
		s42.29-103.803,42.29-103.803c-39.727-3.845-140.967,44.853-140.967,44.853s6.407,125.589-14.097,123.026
		c-20.505-2.563,0-111.492,0-111.492c-38.445,11.534-74.328,56.387-74.328,56.387c-44.854,73.047,51.261,126.871,51.261,126.871
		s1.281,43.571-25.63,93.55l-0.002,0.002c0,0-6.073,9.227-12.247,24.913h10.481c0.855-2.811,1.8-5.527,2.845-8.136
		c0-0.02,0.006-0.034,0.02-0.047c0.016-0.038,0.031-0.075,0.046-0.112c0.718-1.62,1.75-3.924,3.036-6.732
		c0.002-0.003,0.004-0.007,0.005-0.011c0-0.006,0.007-0.006,0.007-0.013c3.202-6.269,5.365-10.899,6.734-14.243
		c0.005-0.01,0.008-0.021,0.01-0.031c9.596-19.677,23.418-45.316,32.637-50.694c0,0-1.16-1.632-2.244-4.807
		c0.716,1.533,1.462,3.131,2.244,4.807c17.941,38.446,107.647,44.853,157.627,34.601c49.979-10.252,28.193-24.349,1.281-47.228
		c-26.912-22.879-83.299-16.848-99.959-25.818c-16.659-8.971,7.689-17.941,41.009-15.378s49.979,35.882,103.804,41.009
		c53.823,5.126,94.832-96.114,94.832-96.114c-37.164,11.534-103.804-8.97-106.366-21.786
		c-2.563-12.815,96.114-11.534,111.492-15.378C2087.161,430.379,2114.073,399.623,2097.413,338.11z"/>
	<path opacity="0.5" fill="#AFCDFB" d="M805.375,1371.362c-51.19-75.864,67.171-170.596,67.171-170.596
		s183.148,24.505,205.187,4.634s-152.495-51.527-152.495-51.527c33.128-46.774,181.107-111.043,181.107-111.043
		s130.437,124.896,146.906,100.211c16.47-24.685-121.137-104.696-121.137-104.696c48.633-30.941,131.062-27.808,131.062-27.808
		c121.485,19.86,89.709,174.832,89.709,174.832s46.138,42.308,125.711,60h0.003c0,0,15.729,2.066,38.569,10.087l-9.843,11.389
		c-3.857-1.71-7.695-3.235-11.511-4.55c-0.021-0.019-0.043-0.024-0.07-0.021c-0.055-0.02-0.11-0.037-0.165-0.057
		c-2.435-0.74-5.907-1.783-10.165-3.022c-0.006-0.001-0.011-0.003-0.017-0.004c-0.008-0.007-0.014,0.001-0.021-0.006
		c-9.818-2.407-16.881-4.405-21.798-6.059c-0.016-0.004-0.031-0.01-0.044-0.018c-30.39-8.053-71.226-17.11-85.726-12.145
		c0,0-0.684-2.792-3.116-6.951c0.994,2.217,2.03,4.528,3.116,6.951c24.924,55.596-52.353,159.079-110.424,203.755
		c-58.072,44.676-52.93,7.768-52.517-42.957c0.413-50.725,59.916-106.325,65.813-132.851c5.898-26.524-26.713-8.493-55.217,30.116
		c-28.504,38.608-7.946,87.997-52.92,151.291c-44.973,63.293-193.48,12.78-193.48,12.78
		c47.431-29.548,87.729-121.206,76.212-136.024c-11.517-14.819-102.787,93.598-121.405,106.695
		C915.253,1446.868,856.564,1447.226,805.375,1371.362z"/>
	<path fill="#DFEBFA" d="M926.291,315.829c24.941-91.385,179.178-62.512,179.178-62.512s104.456,160.211,134.926,164.08
		c30.471,3.869-62.56-154.415-62.56-154.415c59.062-5.6,209.404,67.077,209.404,67.077s-9.887,186.657,20.598,182.907
		c30.485-3.751,0.322-165.722,0.322-165.722c57.112,17.255,110.318,84.028,110.318,84.028
		c66.459,108.706-76.561,188.432-76.561,188.432s-2.03,64.761,37.826,139.128l0.003,0.002c0,0,9,13.733,18.132,37.066l-15.579-0.031
		c-1.265-4.18-2.659-8.221-4.205-12.101c0.001-0.03-0.01-0.05-0.029-0.07c-0.022-0.056-0.046-0.111-0.068-0.167
		c-1.063-2.41-2.589-5.838-4.493-10.015c-0.002-0.005-0.005-0.01-0.008-0.015c0-0.01-0.01-0.01-0.01-0.02
		c-4.741-9.327-7.943-16.217-9.968-21.19c-0.008-0.016-0.012-0.031-0.016-0.046c-14.205-29.276-34.676-67.426-48.364-75.446
		c0,0,1.729-2.422,3.349-7.139c-1.068,2.277-2.181,4.65-3.349,7.139c-26.779,57.094-160.137,66.359-234.396,50.976
		s-41.836-36.274-1.768-70.204c40.067-33.929,123.864-24.802,148.653-38.088c24.789-13.286-11.377-26.69-60.911-22.977
		c-49.534,3.713-74.393,53.191-154.412,60.655c-80.019,7.464-140.681-143.138-140.681-143.138
		c55.207,17.251,154.319-13.034,158.166-32.075c3.847-19.041-142.831-17.421-165.678-23.181
		C941.262,453.007,901.35,407.213,926.291,315.829z"/>
	<path fill="#DFEBFA" d="M808.778,784.025c7.169-69.747,123.29-67.301,123.29-67.301s95.638,104.371,118.356,103.514
		c22.718-0.856-64.344-105.201-64.344-105.201c42.452-11.226,161.021,23.678,161.021,23.678s15.336,137.5,37.145,131.077
		c21.808-6.422-19.791-121.056-19.791-121.056c43.791,5.699,90.713,48.03,90.713,48.03c61.667,71.351-33.137,146.853-33.137,146.853
		s6.343,47.536,44.435,97.025c0,0,0.002,0.002,0.002,0.002s8.232,8.941,17.721,24.875l-11.381,1.861
		c-1.428-2.9-2.935-5.682-4.532-8.329c-0.004-0.021-0.014-0.035-0.031-0.048c-0.023-0.038-0.047-0.075-0.07-0.114
		c-1.067-1.631-2.597-3.95-4.491-6.771c-0.003-0.003-0.005-0.007-0.008-0.01c-0.001-0.008-0.008-0.006-0.009-0.014
		c-4.589-6.238-7.761-10.882-9.84-14.27c-0.007-0.01-0.013-0.021-0.017-0.031c-13.911-19.662-33.47-45.047-44.434-49.25
		c0,0,0.97-1.978,1.583-5.617c-0.505,1.791-1.031,3.659-1.583,5.617c-12.656,44.929-108.92,67.81-165.007,65.55
		c-56.086-2.26-34.934-21.432-9.775-51.052c25.159-29.619,87.454-33.08,103.95-45.777c16.497-12.697-11.533-18.115-47.256-9.418
		c-35.723,8.697-47.897,47.833-105.428,62.953c-57.531,15.12-120.029-87.525-120.029-87.525
		c42.399,5.926,111.115-28.167,111.624-42.536c0.508-14.369-106.406,4.538-123.786,3.094
		C836.289,882.39,801.608,853.772,808.778,784.025z"/>
	<path fill="#DFEBFA" d="M1824.762,732.523c-66.959-52.944-163.387,50.479-163.387,50.479s9.913,172.061-10.118,191.162
		c-20.031,19.101-37.201-145.453-37.201-145.453c-45.832,27.523-116.011,160.633-116.011,160.633s106.989,130.096,82.873,143.678
		c-24.116,13.582-88.856-120.026-88.856-120.026c-32.196,43.057-35.079,119.94-35.079,119.94
		c9.93,114.385,156.297,95.729,156.297,95.729s36.104,45.885,46.965,121.138l-0.001,0.003c0,0,0.816,14.774,6.671,36.58
		l11.283-8.352c-1.318-3.709-2.468-7.385-3.422-11.026c-0.016-0.022-0.02-0.041-0.016-0.066c-0.014-0.053-0.026-0.106-0.04-0.158
		c-0.519-2.316-1.244-5.619-2.097-9.667c-0.001-0.005-0.002-0.01-0.003-0.015c-0.006-0.008,0.002-0.013-0.004-0.021
		c-1.549-9.3-2.91-16.01-4.102-20.699c-0.003-0.015-0.008-0.029-0.014-0.042c-5.354-28.83-10.906-67.447-5.268-80.584
		c0,0-2.549-0.832-6.246-3.388c1.992,1.08,4.068,2.207,6.246,3.388c49.955,27.09,151.635-37.506,197.269-88.375
		c45.634-50.869,10.946-48.683-36.26-51.864c-47.206-3.183-103.103,48.249-128.187,51.869s-6.021-25.442,31.892-49.238
		c37.912-23.796,82.402-1.203,144.432-38.581c62.028-37.377,25.491-179.05,25.491-179.05
		c-30.817,42.036-118.898,73.071-131.871,61.317c-12.973-11.753,94.279-89.016,107.771-105.411
		C1887.262,840.025,1891.722,785.466,1824.762,732.523z"/>
	<g>
		<path fill="#ED985F" d="M594.234,1169.636c-6.315-20.276-33.773-24.078-44.822-5.941c-1.987,3.261-3.244,7.01-3.354,11.302
			c-0.608,23.773,46.277,115.793,52.501,123.932c11.33,14.818,79.718,50.455,79.718,50.455l14.532-2.118
			c0,0-8.216-5.163-16.723-13.656c-17.571-17.541-43.187-46.061-47.879-50.011C620.154,1276.822,606.224,1208.133,594.234,1169.636z
			"/>
		<path fill="#B5453C" d="M614.084,1053.326c0.38-1.526-33.174,15.165-34.875,17.052c-15.736,17.455-11.249,40.234-2.245,40.453
			c5.775,0.14,4.656,9.741,4.656,9.741l64.333-27.216C645.953,1093.356,638.207,1048.187,614.084,1053.326z"/>
		<path fill="#B5453C" d="M622.005,1056.849c0,0,2.299-25.062-25.703-25.062c0,0,8.485,2.302,12.875,6.905
			c0,0-17.86-10.485-37.295,5.626c-19.436,16.111-7.36,56.517-13.27,64.189c-5.91,7.672-28.927,9.206-26.113,34.013
			c2.813,24.806,73.047,55.875,68.537,76.399c0,0,27.524-40.46,7.843-58.925c0,0,9.593,9.036,10.57,19.777
			c0,0,2.603-20.971-10.741-27.678c-11.809-5.935-21.482-27.643-20.459-31.523C589.271,1116.691,622.005,1056.849,622.005,1056.849z
			"/>
		<path fill="#2B478B" d="M543.351,1598.752l-13.922-2.046c0,0-46.81-37.199-53.781-106.61c-0.711-7.063-0.859-14.234-0.333-21.462
			c0.062-0.833-0.031-1.667-0.486-2.368c0-0.005-0.005-0.01-0.015-0.02c-1.499-2.297-5.228-8.051-10.275-16.234
			c-4.977-8.061-13.493-23.303-22.863-40.406c-16.878-30.801-36.529-67.637-43.271-79.37
			c-21.477-37.394-11.125-62.537-11.125-62.537s59.914-5.923,76.332-20.285l5.913,9.114c0,0,12.981,57.469,12.367,57.735
			c0.639,1.953,1.289,3.943,1.949,5.969c10.245,31.619,22.029,71.14,28.453,103.327c3.611,18.111,5.524,33.89,4.496,44.641
			c-0.352,3.688,0.077,9.355,1.059,16.351C523.649,1525.795,543.351,1598.752,543.351,1598.752z"/>
		<path fill="#233862" d="M572.554,1616.366h-58.082c0,0-1.392-8.853,1.642-15.568c2.907-6.444,7.05-6.649,0.529-16.751
			c3.69,3.801,15.555,5.372,23.952,4.242c1.029,1.668,6.633,12.859,10.07,15.328C554.46,1606.344,571.385,1605.373,572.554,1616.366
			z"/>
		<path fill="#233862" d="M483.842,1320.231c-5.074,27.982-17.058,74.552-42.165,89.374c-16.878-30.801-36.529-67.637-43.271-79.37
			c-21.477-37.394-11.125-62.537-11.125-62.537s59.914-5.923,76.332-20.285l5.913,9.114c0,0,12.981,57.469,12.367,57.735
			C482.532,1316.215,483.182,1318.206,483.842,1320.231z"/>
		<path fill="#2B478B" d="M443.107,1272.019l0.196-10.863c-21.644,2.729-74.628-25.864-74.628-25.864s-22.643,15.061-25.743,58.069
			c-1.513,20.993-11.084,109.772-12.143,136.283c-0.386,9.607-0.514,16.465-0.558,19.205c0.005,0.014,0.004,0.021,0.003,0.027
			c-0.013,0.836-0.406,1.573-0.92,2.235c-4.478,5.691-8.364,11.723-11.728,17.977c-33.027,61.448-15.756,144.943-15.756,144.943
			l7.669-1.95c0,0,27.926-86.556,46.177-123.996c3.098-6.35,5.912-11.289,8.266-14.149c6.863-8.334,14.099-22.489,21.231-39.525
			c13.483-32.206,26.572-74.703,35.907-107.609C421.74,1326.922,443.107,1272.019,443.107,1272.019z"/>
		<path fill="#FFB27D" d="M569.764,1199.516c-35.382-8.12-12.778-57.84-10.728-56.965c4.902-0.999,15.67-9.607,25.301-26.419
			l1.301,1.129l21.732,19.053c0,0-5.024,7.411-9.25,14.669c-3.302,5.683-6.109,11.281-5.663,13.203
			C594.208,1165.562,579.202,1201.685,569.764,1199.516z"/>
		<path fill="#9DB0F4" d="M592.105,1162.583c0,0,6.221,12.277,9.54,22.911c3.319,10.634,11.624,44.456,11.624,44.456
			s-17.127,19.545-40.953,18.403c0,0-12.811-20.054-8.296-38.163C568.534,1192.082,592.105,1162.583,592.105,1162.583z"/>
		<path fill="#ED985F" d="M607.37,1136.32c0,0-5.025,7.401-9.249,14.668c-13.511-8.329-13.526-25.057-12.485-33.721L607.37,1136.32z
			"/>
		<path fill="#FFB27D" d="M607.973,1145.863c0,0-32.806-18.256-21.124-38.511c11.683-20.255,15.316-36.252,36.756-25.453
			c21.44,10.799,21.016,20.854,18.761,28.563C640.111,1118.171,616.808,1150.088,607.973,1145.863z"/>
		<path fill="#B5453C" d="M647.908,1098.648c-1.502-8.992-6.071-9.852-9.256-9.251c-12.115-20.036-31.909-12.216-31.909-12.216
			c-10.572,13.267-25.857,15.53-25.857,15.53s3.808,7.084,19.493,11.468c4.791,1.34,10.229,0.529,15.474-1.236
			c-10.882,6.067-22.263,8.392-22.263,8.392c20.67,1.892,40.337-17.006,42.377-19.027c0.954,2.929,2.626,9.059,1.625,13.542
			c-1.361,6.092-6.768,17.124-3.466,18.552C634.125,1124.401,650.161,1112.135,647.908,1098.648z"/>
		<path fill="#233862" d="M348.019,1616.366h-58.083c0,0-1.392-8.853,1.642-15.568c2.907-6.444,7.46-9.373,6.37-17.17
			c3.69,3.8,9.706,8.056,18.102,6.926c1.029,1.668,6.642,10.595,10.078,13.063C329.925,1606.344,346.85,1605.373,348.019,1616.366z"
			/>
		<path fill="#AEC3FF" d="M573.929,1238.933c-7.475,2.606-17.96,4.039-28.69,5.202c-15.273,1.668-31.044,2.805-39.302,6.104
			c-1.614,0.64-6.311,2.605-11.018,6.014v0.009c0,0-0.117,0.072-0.325,0.244c-1.56,1.136-3.12,2.452-4.553,3.931
			c-2.191,2.254-4.103,4.887-5.329,7.907c-3.03,7.483,0.983,28.23,3.552,39.573c1.037,4.563-1.118,9.277-5.274,11.433
			c-5.807,3.003-11.514,5.779-17.122,8.314c-0.297,0.135-0.586,0.261-0.884,0.396c0.054-1.154,0.072-2.299,0.072-3.417
			c0.009-7.826-0.983-14.337-0.983-14.337c-1.379,7.898-6.582,16.429-11.433,22.992c-77.947,31.278-132.406,17.682-131.513,2.1
			c3.074-54.098,39.555-100.108,39.555-100.108c68.038-79.119,205.664-99.946,205.664-99.946s6.591-0.794,14.544,8.764
			c11.441,13.768,12.01,17.357,12.01,17.357S595.92,1231.26,573.929,1238.933z"/>
		<path fill="#9DB0F4" d="M545.233,1244.134c-15.272,1.667-31.041,2.809-39.301,6.102c-3.375-50.441,20.428-88.382,20.428-88.382
			S541.889,1225.046,545.233,1244.134z"/>
		<path fill="#9DB0F4" d="M488.264,1307.917c1.037,4.563-1.118,9.277-5.274,11.433c-5.807,3.003-11.514,5.779-17.122,8.314
			c-0.297-0.956-0.568-1.957-0.812-3.021c-0.884-3.949-1.29-8.674-0.983-14.337c1.298-23.947,17.609-42.079,25.967-49.869
			c-2.191,2.254-4.103,4.887-5.329,7.907C481.682,1275.828,485.695,1296.575,488.264,1307.917z"/>
		<path fill="#9DB0F4" d="M566.346,1135.344c0,0,5.992-7.575,10.043-7.331c0,0,16.378,22.93,16.511,33.451
			C592.899,1161.464,572.47,1134.28,566.346,1135.344z"/>
		<path fill="#ED985F" d="M723.481,1357.228c0,0-8.709,0.156-10.589-0.115c-1.845-0.266-4.312-1.067-6.792-1.155
			c-2.438-0.09-4.679,0.701-6.97,1.171c-0.341,0.07-0.69,0.1-1.038,0.1h-14.444c0,0-1.449-0.692-3.035-3.242
			c-0.684-1.104-0.777-3.733-2.337-4.601c-8.746-4.882,14.532-2.118,14.532-2.118s14.614-0.266,15.964,0.742
			C711.174,1349.814,724.024,1356.536,723.481,1357.228z"/>
		<path fill="#ED985F" d="M683.65,1357.232c0,0,8.867,2.559,11.277,4.203l2.544,1.606c0,0,1.472-1.643-0.847-3.469
			c-1.223-0.964-4.601-3.779-4.71-7.011C691.805,1349.331,681.793,1352.153,683.65,1357.232z"/>
		<g>
			<path fill="#FFFFFF" d="M821.469,1603.252L821.469,1603.252c-20.881,0-37.808-16.928-37.808-37.809v-238.777h75.616v238.777
				C859.277,1586.324,842.35,1603.252,821.469,1603.252z"/>
			<path fill="#D14842" d="M821.469,1592.286L821.469,1592.286c-15.514,0-28.091-12.577-28.091-28.091v-84.929h56.182v84.929
				C849.56,1579.708,836.983,1592.286,821.469,1592.286z"/>
		</g>
		<g>
			<path fill="#FFFFFF" d="M934.356,1603.252L934.356,1603.252c-20.881,0-37.808-16.928-37.808-37.809v-238.777h75.616v238.777
				C972.164,1586.324,955.236,1603.252,934.356,1603.252z"/>
			<path fill="#D14842" d="M934.356,1592.286L934.356,1592.286c-15.515,0-28.091-12.577-28.091-28.091v-108.497h56.182v108.497
				C962.447,1579.708,949.87,1592.286,934.356,1592.286z"/>
		</g>
		<g>
			<path fill="#FFFFFF" d="M652.099,1427.319L652.099,1427.319c-19.237-8.119-28.251-30.296-20.132-49.534l92.843-219.988
				l69.666,29.401l-92.843,219.989C693.514,1426.424,671.337,1435.438,652.099,1427.319z"/>
			<path fill="#D14842" d="M659.027,1418.34l-5.328-2.249c-12.822-5.411-18.83-20.192-13.418-33.015l66.981-158.711l60.366,1.455
				l-75.587,179.101C686.63,1417.744,671.849,1423.752,659.027,1418.34z"/>
		</g>
		<path fill="#FFB27D" d="M644.992,1383.221c0,0,6.337,5.631,11.157,6.819c4.82,1.189,10.297,14.992,11.173,16.963
			c0.876,1.973-4.601-0.876-6.792-4.235c-2.19-3.359-3.687-4.674-4.326-3.943c-0.64,0.73,0.383,9.932,4.034,15.044
			c3.651,5.111,5.842,9.64,3.213,9.348s-18.257-4.09-21.47-13.583c-3.213-9.494-0.857-9.827-8.242-19.593
			C626.354,1380.276,644.992,1383.221,644.992,1383.221z"/>
		<path fill="#FFB27D" d="M561.274,1152.095c0,0-38.278,3.781-41.347,28.653c-3.068,24.871,36.698,126.176,42.393,135.349
			c10.368,16.7,71.419,73.943,71.419,73.943l11.252-6.819c0,0-43.304-73.31-50.009-80.171
			C584.457,1292.279,574.235,1160.711,561.274,1152.095z"/>
		<path fill="#AEC3FF" d="M580.885,1199.611c0,0,3.932-64.129-45.152-48.623c-49.084,15.506,7.618,125.807,7.618,125.807
			s28.808-1.423,39.024-26.559L580.885,1199.611z"/>
		<rect x="660.389" y="1570.635" fill="#D4E4F8" width="343.15" height="10.626"/>
		<rect x="660.389" y="1578.647" fill="#D4E4F8" width="16.066" height="34.148"/>
		<rect x="985.235" y="1570.635" fill="#D4E4F8" width="18.305" height="42.16"/>
	</g>
	<g>
		<g>
			<path fill="#FFFFFF" d="M1848.09,1359.177H1219.71c-37.563,0-68.015-30.451-68.015-68.016V514.026
				c0-37.564,30.452-68.016,68.015-68.016h628.381c37.564,0,68.016,30.452,68.016,68.016v777.136
				C1916.106,1328.726,1885.655,1359.177,1848.09,1359.177z"/>
			<rect x="1452.881" y="386.093" fill="#FFFFFF" width="162.038" height="82.852"/>
			<path fill="#FFFFFF" d="M1545.402,1439.496h-23.004c-21.445,0-38.83-17.385-38.83-38.83v-64.736
				c0-21.445,17.385-38.83,38.83-38.83h23.004c21.445,0,38.831,17.385,38.831,38.83v64.736
				C1584.233,1422.111,1566.847,1439.496,1545.402,1439.496z"/>
			<path fill="#E85D52" d="M1890.409,532.848v736.349c0,35.287-28.608,63.896-63.905,63.896H1575.5
				c-6.994,0-12.661,5.676-12.661,12.67v47.69c0,15.164-12.297,27.462-27.451,27.462h-2.972c-15.164,0-27.452-12.298-27.452-27.462
				v-45.616c0-8.141-6.603-14.743-14.744-14.743h-248.921c-35.297,0-63.905-28.608-63.905-63.896V532.848
				c0-35.297,28.608-63.905,63.905-63.905h585.205C1861.8,468.943,1890.409,497.551,1890.409,532.848z"/>
			<path fill="#D14842" d="M1890.409,532.848v736.349c0,35.287-28.608,63.896-63.905,63.896H1575.5
				c-6.994,0-12.661,5.676-12.661,12.67v47.69c0,15.164-12.297,27.462-27.451,27.462h-2.972c-15.164,0-27.452-12.298-27.452-27.462
				v-45.616c0-8.141-6.603-14.743-14.744-14.743h-248.921c-35.297,0-63.905-28.608-63.905-63.896v-93.478
				C1177.394,1175.718,1672.881,969.505,1890.409,532.848z"/>
			<g>
				<g>
					<path fill="#FFFFFF" d="M1536.475,1117.116c-61.006,0-118.359-23.757-161.497-66.895
						c-43.137-43.137-66.894-100.49-66.894-161.496c0-61.005,23.757-118.359,66.894-161.496
						c43.137-43.137,100.491-66.894,161.497-66.894c61.005,0,118.358,23.757,161.496,66.894
						c43.137,43.137,66.894,100.491,66.894,161.496c0,61.005-23.757,118.359-66.894,161.496
						C1654.834,1093.359,1597.48,1117.116,1536.475,1117.116z M1536.475,681.357c-55.391,0-107.466,21.57-146.632,60.737
						c-39.167,39.167-60.737,91.241-60.737,146.631c0,55.39,21.57,107.465,60.737,146.632s91.242,60.737,146.632,60.737
						c55.39,0,107.464-21.57,146.632-60.737c39.167-39.168,60.737-91.242,60.737-146.632c0-55.39-21.57-107.465-60.737-146.631
						C1643.939,702.927,1591.865,681.357,1536.475,681.357z"/>
				</g>
				<polygon fill="#FFFFFF" points="1683.986,851.471 1573.73,851.471 1573.73,741.215 1499.219,741.215 1499.219,851.471 
					1388.964,851.471 1388.964,925.981 1499.219,925.981 1499.219,1036.237 1573.73,1036.237 1573.73,925.981 1683.986,925.981 				
					"/>
			</g>
		</g>
		<g>
			<path fill="#FFB27D" d="M2161.07,1150.029c-12.011,35.984-25.837,66.81-40.991,82.699c-14.84,15.547-25.179,35.594-32.363,56.442
				c-18.604,53.978-16.12,113.238-16.12,113.238l-204.499-163.642c0,0-60.848-204.795-55.305-244.124
				c8.083-57.303-12.575-161.177-9.766-184.09c2.093-16.989-2.953-99.689-2.886-105.9c0.038-2.685,5.351-8.495,13.816-11.218
				c6.784-2.188,20.429,0.66,27.682,13.206c36.672,63.418,33.472,114.079,34.321,116.009c22.063,50.709,19.016,94.615,33.262,101.39
				c0.535,0.249,1.233-0.172,2.083-1.204c15.021-18.269,77.358-227.661,90.65-236.031c5.437-3.42,33.739,36.95,66.418,87.745
				c11.809,18.346,24.184,38.058,36.252,57.561c2.245,3.621,4.472,7.243,6.688,10.845c2.064,3.345,3.65,6.87,4.873,10.53
				c0.22,0.65,0.429,1.309,0.611,1.968c9.049,30.701-6.583,69.839,4.978,89.169c0.315,0.535,0.659,1.051,1.032,1.558
				c1.786,2.465,4.089,4.567,6.765,6.335c9.373,6.229,23.171,8.504,34.388,9.24c10.654,0.697,18.967,0.019,18.967,0.019
				S2191.264,1059.628,2161.07,1150.029z"/>
			<path fill="#FFB27D" d="M2092.347,1618.538l-256.422,1.768l-12.938-0.047c22.416-181.873,44.106-381.49,44.106-381.49
				s199.492-29.821,210.518,89.427v0.029C2077.613,1328.224,2061.961,1479.329,2092.347,1618.538z"/>
			<path fill="#FFB27D" d="M2106.941,618.729l-26.42,89.587l-25.923,87.914c-1.83,4.582-4.896,6.958-8.766,7.807
				c-12.157,2.683-32.236-9.625-46.647-15.378l-1.459-0.575c-18.999-7.572-28.345-29.31-20.771-48.301l45.854-115.042l-0.003-0.009
				l13.601-34.117c7.571-18.999,29.309-28.345,48.301-20.771l1.459,0.575C2105.167,577.991,2114.512,599.73,2106.941,618.729z"/>
			<path fill="#FFC197" d="M1799.202,708.121l3.358,48.556c0,0,11.021,0.844,16.276-4.264
				C1824.092,747.304,1816.189,705.317,1799.202,708.121z"/>
			<g opacity="0.5">
				<path fill="#EFA26F" d="M2121.808,946.179l-10.788,9.307c-0.917,0.793-1.863,1.519-2.838,2.159
					c-13.558,9.145-32.325,5.408-43.218-9.201l-1.29-1.711c-11.677-15.66-10.062-38.105,3.593-49.887l36.357-31.36l2.646-2.284
					l5.8-5.007c1.195-1.032,2.437-1.94,3.727-2.743c9.049,30.701-6.583,69.839,4.978,89.169
					C2121.091,945.157,2121.435,945.672,2121.808,946.179z"/>
				<path fill="#EFA26F" d="M2158.098,994.07l-31.427,21.767c-9.546,6.621-22.817,3.162-29.497-7.683l-2.484-4.042
					c-6.669-10.835-4.319-25.12,5.226-31.732l28.656-19.865c9.373,6.229,23.171,8.504,34.388,9.24l0.354,0.573
					C2169.995,973.172,2167.644,987.458,2158.098,994.07z"/>
				<path fill="#EFA26F" d="M2115.186,853.484l-26.506,17.744c-18.222,12.212-42.874,6.822-54.789-11.973l-6.097-9.632
					c-11.438-18.04-7.138-42.157,9.364-54.846l13.682-9.164l16.531-11.065c11.809,18.346,24.184,38.058,36.252,57.561
					c2.245,3.621,4.472,7.243,6.688,10.845C2112.377,846.299,2113.963,849.825,2115.186,853.484z"/>
			</g>
			<g>
				<path fill="#FFB27D" d="M2171.409,904.091l-6.556,5.248l-44.08,35.284c-1.032,0.827-2.102,1.594-3.196,2.276
					c-15.24,9.687-35.797,6.525-47.326-7.879l-1.357-1.691c-12.356-15.436-9.837-38.175,5.598-50.53l41.096-32.892l2.986-2.393
					l6.555-5.247c15.435-12.355,38.167-9.833,50.521,5.603l1.358,1.692C2189.362,868.998,2186.844,891.737,2171.409,904.091z"/>
				<path fill="#FFD3B6" d="M2130.986,918.395c-7.359,5.88-20.72,16.411-28.461,20.194c-2.189,1.07-6.825,1.186-12.167-1.866
					c-3.204-1.825-6.662-4.785-9.991-9.358c-1.565-2.151-2.99-4.337-4.062-6.719c-1.245-2.791-2.094-5.711-2.513-8.738
					c-0.373-2.728,0.632-5.647,2.804-7.716c0.006-0.012,0.024-0.018,0.031-0.03c7.302-6.905,17.317-15.678,26.616-21.767
					c6.424-4.22,14.563-3.407,18.782,2.044l1.986,2.542l10.15,13.027C2138.369,905.422,2137.003,913.607,2130.986,918.395z"/>
				<path fill="#FFC197" d="M2130.986,918.395c-7.359,5.88-20.72,16.411-28.461,20.194c-2.189,1.07-6.825,1.186-12.167-1.866
					c-0.739-0.846-1.46-1.759-2.185-2.752c-1.565-2.151-2.99-4.338-4.062-6.719c-1.244-2.792-2.095-5.711-2.513-8.738
					c-0.373-2.728,0.633-5.647,2.804-7.716c0.007-0.012,0.024-0.018,0.031-0.03c7.302-6.905,17.316-15.678,26.615-21.768
					c4.115-2.705,8.927-3.344,12.962-2.02l10.15,13.027C2138.369,905.422,2137.003,913.607,2130.986,918.395z"/>
			</g>
			<g>
				<path fill="#FFB27D" d="M2171.382,982.065l-35.338,23.035c-10.739,6.999-25.251,3.94-32.25-6.798l-2.607-3.999
					c-6.999-10.738-3.941-25.251,6.797-32.25l35.339-23.035c10.739-7,25.251-3.94,32.25,6.797l2.607,4
					C2185.178,960.553,2182.12,975.066,2171.382,982.065z"/>
				<path fill="#FFD3B6" d="M2149.822,986.918c-6.503,4.194-18.287,11.693-24.908,14.233c-2.407,0.928-7.99,0.437-13.272-4.977
					c-1.293-1.306-2.546-2.899-3.745-4.823c-1.081-1.75-2.046-3.518-2.698-5.415c-0.771-2.235-1.2-4.54-1.274-6.908
					c-0.07-2.136,1.011-4.35,2.953-5.837c0.016-0.016,0.025-0.018,0.031-0.031c6.542-4.987,15.455-11.297,23.549-15.559
					c5.588-2.947,12.125-1.912,15.087,2.526l2.125,3.166l6.362,9.515C2156.971,977.212,2155.137,983.501,2149.822,986.918z"/>
				<path fill="#FFC197" d="M2149.822,986.918c-6.503,4.194-18.287,11.693-24.908,14.233c-2.407,0.928-7.99,0.437-13.272-4.977
					c-1.003-1.633-1.886-3.304-2.503-5.092c-0.769-2.225-1.2-4.54-1.274-6.908c-0.067-2.127,1.01-4.35,2.953-5.838
					c0.014-0.015,0.024-0.018,0.03-0.03c6.542-4.987,15.455-11.297,23.552-15.55c4.625-2.443,9.909-2.15,13.27,0.537l6.362,9.515
					C2156.971,977.212,2155.137,983.501,2149.822,986.918z"/>
			</g>
			<g>
				<path fill="#FFB27D" d="M2146.252,830.243c-0.243,0.19-0.49,0.371-0.744,0.554l-46.583,29.411
					c-20.48,12.938-47.47,8.299-59.974-10.304l-6.407-9.531c-12.013-17.86-6.474-42.372,12.126-55.737l15.379-9.711l31.205-19.7
					c20.48-12.938,47.47-8.299,59.975,10.304l6.407,9.531C2169.478,792.681,2164.245,816.759,2146.252,830.243z"/>
				<path fill="#FFD3B6" d="M2118.408,823.569l-21.088,19.073c-0.034,0.021-0.077,0.045-0.145,0.087
					c-0.905,0.586-1.842,1.11-2.786,1.577c-0.393,0.198-0.8,0.38-1.198,0.559c-0.169,0.075-0.343,0.131-0.521,0.178
					c-2.747,0.784-5.541-1.498-5.194-4.448c0.695-5.829-0.565-11.91-3.997-17.18l-1.281-1.959c-0.006-0.019-0.024-0.043-0.039-0.059
					l-4.168-6.39c-3.315-5.094-8.045-8.729-13.34-10.752c-0.638-0.25-1.285-0.467-1.936-0.663
					c-5.966-1.807-7.191-9.856-1.992-13.285c0.05-0.036,0.092-0.06,0.142-0.096l25.758-12.825
					c6.107-3.976,14.214-0.903,18.199,5.202l4.749,7.278l10.112,15.523C2123.662,811.505,2124.515,819.593,2118.408,823.569z"/>
				<path fill="#FFC197" d="M2118.408,823.569l-21.088,19.073c-0.034,0.021-0.077,0.045-0.145,0.087
					c-0.543,0.296-2.254,1.183-4.505,2.314c-2.747,0.784-5.541-1.498-5.194-4.448c0.695-5.829-0.565-11.91-3.997-17.18l-1.281-1.959
					c-0.006-0.019-0.024-0.043-0.039-0.059l-4.168-6.39c-3.315-5.094-8.045-8.729-13.34-10.752c0.461-1.558,1.44-2.988,2.993-4.016
					c0.04-0.033,0.092-0.06,0.142-0.096l25.758-12.825c5.143-3.351,11.699-1.693,16.026,2.547l10.112,15.523
					C2123.662,811.505,2124.515,819.593,2118.408,823.569z"/>
			</g>
			<path fill="#EFA26F" d="M1920.952,968.852c0,0,60.814,83.925,76.512,122.833c21.146,52.415-0.457,128.652-0.457,128.652
				s43.586-70.179,28.9-115.735C2005.777,1042.152,1965.886,1019.447,1920.952,968.852z"/>
		</g>
		<path fill="#FFFFFF" d="M1605.691,1549.427h201.776v19.11h-201.776c-44.03,0-79.862-35.832-79.862-79.862v-67.765h19.11v67.765
			C1544.939,1522.176,1572.191,1549.427,1605.691,1549.427z"/>
		<path fill="#FFFFFF" d="M1962.375,1412.789v75.887c0,44.03-35.832,79.862-79.862,79.862H1740.58v-19.11h141.933
			c33.5,0,60.752-27.251,60.752-60.752v-75.887H1962.375z"/>
		<path fill="#D14842" d="M1605.691,1556.116h201.776v5.733h-201.776c-40.342,0-73.173-32.832-73.173-73.174v-67.765h5.732v67.765
			C1538.251,1525.855,1568.503,1556.116,1605.691,1556.116z"/>
		<path fill="#D14842" d="M1955.685,1412.789v75.887c0,40.342-32.831,73.174-73.173,73.174H1740.58v-5.733h141.933
			c37.188,0,67.44-30.261,67.44-67.44v-75.887H1955.685z"/>
		<g>
			<path fill="#FFFFFF" d="M2026.393,1427.879h-141.416c-6.306,0-11.466-5.159-11.466-11.466v-37.125
				c0-6.307,5.16-11.467,11.466-11.467h141.416c6.307,0,11.467,5.16,11.467,11.467v37.125
				C2037.86,1422.72,2032.7,1427.879,2026.393,1427.879z"/>
			<rect x="1921.764" y="1367.822" fill="#D4E4F8" width="67.842" height="60.058"/>
		</g>
	</g>
	<path fill="#2E3552" d="M2791.694,1620.1H135.163c-1.782,0-3.24-1.458-3.24-3.239v-1.665c0-1.782,1.458-3.24,3.24-3.24h2656.531
		c1.782,0,3.24,1.458,3.24,3.24v1.665C2794.934,1618.642,2793.476,1620.1,2791.694,1620.1z"/>
	<g>
		<path fill="#233862" d="M1117.76,1620.538h42.679c-0.319-2.238-1.407-9.047-3.404-15.319c-0.692-2.184-1.5-4.306-2.417-6.149
			c-4.15-8.285-30.515-3.016-30.515-3.016s-2.448,2.099-4.36,10.112C1118.895,1609.696,1118.149,1614.382,1117.76,1620.538z"/>
		<path fill="#AEC3FF" d="M1196.109,968.628c0,0,34.009,5.972,41.697,26.045c7.688,20.073,51.126,344.322,51.126,344.322
			s-21.51,17.043-67.681,10.924C1175.08,1343.801,1196.109,968.628,1196.109,968.628z"/>
		<path fill="#233862" d="M1246.731,1607.068c0.117,5.807,0.847,11.302,2.954,13.47h84.417c-1.073-3.054-4.112-7.647-12.778-9.055
			c-9.848-1.593-25.199-6.335-34.161-15.809c-3.194-3.365-5.573-7.337-6.614-11.978c-3.972-17.683-32.839,5.418-32.839,5.418
			S1246.544,1598.425,1246.731,1607.068z"/>
		<path fill="#233862" d="M1283.085,1598.47c-9.435,3.009-27.464,12.197-38.919,7.875c-7.401-2.79-48.778-122.479-51.461-174.83
			c-0.198-3.807-0.946-9.117-2.119-15.593c-2.451-13.51-6.737-32.076-11.674-52.564c-13.241-54.894-31.151-123.566-30.762-145.516
			c0.6-34.068,101.525-7.14,101.525-7.14s6.942,27.945,8.326,68.404c2.74,80.31,10.275,215.966,30.77,310.175
			C1289.638,1593.28,1286.997,1597.228,1283.085,1598.47z"/>
		<path fill="#2B478B" d="M1213.037,1217.962l-53.353,386.687c0,0-23.43,5.65-41.653,1.13c0,0-15.62-205.658-14.318-255.377
			c1.302-49.72-11.21-133.041,2.855-142.229C1120.634,1198.984,1213.037,1217.962,1213.037,1217.962z"/>
		<path fill="#FFFFFF" d="M1099.824,986.342c0,0,56.069-36.255,96.285-17.714c6.408,2.955,13.719,11.199,18.952,16.966
			c14.537,16.018,42.941,270.47,42.941,270.47s-80.633,27.309-158.179-9.268V986.342z"/>
		<path fill="#AEC3FF" d="M1199.299,967.709c0,0,56.762,23.263,64.45,41.137c7.688,17.874,32.675,127.635,32.675,140.506
			c0,12.871-43.507,2.878-50.51-17.881c-5.815-17.238-25.433-70.194-35.777-103.688L1199.299,967.709z"/>
		<g>
			<path fill="#FFB27D" d="M1187.511,985.434c-12.391,2.431-30.594-0.16-43.921-8.944c6.017-14.371,8.483-25.718,9.361-33.061
				c0.051-0.391,0.09-0.768,0.128-1.134c0.397-3.806,0.339-6.388,0.154-7.573h32.035c0,0,8.759,4.004,8.759,6.773
				c0,1.479,0.013,2.896,0.038,4.248c0.064,3.684,0.212,6.9,0.404,9.661c0.609,8.989,1.64,13.225,1.64,13.225
				S1200.024,982.98,1187.511,985.434z"/>
			<path fill="#E2915A" d="M1194.469,955.404c-24.27,4.691-38.359-8.572-41.518-11.975c-0.448-0.486-0.679-0.775-0.679-0.775
				c0.256-0.128,0.526-0.243,0.808-0.358c9.034-3.658,29.537-0.75,40.986,3.447C1194.13,949.426,1194.277,952.643,1194.469,955.404z
				"/>
			<path fill="#FFB27D" d="M1145.023,929.457c4.337,23.342,34.456,22.575,47.472,21.107c3.663-0.407,5.967-0.875,5.967-0.875
				c4.13-1.103,6.435-7.607,7.505-16.129c2.125-16.864-0.56-41.619-3.408-47.95c-4.288-9.527-12.364-19.831-42.694-12.396
				C1129.529,880.653,1139.458,899.55,1145.023,929.457z"/>
			<path fill="#233862" d="M1203.689,872.589c-4.145-5.739-12.935-12.752-20.918-17.071c-17.15-9.278-39.101,0.292-39.192,0.333
				c-24.774,10.892-31.244,29.846-18.109,59.372c13.889,31.222,27.114,27.709,27.114,27.709s-2.807-1.747-2.553-11.478
				c0.014-0.554,0.037-1.016,0.062-1.413c0.127-1.994-0.576-3.993-2.066-5.324c-3.077-2.746-4.577-11.052-2-13.365
				c3.108-2.79,7.477,0.599,8.872,3.205c1.219,1.841,3.403,2.485,5.437,1.2c7.71-4.875,2.702-14.624,10.07-20.589
				c7.368-5.964,22.319-0.957,33.373-5.71C1218.245,884.067,1206.813,876.914,1203.689,872.589z"/>
		</g>
		<path fill="#AEC3FF" d="M1207.14,1362.819c-4.882,1.256-9.713,2.287-14.519,3.082c-4.248,0.724-8.477,1.262-12.711,1.621
			c-23.995,2.089-48.098-1.288-76.27-9.367c-6.343-1.82-12.897-3.883-19.702-6.17c-0.724-0.244,1.852-74.739,4.825-151.579
			c0.301-7.933,0.615-15.897,0.922-23.803c0.135-3.351,0.263-6.683,0.397-10.008c2.697-67.96,5.369-129.334,5.933-132.64
			c1.288-7.478,2.492-13.853,3.806-19.375c3.838-16.102,8.605-24.931,18.997-32.522c1.012-0.77,9.322-4.959,16.652-8.605
			c6.074-3.018,11.469-5.65,11.469-5.65c0.007,0,0.007,0,0.007,0c2.415,1.186,5.317,6.721,8.354,14.492
			c5.581,14.327,11.604,36.265,15.793,52.647c0.013,0.045,0.02,0.07,0.02,0.083c0,0.007,0,0.007,0,0.007
			c2.697,10.578,4.632,18.817,5.183,21.182c0.936,3.992,2.172,11.719,3.626,22.194c1.973,14.256,4.332,33.605,6.824,55.563
			c0.256,2.255,0.512,4.543,0.769,6.849c0.295,2.634,0.596,5.299,0.891,7.99c0.096,0.864,0.192,1.73,0.282,2.595
			c0.961,8.694,1.928,17.671,2.89,26.795c0.801,7.541,12.237,12.993,13.025,20.662c0.455,4.504,1.405,46.059,2.629,59.322
			C1208.11,1267.652,1207.486,1358.366,1207.14,1362.819z"/>
		<path fill="#9DB0F4" d="M1124.389,1061.352c-0.036,0.155-1.944,68.723,49.634,77.052c51.577,8.329,17.308,10.531,17.308,10.531
			s-97.043-4.124-98.645-6.688C1091.084,1139.685,1124.389,1061.352,1124.389,1061.352z"/>
		<path fill="#9DB0F4" d="M1167.967,1167.838c0,0-0.968,0.686-2.826,1.884c-0.032,0.013-0.064,0.038-0.096,0.057
			c-7.868,5.023-31.222,18.715-65.224,27.897c-3.569,0.967-7.259,1.884-11.059,2.729c0.301-7.933,0.615-15.897,0.922-23.803
			c-4.491-0.353-8.79-0.923-12.782-1.769c0.134-1.044,0.275-2.089,0.41-3.133c4.325-1.774,8.624-3.485,12.77-5.107
			c3.376-1.32,6.644-2.576,9.739-3.742c13.968-5.305,24.321-8.9,24.321-8.9l41.345,13.097L1167.967,1167.838z"/>
		<path fill="#AEC3FF" d="M1178.911,1166.691c0,0-5.312,1.326-13.769,3.031c-0.032,0-0.058,0.006-0.089,0.018
			c-15.595,3.134-41.813,7.528-65.231,7.292c-3.454-0.039-6.849-0.174-10.136-0.43c-4.491-0.353-8.79-0.923-12.782-1.769
			c-8.56-1.807-15.729-4.863-20.419-9.643c-34.835-35.482,19.01-162.83,30.331-175.222c13.218-14.467,37.34-19.541,50.661-21.284
			c0.557-0.07,1.089-0.141,1.608-0.205c4.684-0.558,7.688-0.673,7.855-0.679c0.007,0,0.007,0,0.007,0s-1.045,3.357-2.794,9.053
			c-0.679,2.204-1.467,4.761-2.332,7.612c-8.182,26.794-23.969,79.454-30.927,109.151c-2.55,10.866-3.915,18.657-3.293,20.982
			c2.716,10.143,30.863,15.358,48.694,17.665c7.438,0.961,13.083,1.416,14.346,1.512c0.089,0,0.173,0.007,0.263,0.02l1.031,4.228
			l2.467,10.143l2.428,9.963L1178.911,1166.691z"/>
		<polygon fill="#233862" points="1276.069,1227.734 1156.43,1222.693 1180.703,1073.595 1300.341,1078.635 		"/>
		<path fill="#FFB27D" d="M1170.902,1133.798c0,0,23.289-1.624,24.458,3.805c2.723,12.654-20.022,23.045-27.39,22.334
			C1160.601,1159.227,1165.542,1132.954,1170.902,1133.798z"/>
		<path fill="#FFB27D" d="M1293.801,1108.913c0,0-22.282-6.967-24.674-1.956c-5.576,11.681,14.149,27.051,21.481,28.064
			C1297.941,1136.035,1299.211,1109.331,1293.801,1108.913z"/>
		<path fill="#9DB0F4" d="M1149.362,960.315c0,0-11.053,1.917-15.965,8.965c0,0,37.878,66.339,37.715,65.743
			S1158.732,968.46,1149.362,960.315z"/>
		<path fill="#9DB0F4" d="M1194.976,961.211c3.227,1.218,9.412,7.555,10.807,11.059l4.354,55.512c0,0-9.296-40.739-14.028-59.153
			C1194.906,963.948,1195.128,962.526,1194.976,961.211z"/>
		<path fill="#C65447" d="M1220.363,1075.266c0,0,0.945-4.137,6.392-3.656c5.446,0.48,36.04,1.985,36.04,1.985
			s5.9-0.097,5.353,3.684L1220.363,1075.266z"/>
	</g>
</g>
</svg>
