<?xml version="1.0" encoding="utf-8"?>
<!-- Generator: Adobe Illustrator 17.0.0, SVG Export Plug-In . SVG Version: 6.00 Build 0)  -->
<!DOCTYPE svg PUBLIC "-//W3C//DTD SVG 1.1//EN" "http://www.w3.org/Graphics/SVG/1.1/DTD/svg11.dtd">
<svg version="1.1" id="Isolation_Mode" xmlns="http://www.w3.org/2000/svg" xmlns:xlink="http://www.w3.org/1999/xlink" x="0px"
	 y="0px" width="3856px" height="4300px" viewBox="0 0 3856 4300" enable-background="new 0 0 3856 4300" xml:space="preserve">
<g>
	<g>
		<path d="M-1059.217,1182.812c0,0-183.789-50.526-434.495,83.299c0,0-53.235,36.605-143.183,45.363
			c-89.948,8.761-171.951-0.152-235.729,0.667c-20.632,0.264-30.49,36.952-3.626,79.817
			c26.165,45.902,136.503,111.487,244.685,109.273c0,0,188.595-1.817,262.793-50.612c0,0-261.676,142.237-512.058,68.93
			c-178.042-52.122-256.99-193.379-276.726-208.855c-47.621-53.542-105.695-88.246-154.033-61.838
			c-11.05,9.03-12.902,20.282-7.594,35.539c31.035,89.192,135.732,302.911,437.684,401.196
			c446.081,145.191,762.204,16.354,849.468-76.044C-923.031,1516.997-710.765,1253.603-1059.217,1182.812z"/>
		<path d="M-2156.243,1284.839c25.743,27.922,62.809,73.241,87.763,101.434c54.988,62.122,119.101,94.792,167.864,114.287
			c0,0-61.317-34.648-94.977-108.851c-13.857-30.552-53.862-105.018-106.423-139.248c-52.733-37.629-116.428-14.205-116.428-14.205
			S-2181.989,1256.919-2156.243,1284.839z"/>
		<path d="M-2067.866,1256.52c16.125,16.895,42.551,43.961,63.835,82.601c21.283,38.646,30.123,57.941,41.993,78.951
			c11.871,21.009,34.529,46.895,42.405,51.951c0.002,0-26.332-28.243-47.896-103.078c-14.281-39.446-8.767-68.654-40.822-105.436
			c-40.962-43.989-101.867-30.451-101.867-30.451S-2083.991,1239.629-2067.866,1256.52z"/>
	</g>
</g>
<g>
	<path d="M-2577.127,937.599l0.528-4.282c1.195-9.678,3.065-19.156,5.559-28.169c5.304-19.172,13.521-31.953,25.12-39.074
		c7.522-4.793,16.124-7.245,25.496-7.245c5.498,0,11.358,0.851,17.421,2.528c16.911,4.678,29.709,13.964,37.013,26.854
		c7.266,13.063,8.136,30.652,2.533,50.901c-2.799,10.119-5.184,17.302-7.733,23.291l-1.714,4.028L-2577.127,937.599z
		 M-2484.831,939.062c0.756-2.3,1.513-5.039,2.296-7.872c3.359-11.891,2.799-21.918-1.655-29.83
		c-4.472-7.942-12.791-13.644-24.725-16.945c-4.415-1.25-8.583-1.88-12.421-1.88c-14.82,0-24.89,9.24-29.932,27.462
		c-1.154,4.172-1.816,7.51-2.19,10.08L-2484.831,939.062z"/>
	<path d="M-2571.636,933.93c1.003-8.126,2.656-17.474,5.415-27.449c4.999-18.07,12.606-29.816,22.917-36.146
		c10.39-6.618,23.21-8.519,38.968-4.159c15.902,4.399,27.513,13.058,33.996,24.501c6.548,11.771,7.304,28.166,2.064,47.103
		c-2.52,9.107-4.848,16.4-7.515,22.666L-2571.636,933.93z M-2481.813,945.084c1.458-3.02,2.738-7.646,4.098-12.561
		c7.583-26.848-3.556-45.648-29.866-52.927c-23.234-6.583-41.146,2.468-48.504,29.067c-1.8,6.505-2.581,11.58-2.778,15.105
		L-2481.813,945.084z"/>
	<path d="M-2473.827,863.888c-8.12,0-16.514-1.703-24.949-5.063c-15.641-6.229-27.249-16.269-33.569-29.036
		c-6.22-12.566-6.662-26.979-1.244-40.584c7.923-19.896,24.658-31.308,45.913-31.308c8.122,0,16.524,1.706,24.974,5.071
		c37.384,14.887,44.493,45.722,34.953,69.676l-0.058,0.147C-2435.561,852.26-2452.765,863.888-2473.827,863.888z M-2489.081,781.825
		c-7.224,0-20.148,2.023-25.546,15.577c-7.041,17.682,7.142,32.499,24.322,39.341c5.836,2.324,11.959,3.553,17.707,3.553
		c7.31,0,20.379-2.022,25.774-15.569l0.056-0.141c7.002-17.584-7.128-32.33-24.238-39.144
		C-2476.948,783.075-2483.198,781.825-2489.081,781.825z"/>
	<path d="M-2432.45,830.934c-9.934,24.945-36.047,34.567-64.476,23.246c-29.823-11.876-42.007-38.041-32.018-63.125
		c10.267-25.781,36.521-34.54,64.392-23.441c32.192,12.82,41.647,39.351,32.158,63.181L-2432.45,830.934z M-2442.122,826.437
		c7.658-19.231-5.711-37.149-27.033-45.64c-18.674-7.436-42.069-5.451-50.116,14.756c-8.047,20.207,6.771,37.733,27.117,45.836
		c19.789,7.88,42.374,4.28,49.977-14.812L-2442.122,826.437z"/>
	<path d="M-2506.306,728.668l10.373-19.581l63.048-4.761c5.76-0.393,10.828-0.662,15.443-0.817
		c-5.582-2.757-11.196-5.671-17.16-8.83l-41.932-22.213l10.44-19.705l98.178,52.01l-9.817,18.53l-63.123,4.55
		c-6.631,0.483-12.465,0.804-17.808,0.978c5.606,2.849,11.58,5.979,18.38,9.581l42.593,22.564l-10.439,19.706L-2506.306,728.668z"/>
	<path d="M-2410.206,773.919l-89.341-47.329l6.741-12.725l60.298-4.554c13.913-0.948,26-1.334,37.456-0.528l0.078-0.468
		c-12.491-5.26-23.501-10.753-37.287-18.056l-37.513-19.873l5.758-10.869l89.341,47.329l-6.18,11.665l-60.36,4.351
		c-13.242,0.963-26.608,1.521-38.602,0.77l-0.078,0.468c11.618,5.306,22.425,10.861,37.271,18.726l38.175,20.224L-2410.206,773.919z
		"/>
	<path d="M-2439.525,611.356l12.721-19.053l113.456,30.164l-13.617,20.394l-32.446-8.677l-15.912,23.832l20.617,26.391
		l-13.379,20.04L-2439.525,611.356z M-2403.399,622.733l14.639,19.028l9.142-13.692l-23.114-6.056
		c-0.551-0.159-1.096-0.318-1.636-0.479C-2404.04,621.935-2403.718,622.336-2403.399,622.733z"/>
	<path d="M-2381.488,658.246l20.617,26.392l-7.497,11.229l-65.01-84.712l8.746-13.1l103.244,27.449l-7.747,11.602l-32.446-8.677
		L-2381.488,658.246z M-2371.563,625.01l-29.784-7.801c-6.655-1.918-12.479-4.003-18.177-6.004l-0.25,0.375
		c4.116,4.371,8.439,9.242,12.471,14.279l18.83,24.477L-2371.563,625.01z"/>
	<polygon points="-2378.381,561.37 -2397.343,585.578 -2413.954,572.566 -2361.631,505.768 -2345.019,518.779 -2364.074,543.105 
		-2293.221,598.605 -2307.528,616.869 	"/>
	<path d="M-2379.234,554.35l-18.962,24.208l-8.738-6.845l46.157-58.926l8.739,6.845l-19.055,24.326l70.853,55.5l-8.14,10.392
		L-2379.234,554.35z"/>
	<polygon points="-2356.431,500.359 -2312.623,452.678 -2297.196,466.853 -2325.307,497.449 -2309.144,512.3 -2282.656,483.47 
		-2267.339,497.543 -2293.827,526.373 -2274.349,544.268 -2244.716,512.015 -2229.288,526.188 -2274.618,575.527 	"/>
	<path d="M-2274.404,497.842l-26.488,28.83l26.842,24.661l29.634-32.254l8.063,7.408l-38.565,41.975l-74.449-68.402l37.042-40.317
		l8.063,7.409l-28.112,30.597l23.528,21.617l26.488-28.829L-2274.404,497.842z"/>
	<path fill="#ED1C24" d="M-2274.762,419.506l2.318-3.204c3.741-5.17,10.397-12.12,17.372-18.139
		c10.703-9.235,19.573-13.458,28.735-13.676c0.614-0.042,1.232-0.063,1.839-0.063c7.8,0,14.823,3.362,20.311,9.722
		c5.686,6.59,7.702,15.124,5.931,23.725c1.852-0.319,3.713-0.484,5.542-0.484c8.854,0,16.677,3.644,22.625,10.538
		c6.158,7.136,8.792,15.479,7.83,24.796c-1.141,10.6-8.298,21.44-21.883,33.161c-7.833,6.759-13.802,10.877-16.663,12.731
		l-3.658,2.37L-2274.762,419.506z M-2199.084,471.933c1.296-1.007,2.801-2.253,4.586-3.793c4.875-4.206,8.095-8.594,9.313-12.689
		c1.278-4.297,0.29-8.251-3.022-12.089c-2.692-3.12-5.773-4.637-9.421-4.637c-4.773,0-10.465,2.643-16.027,7.442l-4.392,3.789
		L-2199.084,471.933z M-2230.948,435.002l5.187-4.475c4.078-3.518,6.586-7.4,7.253-11.226c0.57-3.27-0.286-6.339-2.476-8.878
		c-2.295-2.66-4.743-3.953-7.481-3.953c-3.625,0-8.1,2.208-12.94,6.385c-1.885,1.625-3.49,3.117-4.803,4.46L-2230.948,435.002z"/>
	<path fill="#ED1C24" d="M-2268.394,419.234c3.434-4.746,9.773-11.404,16.588-17.284c9.88-8.525,17.71-12.309,25.699-12.465
		c6.522-0.477,12.941,1.91,18.134,7.929c6.468,7.496,7.056,18.281,1.556,27.98l0.294,0.34c8.739-4.568,22.45-5.898,32.249,5.46
		c5.684,6.587,7.383,13.838,6.642,21.016c-1.011,9.391-7.682,19.11-20.175,29.889c-6.814,5.879-12.43,9.933-16.116,12.32
		L-2268.394,419.234z M-2231.468,442.055l8.972-7.742c10.335-8.917,11.666-19.774,5.297-27.156
		c-7.644-8.858-17.48-6.711-27.474,1.912c-4.543,3.919-6.861,6.514-8.157,8.227L-2231.468,442.055z M-2199.914,478.625
		c2.338-1.423,5.162-3.662,8.683-6.699c10.222-8.819,16.415-20.701,6.811-31.831c-8.917-10.335-21.711-7.023-32.5,2.287
		l-8.177,7.055L-2199.914,478.625z"/>
	<polygon fill="#ED1C24" points="-2209.404,361.05 -2190.674,347.359 -2137.476,420.136 -2102.601,394.644 -2090.238,411.557 
		-2143.842,450.74 	"/>
	<path fill="#ED1C24" d="M-2202.416,362.136l10.656-7.79l53.198,72.777l34.875-25.493l6.462,8.84l-45.531,33.282L-2202.416,362.136z
		"/>
	<path fill="#ED1C24" d="M-2080.486,399.238c-18.274,0-35.263-10.738-46.609-29.461c-17.729-29.255-11.896-60.727,14.187-76.534
		c8.331-5.049,17.083-7.609,26.011-7.609c18.141,0,35.04,10.717,46.364,29.403c20.855,34.412,7.941,63.3-14.109,76.663l-0.133,0.081
		C-2062.939,396.728-2071.591,399.238-2080.486,399.238z M-2090.446,307.631c-4.222,0-8.351,1.205-12.272,3.582
		c-16.276,9.864-13.891,30.236-4.307,46.05c7.521,12.41,18.931,20.12,29.777,20.12c0,0,0,0,0.001,0
		c4.237,0,8.328-1.177,12.159-3.499l0.125-0.076c6.97-4.224,11.008-10.845,11.68-19.147c0.665-8.223-1.971-17.704-7.421-26.698
		C-2068.189,315.611-2079.864,307.631-2090.446,307.631z"/>
	<path fill="#ED1C24" d="M-2057.362,387.501c-22.962,13.916-49.598,5.853-65.458-20.316c-16.637-27.452-10.588-55.673,12.502-69.667
		c23.731-14.383,49.959-5.547,65.508,20.109c17.959,29.633,9.512,56.501-12.424,69.796L-2057.362,387.501z M-2062.368,378.082
		c17.703-10.729,17.835-33.084,5.94-52.711c-10.417-17.189-30.281-29.707-48.882-18.434c-18.601,11.273-17.342,34.189-5.991,52.918
		c11.04,18.216,31.23,28.956,48.805,18.306L-2062.368,378.082z"/>
	<path fill="#ED1C24" d="M-1988.029,349.629c-20.088,0-38.1-12.972-48.18-34.699c-7.085-15.272-8.621-30.542-4.442-44.16
		c4.113-13.403,13.694-24.178,26.979-30.341c7.115-3.301,14.387-4.975,21.613-4.975c19.948,0,37.86,12.939,47.916,34.613
		c7.443,16.044,8.958,31.753,4.378,45.429c-4.282,12.789-13.818,23.162-26.851,29.208l-0.136,0.063
		C-1973.707,347.994-1980.865,349.629-1988.029,349.629z M-1995.384,257.07c-3.379,0-6.792,0.788-10.143,2.342
		c-17.262,8.009-17.137,28.519-9.355,45.292c6.6,14.225,18.325,23.417,29.874,23.418c0,0,0.001,0,0.002,0
		c3.361,0,6.715-0.766,9.971-2.276l0.136-0.063c7.39-3.429,12.133-9.564,13.716-17.741c1.567-8.099-0.007-17.812-4.433-27.352
		C-1970.672,269.794-1981.501,257.07-1995.384,257.07z"/>
	<path fill="#ED1C24" d="M-1968.858,340.232c-24.355,11.299-49.938,0.351-62.815-27.406c-13.509-29.118-4.386-56.499,20.105-67.861
		c25.171-11.678,50.264-0.005,62.889,27.207c14.582,31.43,3.225,57.203-20.042,67.997L-1968.858,340.232z M-1972.795,330.319
		c18.776-8.712,21.373-30.915,11.714-51.733c-8.458-18.232-26.821-32.862-46.55-23.709c-19.729,9.153-21.003,32.067-11.787,51.932
		c8.964,19.321,27.846,32.221,46.487,23.573L-1972.795,330.319z"/>
	<path fill="#ED1C24" d="M-1951.697,217.105l3.841-1.963c8.684-4.439,17.58-8.206,26.44-11.195
		c10.071-3.398,18.917-5.051,27.042-5.051c7.098,0,13.624,1.325,19.396,3.937c13.086,5.66,22.523,16.736,27.974,32.888
		c5.61,16.625,5.099,32.43-1.478,45.706c-6.74,13.341-20.816,23.925-40.724,30.643c-9.948,3.357-17.233,5.41-23.621,6.658
		l-4.296,0.839L-1951.697,217.105z M-1901.149,294.343c2.329-0.664,5.021-1.573,7.806-2.513c11.729-3.888,19.718-9.975,23.77-18.1
		c4.068-8.156,4.123-18.241,0.164-29.975c-5.197-15.721-14.881-23.677-28.794-23.677c-4.893,0-10.322,0.995-16.138,2.957
		c-4.103,1.385-7.238,2.708-9.574,3.84L-1901.149,294.343z"/>
	<path fill="#ED1C24" d="M-1945.58,219.594c7.291-3.727,15.957-7.6,25.763-10.91c17.766-5.995,31.757-6.284,42.78-1.296
		c11.307,4.891,20.07,14.44,25.297,29.931c5.275,15.633,4.618,30.102-1.221,41.888c-6.074,12.023-19.224,21.843-37.842,28.125
		c-8.954,3.021-16.298,5.183-22.981,6.488L-1945.58,219.594z M-1904.443,300.22c3.319-0.486,7.866-2.021,12.699-3.652
		c26.482-8.778,35.8-28.544,27.072-54.411c-7.58-22.929-25.118-32.683-51.268-23.858c-6.396,2.158-11.036,4.357-14.064,6.171
		L-1904.443,300.22z"/>
	<path d="M-1658.247,262.104c-4.108,0-7.745-0.138-11.118-0.42l-4.362-0.366l-5.292-108.015l4.231-0.84
		c9.565-1.9,19.152-3.095,28.494-3.553c2.001-0.098,3.978-0.148,5.873-0.148c16.953,0,29.746,3.844,39.11,11.753
		c11.045,9.019,17.101,22.252,17.935,39.278c0.857,17.526-3.949,32.593-13.9,43.57c-10.128,10.995-26.56,17.335-47.546,18.363
		C-1650.001,261.98-1654.393,262.104-1658.247,262.104z M-1651.475,241.411c2.43-0.002,5.231-0.14,8.195-0.285
		c12.347-0.538,21.695-4.213,27.812-10.924c6.141-6.737,8.947-16.425,8.341-28.794c-0.916-21.433-12.445-32.284-34.267-32.284
		c-1.074,0-2.187,0.027-3.305,0.083c-4.324,0.212-7.703,0.629-10.26,1.08L-1651.475,241.411z"/>
	<path d="M-1673.814,157.367c8.031-1.595,17.427-2.956,27.765-3.463c18.729-0.917,32.269,2.625,41.512,10.432
		c9.543,7.793,15.367,19.372,16.167,35.703c0.807,16.481-3.776,30.222-12.61,39.967c-9.127,9.909-24.459,15.766-44.086,16.728
		c-9.439,0.462-17.095,0.537-23.881-0.032L-1673.814,157.367z M-1656.247,246.167c3.325,0.438,8.12,0.203,13.214-0.047
		c27.875-1.215,42.236-17.689,40.9-44.956c-1.031-24.129-15.242-38.302-42.811-36.951c-6.742,0.33-11.807,1.179-15.216,2.097
		L-1656.247,246.167z"/>
	<path d="M-1529.154,262.227c-1.086,0-2.192-0.032-3.289-0.095l-0.138-0.008c-29.667-1.711-49.045-26.018-47.137-59.112
		c0.933-16.159,6.424-29.967,15.881-39.932c9.293-9.79,22.061-15.182,35.953-15.182c1.064,0,2.149,0.031,3.226,0.093
		c14.955,0.862,27.396,7.131,35.979,18.128c8.32,10.662,12.229,24.785,11.303,40.842c-0.979,16.952-6.661,31.12-16.436,40.972
		C-1502.955,257.151-1515.506,262.227-1529.154,262.227z M-1528.115,168.523c-17.908,0-26.954,17.855-27.974,35.551
		c-0.566,9.806,1.559,19.009,5.983,25.915c3.169,4.945,9.063,10.963,19.15,11.544l0.154,0.009c0.536,0.031,1.071,0.046,1.599,0.046
		c17.85,0.001,26.865-17.782,27.881-35.407c1.002-17.358-6.435-36.531-25.126-37.609
		C-1527.009,168.54-1527.567,168.523-1528.115,168.523z"/>
	<path d="M-1532.305,257.131c-26.805-1.546-44.182-23.283-42.42-53.832c1.848-32.046,22.824-51.871,49.779-50.317
		c27.703,1.598,44.306,23.74,42.578,53.69c-1.995,34.592-24.181,51.943-49.787,50.466L-1532.305,257.131z M-1531.092,246.534
		c20.665,1.191,33.442-17.153,34.764-40.064c1.157-20.067-8.116-41.636-29.83-42.889c-21.714-1.252-33.661,18.342-34.922,40.206
		c-1.227,21.265,9.322,41.556,29.838,42.739L-1531.092,246.534z"/>
	<path d="M-1412.859,274.984l-24.3-58.435c-2.509-6.023-4.684-11.518-6.563-16.592c-0.928,6.222-2.005,12.88-3.271,20.477
		l-7.919,47.546l-21.997-3.663l18.253-109.592l21.857,3.64l24.478,58.297c2.167,5.271,4.037,10.016,5.663,14.39
		c0.848-6.168,1.834-12.415,2.943-19.073l7.796-46.806l21.997,3.664l-18.253,109.592L-1412.859,274.984z"/>
	<path d="M-1471.155,260.207l16.609-99.728l14.205,2.366l23.409,55.754c5.303,12.896,9.497,24.24,12.358,35.361l0.469-0.074
		c1.034-13.514,2.759-25.696,5.321-41.085l6.975-41.874l12.133,2.021l-16.609,99.728l-13.021-2.169l-23.236-55.877
		c-5.106-12.256-9.867-24.758-12.951-36.373l-0.469,0.074c-1.354,12.7-3.203,24.71-5.963,41.282l-7.098,42.614L-1471.155,260.207z"
		/>
	<path d="M-1320.521,297.688l-2.025-33.523l-27.638-7.561l-18.52,27.902l-23.24-6.358l65.727-97.202l22.097,6.045l7.252,117.166
		L-1320.521,297.688z M-1323.133,243.063l-1.563-23.841c-0.023-0.573-0.044-1.14-0.063-1.703c-0.277,0.437-0.555,0.87-0.832,1.298
		l-13.423,19.902L-1323.133,243.063z"/>
	<path d="M-1352.351,250.828l-18.52,27.902l-13.021-3.562l59.811-88.453l15.191,4.156l6.6,106.621l-13.456-3.681l-2.025-33.523
		L-1352.351,250.828z M-1317.685,249.737l-2.015-30.721c-0.284-6.92-0.147-13.104-0.051-19.142l-0.435-0.119
		c-2.846,5.287-6.1,10.928-9.604,16.345l-17.268,25.601L-1317.685,249.737z"/>
	<polygon points="-1289.737,307.925 -1259.414,223.184 -1288.367,212.823 -1281.258,192.957 -1201.365,221.544 -1208.475,241.411 
		-1237.569,231 -1267.891,315.741 	"/>
	<path d="M-1253.022,220.161l-28.953-10.36l3.74-10.451l70.477,25.218l-3.74,10.452l-29.094-10.411l-30.322,84.741l-12.43-4.447
		L-1253.022,220.161z"/>
	<polygon points="-1240.147,326.113 -1194.523,224.816 -1135.486,251.407 -1144.088,270.508 -1181.972,253.445 -1190.987,273.458 
		-1155.291,289.536 -1163.832,308.501 -1199.529,292.423 -1210.391,316.54 -1170.455,334.526 -1179.059,353.628 	"/>
	<path d="M-1166.338,301.889l-35.696-16.078l-14.969,33.234l39.936,17.987l-4.497,9.984l-51.97-23.408l41.518-92.179l49.919,22.484
		l-4.496,9.983l-37.884-17.063l-13.121,29.131l35.695,16.078L-1166.338,301.889z"/>
	<path fill="#ED1C24" d="M-1094.838,394.888c-9.003,0-19.415-3.617-31.829-11.058c-8.871-5.317-14.655-9.695-17.313-11.832
		l-3.397-2.73l55.325-92.304l3.769,1.196c6.083,1.931,14.771,6.073,22.672,10.809c12.126,7.268,18.917,14.366,21.997,22.998
		c3.183,7.811,2.394,16.352-2.227,24.062c-4.357,7.269-11.909,11.976-20.666,13.042c4.41,8.225,5.847,18.977-0.718,29.93
		c-4.846,8.084-11.942,13.202-21.092,15.209C-1090.414,394.662-1092.602,394.888-1094.838,394.888z M-1118.106,365.267
		c1.363,0.915,3.019,1.953,5.04,3.165c5.317,3.187,10.338,4.872,14.519,4.872h0.001c4.701,0,8.294-2.181,10.982-6.667
		c6.729-11.226-5.202-20.024-10.644-23.286l-4.976-2.982L-1118.106,365.267z M-1087.154,326.951
		c3.825,2.293,7.634,3.504,11.014,3.504c4.197,0,7.509-1.823,9.575-5.272c1.617-2.697,5.912-9.864-8.712-18.63
		c-2.136-1.28-4.055-2.336-5.742-3.162l-12.01,20.038L-1087.154,326.951z"/>
	<path fill="#ED1C24" d="M-1089.797,282.927c5.583,1.772,13.895,5.705,21.614,10.332c11.193,6.709,17.242,12.958,19.896,20.494
		c2.498,6.044,2.243,12.887-1.844,19.707c-5.09,8.492-15.146,12.432-26.081,10.25l-0.231,0.386
		c7.078,6.866,12.641,19.469,4.929,32.335c-4.473,7.462-10.825,11.35-17.874,12.897c-9.234,1.985-20.555-1.303-34.708-9.786
		c-7.72-4.627-13.329-8.689-16.752-11.44L-1089.797,282.927z M-1124.72,366.576c2.085,1.774,5.096,3.753,9.084,6.144
		c11.58,6.941,24.804,9.096,32.361-3.513c7.018-11.708-0.14-22.818-12.362-30.145l-9.264-5.553L-1124.72,366.576z
		 M-1099.888,325.147l10.164,6.092c11.709,7.018,22.436,4.877,27.448-3.485c6.015-10.036,0.892-18.703-10.431-25.489
		c-5.146-3.085-8.337-4.473-10.37-5.166L-1099.888,325.147z"/>
	<polygon fill="#ED1C24" points="-1080.655,411.09 -1016.02,320.733 -997.152,334.23 -1049.597,407.549 -1014.463,432.681 
		-1026.652,449.72 	"/>
	<path fill="#ED1C24" d="M-1014.863,327.708l10.735,7.679l-52.445,73.319l35.134,25.132l-6.37,8.905l-45.87-32.812
		L-1014.863,327.708z"/>
	<path fill="#ED1C24" d="M-963.959,489.835c-11.785,0-23.083-4.332-32.674-12.527l-0.105-0.089
		c-22.59-19.304-23.321-50.381-1.787-75.581c12.588-14.731,28.472-22.844,44.725-22.844c11.757,0,22.96,4.263,32.396,12.327
		c11.389,9.732,17.505,22.249,17.688,36.197c0.178,13.522-5.251,27.132-15.699,39.359
		C-935.772,485.817-952.666,489.835-963.959,489.835z M-950.837,400.453c-9.749,0-20.782,6.102-29.516,16.321
		c-6.381,7.467-10.254,16.081-10.906,24.255c-0.467,5.855,0.588,14.211,8.269,20.775l0.13,0.112c4.546,3.885,9.75,5.862,15.45,5.862
		c9.883,0,20.599-5.906,29.399-16.204c11.294-13.217,16.968-32.982,2.735-45.145C-939.916,402.463-945.153,400.453-950.837,400.453z
		"/>
	<path fill="#ED1C24" d="M-993.499,473.409c-20.411-17.442-21.103-45.261-1.226-68.523c20.852-24.402,49.547-27.503,70.072-9.964
		c21.095,18.027,20.925,45.701,1.436,68.506c-22.51,26.341-50.67,26.741-70.169,10.078L-993.499,473.409z M-986.125,465.703
		c15.736,13.447,37.006,6.566,51.915-10.88c13.057-15.28,18.717-38.065,2.183-52.194c-16.534-14.129-37.899-5.751-52.126,10.897
		c-13.837,16.192-17.707,38.73-2.085,52.08L-986.125,465.703z"/>
	<path fill="#ED1C24" d="M-888.029,562.468c-13.549,0-26.452-5.792-36.332-16.31l-0.106-0.113
		c-9.899-10.538-14.68-23.848-13.455-37.475c1.226-13.647,8.124-26.732,19.949-37.841c12.613-11.85,27.006-18.113,41.622-18.113
		c13.595,0,26.448,5.713,36.193,16.086c10.257,10.919,14.97,24.03,13.628,37.916c-1.301,13.462-8.185,26.398-19.907,37.411
		C-859.277,556.092-873.659,562.468-888.029,562.468z M-873.193,474.613c-9.134,0-19.474,4.792-28.367,13.148
		c-7.159,6.726-11.952,14.866-13.494,22.92c-1.104,5.77-0.969,14.192,5.95,21.557l0.106,0.113
		c4.785,5.093,10.682,7.678,17.521,7.679h0.003c9.098,0.001,19.376-4.755,28.202-13.046c6.929-6.509,11.868-14.694,13.553-22.457
		c1.854-8.54-0.131-15.983-5.899-22.124C-860.476,477.234-866.388,474.613-873.193,474.613z"/>
	<path fill="#ED1C24" d="M-920.819,542.626c-18.385-19.57-16.033-47.3,6.271-68.252c23.396-21.979,52.26-21.927,70.747-2.247
		c19,20.226,15.808,47.718-6.059,68.259c-25.255,23.725-53.294,21.045-70.856,2.35L-920.819,542.626z M-912.646,535.771
		c14.174,15.087,36.069,10.571,52.797-5.143c14.65-13.763,22.767-35.795,7.874-51.647c-14.893-15.853-37.047-9.859-53.009,5.136
		c-15.524,14.584-21.836,36.566-7.765,51.544L-912.646,535.771z"/>
	<path fill="#ED1C24" d="M-820.156,638.836c-2.311,0-4.636-0.161-6.908-0.479c-14.788-2.186-29.274-12.204-41.932-28.975
		c-6.325-8.38-10.572-14.646-13.773-20.315l-2.151-3.812l86.322-65.146l3.074,3.025c6.952,6.838,13.334,14.092,18.969,21.559
		c11.984,15.878,17.124,30.179,15.713,43.718c-1.241,14.204-8.774,26.656-22.382,36.925
		C-794.926,634.167-807.698,638.836-820.156,638.836z M-855.944,592.453c1.364,1.999,3.074,4.266,4.845,6.611
		c8.487,11.372,18.114,17.127,28.632,17.128c0.001,0,0.003,0,0.003,0c7.86,0,16.117-3.224,24.544-9.583
		c8.662-6.453,13.619-13.748,14.756-21.7c1.212-8.475-1.908-17.721-9.272-27.479c-2.607-3.455-4.853-6.013-6.666-7.874
		L-855.944,592.453z"/>
	<path fill="#ED1C24" d="M-799.03,526.698c5.838,5.743,12.249,12.744,18.483,21.006c11.296,14.967,15.985,28.153,14.732,40.188
		c-1.073,12.273-7.37,23.603-20.421,33.453c-13.171,9.94-27.11,13.882-40.136,12.061c-13.327-1.97-26.796-11.351-38.633-27.036
		c-5.693-7.543-10.063-13.831-13.41-19.761L-799.03,526.698z M-862.56,591.181c1.509,2.996,4.4,6.827,7.473,10.898
		c16.688,22.361,38.387,24.966,60.179,8.521c19.368-14.429,23.089-34.151,6.463-56.182c-4.066-5.388-7.618-9.098-10.295-11.4
		L-862.56,591.181z"/>
	<path d="M-690.386,868.958c-7.492,0-14.596-1.457-21.114-4.331c-13.629-6.138-24.832-19.728-32.433-39.317
		c-3.798-9.79-6.175-16.976-7.706-23.302l-1.03-4.255l100.82-39.118l2.133,3.75c4.823,8.479,8.983,17.198,12.366,25.916
		c7.196,18.547,8.238,33.707,3.187,46.346c-5.068,13.326-15.713,23.249-31.607,29.417
		C-674.143,867.31-682.425,868.958-690.386,868.958z M-726.757,812.584c0.768,2.295,1.794,4.943,2.857,7.683
		c6.449,16.89,17.034,25.439,31.472,25.439c5.42,0,11.351-1.235,17.629-3.671c10.095-3.845,16.853-9.51,20.116-16.85
		c3.479-7.823,3-17.568-1.422-28.966c-1.566-4.036-3.029-7.109-4.264-9.394L-726.757,812.584z"/>
	<path d="M-654.062,764.856c4.049,7.118,8.307,15.602,12.051,25.252c6.782,17.481,7.695,31.447,3.205,42.682
		c-4.381,11.515-13.53,20.696-28.773,26.611c-15.383,5.969-29.868,5.958-41.903,0.651c-12.283-5.532-22.681-18.231-29.789-36.551
		c-3.418-8.811-5.905-16.051-7.508-22.67L-654.062,764.856z M-732.776,809.556c0.635,3.293,2.371,7.768,4.216,12.523
		c9.953,26.066,30.117,34.493,55.569,24.618c22.569-8.596,31.53-26.554,21.547-52.286c-2.441-6.293-4.846-10.83-6.793-13.776
		L-732.776,809.556z"/>
	<path d="M-658.903,969.751c-24.675,0-43.863-14.455-50.079-37.722l-0.036-0.135c-3.735-13.983-1.645-27.968,5.884-39.392
		c7.54-11.44,19.811-19.7,35.484-23.887c6.404-1.711,12.746-2.578,18.85-2.578c25.041,0,44.448,14.417,50.649,37.627
		c3.865,14.473,1.81,28.252-5.944,39.847c-7.519,11.241-19.705,19.378-35.244,23.528
		C-646.074,968.838-652.656,969.751-658.903,969.751z M-646.958,889.429c-4.628,0-9.438,0.658-14.298,1.956
		c-9.49,2.535-17.563,7.436-22.734,13.801c-3.703,4.559-7.571,12.042-4.963,21.802l0.043,0.165
		c4.545,17.013,21.536,18.852,28.631,18.852c0,0,0,0,0.001,0c4.564,0,9.335-0.656,14.18-1.95
		c16.797-4.487,32.674-17.555,27.842-35.642C-622.669,891.896-638.133,889.429-646.958,889.429z"/>
	<path d="M-704.19,930.593c-6.93-25.94,8.268-49.251,37.83-57.148c31.012-8.284,56.409,5.425,63.378,31.509
		c7.161,26.809-8.665,49.512-37.648,57.254c-33.475,8.942-56.902-6.69-63.521-31.47L-704.19,930.593z M-693.746,928.424
		c5.343,19.998,26.766,26.385,48.938,20.462c19.418-5.188,36.996-20.751,31.383-41.763c-5.613-21.012-27.964-26.22-49.121-20.568
		c-20.577,5.497-36.541,21.871-31.237,41.724L-693.746,928.424z"/>
	<path d="M-683.786,1049.619l47.911-41.348c4.938-4.267,9.476-8.05,13.709-11.421c-6.201,1.063-12.863,2.122-20.473,3.294
		l-47.64,7.34l-3.396-22.04l109.806-16.919l3.375,21.9l-47.725,41.473c-4.329,3.707-8.251,6.965-11.898,9.878
		c6.125-1.123,12.367-2.138,19.037-3.166l46.898-7.226l3.395,22.04l-109.808,16.919L-683.786,1049.619z"/>
	<path d="M-687.971,989.625l99.923-15.396l2.193,14.232l-45.643,39.664c-10.593,9.069-20.058,16.598-29.727,22.793l0.217,0.422
		c13.16-3.242,25.271-5.412,40.689-7.787l41.956-6.464l1.873,12.157l-99.924,15.396l-2.01-13.046l45.814-39.539
		c10.046-8.681,20.434-17.111,30.502-23.671l-0.217-0.422c-12.487,2.683-24.473,4.681-41.077,7.24l-42.697,6.579L-687.971,989.625z"
		/>
	<path d="M-676.443,1144.444l31.197-12.432l-1.483-28.614l-32.3-8.839l-1.248-24.062l112.902,31.944l1.187,22.877l-108.986,43.613
		L-676.443,1144.444z M-625.391,1124.841l22.149-8.957c0.536-0.202,1.068-0.399,1.596-0.593c-0.501-0.126-0.998-0.254-1.491-0.383
		l-23.105-6.507L-625.391,1124.841z"/>
	<path d="M-641.923,1099.53l-32.3-8.839l-0.699-13.481l102.74,29.068l0.815,15.729l-99.176,39.688l-0.722-13.931l31.197-12.432
		L-641.923,1099.53z M-630.021,1132.107l28.54-11.543c6.483-2.439,12.397-4.248,18.161-6.048l-0.023-0.449
		c-5.912-1.045-12.289-2.367-18.531-3.996l-29.723-8.372L-630.021,1132.107z"/>
	<polygon points="-587.742,1233.068 -587.032,1202.176 -677.01,1200.107 -676.477,1176.912 -586.499,1178.981 -585.792,1148.239 
		-564.698,1148.724 -566.648,1233.553 	"/>
	<path d="M-581.615,1184.095l0.707-30.743l11.098,0.255l-1.721,74.832l-11.098-0.254l0.71-30.893l-89.978-2.069l0.304-13.197
		L-581.615,1184.095z"/>
	<polygon points="-594.954,1303.293 -590.753,1261.956 -612.591,1259.736 -616.55,1298.686 -637.244,1296.583 -633.284,1257.633 
		-659.599,1254.958 -664.028,1298.534 -684.87,1296.416 -678.096,1229.759 -567.566,1240.993 -574.113,1305.411 	"/>
	<path d="M-631.764,1292.114l3.959-38.949l-36.263-3.686l-4.429,43.576l-10.895-1.107l5.764-56.708l100.582,10.223l-5.536,54.469
		l-10.894-1.107l4.201-41.337l-31.786-3.23l-3.959,38.949L-631.764,1292.114z"/>
	<path fill="#ED1C24" d="M-619.409,1417.999c-2.148,0-4.37-0.25-6.601-0.745c-8.497-1.882-15.215-7.515-18.938-15.467
		c-5.119,5.396-12.415,9.56-21.637,9.561c0,0-0.001,0-0.002,0c-2.275,0-4.615-0.263-6.953-0.78
		c-9.202-2.039-16.302-7.15-21.103-15.193c-5.423-9.179-6.168-22.147-2.288-39.665c2.237-10.1,4.56-16.971,5.744-20.168l1.515-4.086
		l105.069,23.273l0.057,3.954c0.093,6.381-1.087,15.932-3.079,24.926c-3.058,13.804-7.642,22.492-14.854,28.144
		C-607.245,1415.839-613.096,1417.999-619.409,1417.999z M-630.47,1375.193c-1.165,5.259-0.854,9.87,0.899,13.336
		c1.498,2.961,4.02,4.91,7.292,5.635c1.095,0.243,2.137,0.366,3.097,0.366c5.707,0,9.684-4.886,11.818-14.525
		c0.538-2.431,0.934-4.585,1.183-6.447l-22.808-5.052L-630.47,1375.193z M-676.613,1357.957c-0.437,1.582-0.898,3.48-1.407,5.783
		c-2.066,9.331-2.049,21.004,9.772,23.623c1.165,0.258,2.296,0.389,3.363,0.389c10.292,0.001,14.169-12.485,15.357-17.854
		l1.255-5.664L-676.613,1357.957z"/>
	<path fill="#ED1C24" d="M-589.545,1358.754c0.085,5.857-1.016,14.985-2.962,23.772c-2.822,12.742-6.835,20.457-13.145,25.358
		c-4.943,4.283-11.516,6.207-19.277,4.488c-9.666-2.141-16.587-10.434-17.977-21.497l-0.439-0.097
		c-4.273,8.886-14.469,18.151-29.114,14.907c-8.494-1.882-14.191-6.677-17.89-12.874c-4.805-8.132-5.269-19.911-1.7-36.021
		c1.946-8.787,4.024-15.394,5.551-19.512L-589.545,1358.754z M-679.948,1352.097c-1.023,2.539-1.948,6.021-2.954,10.561
		c-2.919,13.181-0.778,26.407,13.573,29.586c13.328,2.952,21.603-7.353,24.684-21.266l2.336-10.545L-679.948,1352.097z
		 M-632.789,1362.542l-2.563,11.57c-2.952,13.327,2.473,22.825,11.992,24.934c11.423,2.531,18.023-5.072,20.878-17.96
		c1.298-5.858,1.604-9.324,1.619-11.472L-632.789,1362.542z"/>
	<polygon fill="#ED1C24" points="-727.824,1471.384 -708.223,1407.944 -602.076,1440.742 -608.927,1462.907 -695.056,1436.295 
		-707.809,1477.568 	"/>
	<path fill="#ED1C24" d="M-608.33,1444.043l-3.897,12.611l-86.129-26.613l-12.753,41.273l-10.462-3.232l16.649-53.885
		L-608.33,1444.043z"/>
	<path fill="#ED1C24" d="M-684.748,1583.736c-8.259,0-16.797-1.772-25.379-5.268c-16.381-6.672-28.192-17.139-34.159-30.27
		c-5.58-12.278-5.668-26.368-0.249-39.675l0.058-0.145c7.839-19.245,24.966-30.739,45.813-30.739c8.258,0,16.789,1.769,25.356,5.258
		c15.592,6.351,27.121,16.48,33.341,29.296c6.122,12.613,6.451,27.029,0.928,40.592
		C-647.051,1572.456-663.711,1583.736-684.748,1583.736z M-699.946,1501.223c-7.215,0-20.132,1.996-25.578,15.367l-0.054,0.133
		c-3.076,7.552-2.367,15.273,2.047,22.338c4.37,6.996,12.142,13.033,21.881,17c6.038,2.46,12.389,3.76,18.366,3.76
		c7.126,0,19.896-1.998,25.345-15.379c7.179-17.624-6.888-32.552-24.013-39.527C-687.882,1502.5-694.104,1501.223-699.946,1501.223z
		"/>
	<path fill="#ED1C24" d="M-739.848,1510.271c10.128-24.866,36.314-34.284,64.653-22.741c29.728,12.107,41.708,38.365,31.523,63.371
		c-10.467,25.699-36.787,34.252-64.57,22.937c-32.09-13.069-41.338-39.673-31.663-63.428L-739.848,1510.271z M-730.211,1514.844
		c-7.808,19.17,5.422,37.191,26.676,45.848c18.614,7.582,42.023,5.779,50.227-14.364c8.204-20.143-6.476-37.782-26.758-46.044
		c-19.726-8.033-42.337-4.61-50.089,14.421L-730.211,1514.844z"/>
	<path fill="#ED1C24" d="M-729.987,1680.438c-9.994,0-20.612-2.897-30.707-8.379c-35.362-19.202-38.775-50.66-26.472-73.318
		l0.081-0.149c8.907-16.402,24.52-25.82,42.827-25.82c10.154,0,20.487,2.815,30.714,8.369c14.795,8.033,25.136,19.375,29.902,32.8
		c4.691,13.212,3.426,27.576-3.563,40.446C-696.193,1670.943-711.787,1680.438-729.987,1680.438z M-746.24,1596.172
		c-7.313,0-17.227,2.2-22.921,12.686l-0.081,0.149c-3.879,7.143-4.027,14.896-0.421,22.405c3.572,7.436,10.629,14.295,19.871,19.313
		c7.129,3.872,14.963,6.004,22.057,6.005c0,0,0.002,0,0.003,0c7.189,0,16.958-2.208,22.669-12.725
		c4.078-7.512,4.173-15.241,0.282-22.976c-3.671-7.295-10.696-14.029-19.783-18.963
		C-731.566,1598.265-739.263,1596.172-746.24,1596.172z"/>
	<path fill="#ED1C24" d="M-782.699,1600.995c12.813-23.596,39.879-30.063,66.771-15.461c28.21,15.317,37.216,42.739,24.332,66.467
		c-13.242,24.387-40.347,29.98-66.711,15.665c-30.45-16.535-36.704-43.997-24.464-66.539L-782.699,1600.995z M-773.627,1606.604
		c-9.878,18.191,1.28,37.564,21.449,48.516c17.664,9.592,41.129,10.386,51.508-8.729s-2.263-38.269-21.509-48.719
		c-18.719-10.164-41.57-9.259-51.376,8.8L-773.627,1606.604z"/>
	<path fill="#ED1C24" d="M-786.562,1768.5c-10.49,0-21.11-3.672-31.565-10.913c-14.427-9.99-23.451-22.977-26.1-37.555
		c-2.556-14.728,2.42-31.622,14.383-48.897c5.977-8.631,10.597-14.627,14.978-19.443l2.946-3.237l88.906,61.57l-1.909,3.868
		c-4.317,8.745-9.207,17.078-14.531,24.767c-11.327,16.355-23.298,25.717-36.596,28.616
		C-779.468,1768.083-783.032,1768.5-786.562,1768.5z M-809.679,1678.227c-1.469,1.92-3.084,4.252-4.755,6.664
		c-7.099,10.134-9.875,19.786-8.275,28.725c1.604,8.974,7.581,17.099,17.763,24.149c7.198,5.051,14.192,7.604,20.813,7.604h0.002
		c10.138,0,19.425-5.989,27.606-17.803c2.465-3.56,4.19-6.494,5.391-8.797L-809.679,1678.227z"/>
	<path fill="#ED1C24" d="M-729.406,1711.679c-3.625,7.343-8.266,15.625-14.158,24.134c-10.676,15.415-21.729,24-33.551,26.578
		c-11.992,2.825-24.725,0.396-38.166-8.914c-13.565-9.395-21.676-21.396-24.026-34.338c-2.304-13.272,2.386-29.002,13.573-45.157
		c5.381-7.77,9.983-13.888,14.566-18.925L-729.406,1711.679z M-810.544,1671.546c-2.372,2.371-5.105,6.317-8.009,10.511
		c-16.008,22.852-11.686,44.274,10.76,59.818c19.769,13.873,39.664,11.229,55.378-11.462c3.844-5.55,6.254-10.084,7.601-13.348
		L-810.544,1671.546z"/>
	<path d="M-967.457,1964.863c-0.824,0-1.657-0.024-2.478-0.073c-14.245-0.612-27.017-7.587-37.878-20.727
		c-11.18-13.525-16.348-28.47-14.947-43.219c1.53-14.87,10.897-29.785,27.091-43.17c8.092-6.688,14.162-11.209,19.684-14.657
		l3.713-2.32l68.898,83.354l-2.887,3.206c-6.523,7.246-13.486,13.942-20.696,19.902
		C-941.369,1959.072-954.617,1964.863-967.457,1964.863z M-978.18,1869.963c-1.939,1.452-4.128,3.263-6.393,5.136
		c-9.567,7.821-14.855,16.36-15.737,25.397c-0.887,9.072,2.665,18.512,10.555,28.057c7.535,9.231,15.868,13.9,24.79,13.9
		c0.001,0,0.002,0,0.002,0c7.802,0,16.071-3.565,24.579-10.598c3.338-2.76,5.793-5.116,7.571-7.007L-978.18,1869.963z"/>
	<path d="M-909.976,1923.911c-5.479,6.086-12.189,12.8-20.166,19.395c-14.452,11.945-27.418,17.213-39.495,16.493
		c-12.309-0.529-23.905-6.318-34.322-18.921c-10.512-12.718-15.066-26.468-13.823-39.561c1.379-13.4,10.153-27.271,25.299-39.789
		c7.284-6.021,13.372-10.663,19.147-14.271L-909.976,1923.911z M-977.202,1863.298c-2.926,1.64-6.626,4.697-10.557,7.947
		c-21.601,17.659-23.243,39.451-5.85,60.493c15.271,18.71,35.137,21.555,56.41,3.971c5.202-4.301,8.751-8.012,10.933-10.788
		L-977.202,1863.298z"/>
	<path d="M-1051.422,2029.34c-17.467,0-34.129-10.081-45.714-27.658c-9.734-14.769-13.554-30.082-11.046-44.285
		c2.345-13.282,10.243-24.951,22.239-32.858l0.111-0.073c8.414-5.546,17.806-8.473,27.174-8.473
		c17.595,0,34.342,10.099,45.948,27.707c9.266,14.057,13.042,28.934,10.922,43.021c-2.087,13.864-9.971,25.938-22.198,33.998
		C-1032.666,2026.44-1041.897,2029.34-1051.422,2029.34z M-1061.93,1937.971c-4.558,0-8.897,1.337-12.898,3.975l-0.134,0.087
		c-15.795,10.412-12.642,30.591-2.507,45.968c7.809,11.847,19.163,19.206,29.634,19.206c4.529,0,8.897-1.366,12.985-4.061
		c7.137-4.704,10.862-11.478,11.074-20.132c0.199-8.164-2.825-17.415-8.516-26.048
		C-1040.013,1945.25-1051.37,1937.971-1061.93,1937.971z"/>
	<path d="M-1083.066,1928.63c22.419-14.776,49.341-7.729,66.182,17.821c17.666,26.802,12.69,55.232-9.854,70.092
		c-23.17,15.271-49.714,7.436-66.224-17.613c-19.069-28.931-11.646-56.101,9.771-70.217L-1083.066,1928.63z M-1077.705,1937.853
		c-17.283,11.393-16.568,33.737-3.938,52.899c11.062,16.782,31.386,28.538,49.546,16.568s16.034-34.821,3.981-53.106
		c-11.722-17.785-32.305-27.753-49.464-16.443L-1077.705,1937.853z"/>
	<path d="M-1208.156,1995.241l18.648-9.59l54.389,32.354c5.609,3.332,10.635,6.439,15.172,9.387
		c-2.972-5.546-6.084-11.529-9.605-18.376l-22.045-42.862l19.831-10.2l50.813,98.799l-19.705,10.135l-54.449-32.14
		c-4.886-2.933-9.218-5.62-13.135-8.158c3.003,5.454,5.943,11.055,9.029,17.055l21.702,42.196l-19.831,10.2L-1208.156,1995.241z"/>
	<path d="M-1133.925,1962.687l46.238,89.906l-12.806,6.586l-52.073-30.737c-11.955-7.176-22.094-13.77-31.031-20.98l-0.331,0.34
		c7.241,11.456,13.134,22.257,20.269,36.13l19.415,37.75l-10.938,5.626l-46.239-89.906l11.739-6.037l52.008,30.938
		c11.415,6.78,22.7,13.964,32.11,21.438l0.331-0.339c-6.498-10.995-12.188-21.731-19.872-36.672l-19.758-38.416L-1133.925,1962.687z
		"/>
	<path d="M-1299.964,2031.528l22.835-8.938l21.646,25.676l26.682-10.443l-1.813-33.439l22.437-8.78l5.345,117.213l-21.334,8.35
		L-1299.964,2031.528z M-1226.915,2083.028c0.361,0.444,0.717,0.888,1.066,1.327c-0.038-0.516-0.073-1.027-0.107-1.536
		l-1.122-23.979l-15.329,6L-1226.915,2083.028z"/>
	<path d="M-1223.613,2041.161l-1.813-33.439l12.571-4.92l4.863,106.663l-14.667,5.74l-68.975-81.568l12.99-5.085l21.646,25.676
		L-1223.613,2041.161z M-1250.764,2062.741l19.965,23.436c4.361,5.38,7.944,10.421,11.474,15.321l0.419-0.164
		c-0.875-5.939-1.635-12.407-2.061-18.845l-1.442-30.846L-1250.764,2062.741z"/>
	<polygon points="-1333.384,2134.65 -1303.831,2125.623 -1330.126,2039.544 -1307.937,2032.768 -1281.643,2118.845 
		-1252.233,2109.862 -1246.068,2130.042 -1327.221,2154.832 	"/>
	<path d="M-1284.964,2125.087l29.41-8.983l3.243,10.616l-71.589,21.868l-3.242-10.617l29.553-9.027l-26.294-86.078l12.625-3.855
		L-1284.964,2125.087z"/>
	<polygon points="-1402.413,2149.765 -1361.837,2140.825 -1366.56,2119.39 -1404.792,2127.813 -1409.267,2107.5 -1371.034,2099.077 
		-1376.725,2073.248 -1419.499,2082.67 -1424.005,2062.21 -1358.576,2047.796 -1334.672,2156.293 -1397.905,2170.224 	"/>
	<path d="M-1403.308,2111.307l38.232-8.423l-7.843-35.596l-42.773,9.423l-2.355-10.693l55.664-12.263l21.752,98.73l-53.467,11.779
		l-2.356-10.693l40.576-8.939l-6.874-31.201l-38.232,8.423L-1403.308,2111.307z"/>
	<path fill="#ED1C24" d="M-1485.425,2182.316c-9.3,0-16.401-1.844-22.335-5.799c-7.219-4.365-11.688-11.686-12.586-20.628
		c-0.869-8.653,2.376-16.792,8.757-22.814c-8.438-3.967-15.997-11.728-17.272-24.42c-0.943-9.379,1.691-17.722,7.83-24.796
		c7.021-8.021,19.104-12.786,36.956-14.579c5.994-0.604,11.875-0.922,17.007-0.922c1.387,0,2.715,0.023,3.946,0.068l4.354,0.161
		l10.761,107.071l-3.737,1.291c-6.033,2.085-15.474,3.952-24.639,4.873C-1479.681,2182.155-1482.639,2182.316-1485.425,2182.316z
		 M-1481.792,2138.497c-10.124,1.018-16.19,6.401-15.456,13.715c0.466,4.636,2.473,9.958,13.951,9.958
		c1.305,0,2.705-0.074,4.163-0.221c2.477-0.249,4.646-0.548,6.493-0.894l-2.336-23.243L-1481.792,2138.497z M-1479.854,2089.282
		c-1.636,0.08-3.578,0.234-5.933,0.471c-6.406,0.644-11.563,2.387-14.911,5.039c-3.514,2.784-4.976,6.589-4.469,11.633
		c1.041,10.363,10.451,12.539,18.161,12.539l0,0c1.378,0,2.818-0.075,4.282-0.222l5.771-0.58L-1479.854,2089.282z"/>
	<path fill="#ED1C24" d="M-1453.377,2172.224c-5.537,1.913-14.551,3.724-23.506,4.624c-12.984,1.305-21.566-0.094-28.196-4.554
		c-5.613-3.355-9.497-8.995-10.292-16.905c-0.989-9.85,4.723-19.017,14.795-23.798l-0.045-0.448
		c-9.777-1.278-21.766-8.063-23.266-22.988c-0.87-8.656,1.902-15.568,6.632-21.019c6.22-7.107,17.263-11.232,33.68-12.882
		c8.955-0.9,15.88-0.993,20.269-0.831L-1453.377,2172.224z M-1475.331,2084.28c-2.731-0.178-6.328,0.033-10.955,0.498
		c-13.433,1.35-25.325,7.521-23.854,22.146c1.364,13.581,13.74,18.217,27.918,16.792l10.746-1.08L-1475.331,2084.28z
		 M-1470.502,2132.337l-11.79,1.185c-13.581,1.365-20.905,9.488-19.931,19.189c1.17,11.641,10.455,15.532,23.589,14.212
		c5.97-0.6,9.357-1.393,11.402-2.051L-1470.502,2132.337z"/>
	<polygon fill="#ED1C24" points="-1560.093,2096.308 -1603.282,2097.164 -1603.699,2076.219 -1537.315,2074.903 -1535.111,2185.975 
		-1558.305,2186.436 	"/>
	<path fill="#ED1C24" d="M-1540.209,2181.076l-13.196,0.262l-1.788-90.128l-43.189,0.856l-0.218-10.947l56.387-1.118
		L-1540.209,2181.076z"/>
	<path fill="#ED1C24" d="M-1649.259,2186.29c-1.205,0-2.434-0.04-3.652-0.12c-14.949-0.979-27.34-7.343-35.837-18.406
		c-8.238-10.726-12.037-24.877-10.986-40.926c2.181-33.328,22.502-54.863,51.77-54.863c1.229,0,2.48,0.041,3.722,0.122l0.149,0.01
		c29.64,1.94,48.829,26.396,46.664,59.473C-1599.571,2164.303-1620.4,2186.29-1649.259,2186.29z M-1647.851,2092.613
		c-17.713,0-26.799,17.674-27.945,35.189c-0.621,9.485,1.356,18.838,5.423,25.66c4.474,7.506,11.004,11.591,19.41,12.141
		c0.633,0.041,1.267,0.063,1.884,0.063c17.767,0,26.881-17.746,28.032-35.332c1.167-17.825-6.993-36.482-24.844-37.651l-0.148-0.01
		C-1646.647,2092.632-1647.256,2092.613-1647.851,2092.613z"/>
	<path fill="#ED1C24" d="M-1644.419,2077.095c26.792,1.754,43.999,23.624,42.001,54.157c-2.097,32.03-23.225,51.691-50.166,49.928
		c-27.689-1.813-44.119-24.082-42.16-54.017c2.263-34.574,24.582-51.753,50.176-50.078L-1644.419,2077.095z M-1645.713,2087.683
		c-20.655-1.352-33.573,16.893-35.072,39.793c-1.313,20.056,7.793,41.696,29.495,43.116c21.703,1.421,33.802-18.08,35.232-39.933
		c1.391-21.253-9-41.624-29.506-42.967L-1645.713,2087.683z"/>
	<path fill="#ED1C24" d="M-1754.997,2173.492c-3.111,0-6.292-0.284-9.455-0.844c-14.751-2.612-26.371-10.298-33.604-22.227
		c-7.012-11.564-9.236-26.049-6.432-41.887c5.373-30.34,25.109-49.188,51.507-49.188c3.18,0,6.429,0.29,9.657,0.861l0.124,0.021
		c14.266,2.526,26.058,10.332,33.23,21.983c7.183,11.668,9.483,26.28,6.654,42.257
		C-1708.587,2154.25-1728.874,2173.492-1754.997,2173.492z M-1751.963,2080.048c-14.067,0-25.386,12.589-28.835,32.071
		c-3.032,17.12,2.103,37.034,20.539,40.299c1.609,0.285,3.206,0.43,4.744,0.43c17.094,0.002,26.231-17.349,28.862-32.208
		c1.712-9.672,0.682-19.062-2.901-26.438c-2.566-5.284-7.714-11.952-17.663-13.713l-0.151-0.027
		C-1748.921,2080.188-1750.467,2080.048-1751.963,2080.048z"/>
	<path fill="#ED1C24" d="M-1744.047,2065.157c26.439,4.682,41.146,28.309,35.81,58.44c-5.597,31.608-28.755,48.835-55.342,44.127
		c-27.325-4.838-41.215-28.776-35.984-58.317c6.042-34.12,30.111-48.748,55.369-44.275L-1744.047,2065.157z M-1746.495,2075.54
		c-20.383-3.609-35.226,13.109-39.227,35.708c-3.505,19.793,3.173,42.302,24.59,46.095c21.418,3.792,35.583-14.265,39.401-35.83
		c3.714-20.974-4.381-42.363-24.616-45.946L-1746.495,2075.54z"/>
	<path fill="#ED1C24" d="M-1832.881,2155.692c-9.663-1.333-19.112-3.338-28.087-5.959c-19.095-5.577-31.759-13.977-38.713-25.677
		c-7.489-12.133-8.884-26.617-4.104-42.98c4.918-16.842,14.387-29.508,27.38-36.628c7.167-3.854,15.659-5.798,25.276-5.798
		c7.957,0,16.59,1.343,25.658,3.991c10.078,2.943,17.226,5.431,23.178,8.065l4.003,1.771l-30.319,103.804L-1832.881,2155.692z
		 M-1848.45,2059.244c-19.972,0-28.624,15.266-32.364,28.072c-3.093,10.35-2.71,19.159,1.127,26.216
		c4.09,7.521,12.114,13.071,23.849,16.498c4.156,1.215,7.485,1.924,10.048,2.335l19.964-68.352c-2.29-0.789-5.018-1.585-7.839-2.409
		C-1838.931,2060.035-1843.897,2059.244-1848.45,2059.244z"/>
	<path fill="#ED1C24" d="M-1832.197,2150.739c-8.112-1.119-17.435-2.904-27.369-5.806c-17.998-5.257-29.635-13.031-35.817-23.432
		c-6.47-10.483-8.187-23.33-3.603-39.024c4.625-15.838,13.45-27.324,24.984-33.645c11.864-6.379,28.268-6.9,47.13-1.392
		c9.071,2.649,16.33,5.082,22.557,7.838L-1832.197,2150.739z M-1819.761,2061.082c-3-1.502-7.607-2.848-12.502-4.277
		c-26.738-7.966-45.696,2.905-53.35,29.11c-6.915,23.139,1.88,41.178,28.373,48.915c6.479,1.893,11.543,2.747,15.064,2.994
		L-1819.761,2061.082z"/>
	<path d="M-2092.713,2050.684c-8.928-3.926-17.469-8.44-25.386-13.419c-16.841-10.589-26.723-22.132-30.21-35.289
		c-3.883-13.72-1.261-28.034,7.813-42.466c9.341-14.854,21.914-24.445,36.36-27.737c3.153-0.692,6.44-1.039,9.808-1.039
		c12.184,0,25.905,4.578,39.678,13.239c8.891,5.591,15.086,9.939,20.087,14.101l3.365,2.8l-57.566,91.547L-2092.713,2050.684z
		 M-2090.545,1952.299c-11.48,0-21.427,6.561-29.563,19.499c-5.807,9.109-7.85,17.688-6.09,25.524
		c1.876,8.354,8.075,15.889,18.424,22.396c3.666,2.305,6.673,3.898,9.027,4.995l37.906-60.282c-1.984-1.384-4.386-2.894-6.871-4.457
		C-2075.727,1954.875-2083.398,1952.299-2090.545,1952.299z"/>
	<path d="M-2090.7,2046.107c-7.496-3.296-15.975-7.564-24.737-13.074c-15.873-9.98-24.939-20.643-28.039-32.338
		c-3.354-11.855-1.491-24.682,7.213-38.522c8.784-13.969,20.415-22.603,33.238-25.524c13.158-2.89,29.079,1.097,45.714,11.558
		c8,5.03,14.316,9.356,19.551,13.712L-2090.7,2046.107z M-2054.204,1963.271c-2.475-2.265-6.538-4.819-10.855-7.534
		c-23.539-14.979-44.749-9.711-59.281,13.4c-12.982,20.364-9.459,40.122,13.906,54.814c5.714,3.594,10.351,5.801,13.671,7.002
		L-2054.204,1963.271z"/>
	<path d="M-2187.311,1979.306c-11.091,0-21.817-3.849-31.019-11.129c-11.748-9.294-18.333-21.57-19.044-35.502
		c-0.689-13.506,4.222-27.312,14.2-39.925c12.683-16.03,28.816-24.858,45.427-24.858c11.141,0,21.976,3.913,31.334,11.317
		l0.11,0.087c23.302,18.436,25.207,49.462,4.641,75.457C-2154.187,1970.586-2170.4,1979.306-2187.311,1979.306z M-2174.337,1889.819
		c-10.005,0-21.101,6.476-29.682,17.321c-5.897,7.454-9.583,16.274-10.11,24.199c-0.58,8.72,2.476,15.79,9.082,21.017
		c4.53,3.583,9.533,5.4,14.872,5.4c10.007,0.001,21.141-6.52,29.781-17.441c6.094-7.702,9.64-16.457,9.982-24.65
		c0.246-5.868-1.124-14.179-9.047-20.447l-0.139-0.11C-2164.026,1891.604-2168.992,1889.819-2174.337,1889.819z"/>
	<path d="M-2149.397,1883.223c21.056,16.659,22.799,44.432,3.814,68.428c-19.916,25.173-48.472,29.357-69.645,12.605
		c-21.762-17.217-22.638-44.877-4.025-68.403c21.498-27.172,49.623-28.637,69.738-12.723L-2149.397,1883.223z M-2156.474,1891.203
		c-16.233-12.843-37.228-5.162-51.466,12.835c-12.471,15.763-17.266,38.745-0.209,52.239c17.056,13.494,38.089,4.314,51.676-12.859
		c13.215-16.703,16.231-39.372,0.116-52.121L-2156.474,1891.203z"/>
	<path d="M-2284.284,1909.244l13.418-61.783c1.25-5.56,2.442-10.516,3.622-15.031c-4.234,4.563-8.627,9.111-13.356,13.927
		l-33.248,33.85l-15.909-15.625l77.846-79.259l14.96,14.692l-13.642,61.795c-1.402,6.371-2.775,12.118-4.148,17.351
		c4.331-4.562,9.035-9.396,14.429-14.889l33.773-34.387l15.909,15.627l-77.846,79.258L-2284.284,1909.244z"/>
	<path d="M-2197.7,1845.575l-70.839,72.124l-10.273-10.09l12.833-59.087c3.06-13.604,6.137-25.299,10.176-36.048l-0.426-0.208
		c-8.604,10.472-17.008,19.456-27.938,30.586l-29.744,30.283l-8.774-8.618l70.839-72.125l9.417,9.249l-13.045,59.09
		c-2.854,12.965-6.131,25.935-10.272,37.215l0.426,0.208c8.398-9.621,16.805-18.394,28.576-30.379l30.27-30.819L-2197.7,1845.575z"
		/>
	<path d="M-2376.493,1809.758l61.205-100.176l15.675,18.858l-17.551,28.634l18.316,22.036l31.167-12.253l15.402,18.528
		l-109.571,41.991L-2376.493,1809.758z M-2341.161,1795.139c-0.309,0.482-0.616,0.958-0.924,1.43
		c0.478-0.199,0.953-0.395,1.425-0.586l22.406-8.618l-10.523-12.66L-2341.161,1795.139z"/>
	<path d="M-2300.383,1785.086l31.167-12.253l8.63,10.382l-99.708,38.211l-10.068-12.113l55.696-91.159l8.917,10.729l-17.552,28.634
		L-2300.383,1785.086z M-2329.418,1766.113l-15.955,26.331c-3.733,5.834-7.389,10.822-10.929,15.716l0.288,0.346
		c5.362-2.701,11.262-5.46,17.238-7.892l28.823-11.084L-2329.418,1766.113z"/>
	<polygon points="-2440.894,1722.676 -2423.694,1710.455 -2405.796,1735.642 -2332.435,1683.512 -2318.996,1702.423 
		-2392.358,1754.553 -2374.547,1779.618 -2391.746,1791.839 	"/>
	<path d="M-2399.33,1753.374l17.811,25.064l-9.048,6.43l-43.355-61.012l9.048-6.43l17.898,25.188l73.361-52.13l7.646,10.76
		L-2399.33,1753.374z"/>
	<polygon points="-2477.859,1660.543 -2459.879,1649.792 -2438.555,1685.453 -2419.717,1674.187 -2439.808,1640.586 
		-2421.957,1629.913 -2401.865,1663.513 -2379.164,1649.938 -2401.642,1612.348 -2383.662,1601.595 -2349.277,1659.099 
		-2444.629,1716.116 	"/>
	<path d="M-2423.682,1636.77l20.092,33.601l31.283-18.707l-22.478-37.591l9.397-5.62l29.253,48.921l-86.77,51.885l-28.098-46.989
		l9.398-5.62l21.324,35.661l27.421-16.397l-20.092-33.601L-2423.682,1636.77z"/>
	<path fill="#ED1C24" d="M-2501.296,1611.591c-3.886-5.063-8.644-13.428-12.417-21.832c-5.792-12.896-7.303-22.604-4.894-31.444
		c1.856-8.229,7.387-14.784,15.587-18.467c3.468-1.558,7.146-2.347,10.93-2.347c4.658,0,9.247,1.194,13.482,3.454
		c1.089-9.266,6.059-18.9,17.704-24.13c4.419-1.984,8.951-2.99,13.47-2.99c4.192,0,8.407,0.865,12.529,2.573
		c9.833,4.123,18.175,14.08,25.524,30.448c4.24,9.442,6.48,16.338,7.438,19.607l1.225,4.182l-98.17,44.082L-2501.296,1611.591z
		 M-2487.762,1559.603c-1.491,0-2.992,0.334-4.461,0.994c-2.87,1.288-10.491,4.711-3.507,20.266c1.02,2.271,1.989,4.234,2.902,5.877
		l21.311-9.569l-2.806-6.25C-2477.553,1563.728-2482.451,1559.603-2487.762,1559.603z M-2445.23,1537.16
		c-1.895,0-3.935,0.484-6.061,1.439c-11.939,5.361-7.184,19.401-4.585,25.189l2.376,5.291l26.48-11.891
		c-0.595-1.53-1.359-3.328-2.325-5.479C-2431.785,1546.276-2437.094,1537.16-2445.23,1537.16z"/>
	<path fill="#ED1C24" d="M-2497.33,1608.547c-3.566-4.646-8.136-12.625-11.823-20.836c-5.346-11.905-6.734-20.49-4.601-28.189
		c1.407-6.387,5.529-11.855,12.782-15.112c9.031-4.056,19.535-1.537,27.257,6.506l0.411-0.185
		c-1.88-9.68,0.764-23.199,14.448-29.344c7.937-3.564,15.371-3.121,22.038-0.359c8.711,3.653,16.118,12.824,22.876,27.877
		c3.687,8.21,5.966,14.75,7.201,18.965L-2497.33,1608.547z M-2464.908,1579.683l-4.854-10.811
		c-5.592-12.452-15.615-16.831-24.51-12.837c-10.674,4.793-11.427,14.832-6.02,26.875c2.458,5.474,4.281,8.437,5.552,10.168
		L-2464.908,1579.683z M-2420.845,1559.897c-0.695-2.647-2.033-5.993-3.938-10.235c-5.53-12.315-15.146-21.646-28.556-15.624
		c-12.453,5.592-12.935,18.799-7.098,31.799l4.424,9.853L-2420.845,1559.897z"/>
	<polygon fill="#ED1C24" points="-2543.995,1513.45 -2459.021,1483.342 -2473.448,1442.623 -2453.701,1435.626 -2431.526,1498.213 
		-2536.247,1535.317 	"/>
	<path fill="#ED1C24" d="M-2533.204,1528.934l-4.408-12.441l84.974-30.107l-14.427-40.719l10.321-3.657l18.835,53.162
		L-2533.204,1528.934z"/>
	<path fill="#ED1C24" d="M-2522.664,1461.379c-25.303,0-44.792-14.57-50.862-38.025c-3.754-14.503-1.591-28.266,6.254-39.801
		c7.606-11.183,19.856-19.224,35.428-23.254c6.567-1.7,12.986-2.562,19.079-2.562c24.937,0,44.208,14.605,50.292,38.115l0.038,0.147
		c7.442,28.755-9.773,54.64-41.865,62.945C-2510.539,1460.561-2516.718,1461.379-2522.664,1461.379z M-2511.437,1381.494
		c-4.454,0-9.106,0.62-13.827,1.841c-16.832,4.356-32.812,17.301-28.122,35.427c4.487,17.337,21.728,19.21,28.931,19.21
		c0,0,0.001,0,0.002,0c4.512,0,9.201-0.621,13.936-1.846c17.295-4.477,32.458-18.069,27.976-35.389l-0.037-0.143
		C-2487.038,1383.355-2504.245,1381.494-2511.437,1381.494z"/>
	<path fill="#ED1C24" d="M-2467.276,1397.251c6.727,25.994-8.652,49.187-38.277,56.854c-31.077,8.042-56.368-5.865-63.133-32.003
		c-6.953-26.866,9.05-49.446,38.094-56.962c33.545-8.681,56.851,7.134,63.278,31.966L-2467.276,1397.251z M-2477.737,1399.339
		c-5.186-20.04-26.56-26.594-48.779-20.844c-19.459,5.036-37.159,20.463-31.709,41.52c5.45,21.057,27.76,26.438,48.962,20.952
		c20.621-5.337,36.713-21.587,31.564-41.482L-2477.737,1399.339z"/>
	<path fill="#ED1C24" d="M-2541.673,1356.916c-28.925,0-50.085-17.201-53.907-43.822c-2.129-14.829,1.541-28.27,10.612-38.867
		c8.794-10.275,21.858-16.915,37.78-19.2c3.949-0.567,7.845-0.854,11.581-0.854c28.64,0,49.617,17.213,53.441,43.853l0.021,0.142
		c4.222,29.41-15.747,53.236-48.561,57.947C-2534.414,1356.646-2538.103,1356.916-2541.673,1356.916z M-2534.874,1278.041
		c-2.709,0-5.507,0.205-8.317,0.608c-17.211,2.471-34.523,13.572-31.862,32.105c3.01,20.968,25.527,22.598,32.357,22.598
		c0,0,0.001,0,0.002,0c2.726,0,5.528-0.204,8.331-0.606c17.685-2.539,34.257-14.375,31.714-32.084l-0.021-0.143
		C-2505.05,1283.944-2520.865,1278.041-2534.874,1278.041z"/>
	<path fill="#ED1C24" d="M-2487.094,1298.884c3.815,26.579-14.032,47.932-44.323,52.281c-31.775,4.562-55.376-12.054-59.214-38.781
		c-3.943-27.469,14.456-48.145,44.153-52.408c34.3-4.924,55.717,13.369,59.362,38.759L-2487.094,1298.884z M-2497.722,1299.803
		c-2.941-20.491-23.461-29.365-46.18-26.104c-19.896,2.856-39.192,16.234-36.101,37.765c3.091,21.53,24.671,29.343,46.349,26.231
		c21.085-3.027,38.874-17.401,35.953-37.744L-2497.722,1299.803z"/>
	<path fill="#ED1C24" d="M-2600.849,1242.915c-1.766-9.59-2.827-19.192-3.155-28.54c-0.696-19.88,3.306-34.539,12.232-44.813
		c9.17-10.917,22.485-16.787,39.521-17.384c0.953-0.033,1.899-0.05,2.835-0.05c16.304,0,30.32,5.033,40.533,14.555
		c10.853,10.279,16.962,26.796,17.697,47.794c0.368,10.491,0.249,18.059-0.385,24.539l-0.426,4.357l-108.071,3.784
		L-2600.849,1242.915z M-2548.653,1175.907c-0.762,0-1.533,0.014-2.315,0.041c-10.796,0.311-19.042,3.438-24.537,9.295
		c-5.857,6.243-8.61,15.604-8.183,27.821c0.151,4.327,0.522,7.71,0.937,10.272l71.161-2.492c0.03-2.419-0.069-5.257-0.171-8.192
		C-2512.474,1188.602-2525.231,1175.907-2548.653,1175.907z"/>
	<path fill="#ED1C24" d="M-2595.931,1242.009c-1.483-8.053-2.713-17.465-3.075-27.809c-0.656-18.738,3.074-32.226,11.009-41.359
		c7.924-9.433,19.583-15.094,35.922-15.666c16.489-0.578,30.165,4.197,39.784,13.165c9.78,9.263,15.422,24.675,16.11,44.312
		c0.331,9.444,0.299,17.1-0.364,23.877L-2595.931,1242.009z M-2506.902,1225.684c0.484-3.319,0.316-8.116,0.138-13.212
		c-0.827-27.887-17.097-42.476-44.379-41.521c-24.139,0.695-38.507,14.706-37.542,42.288c0.236,6.745,1.014,11.821,1.885,15.243
		L-2506.902,1225.684z"/>
</g>
<path fill="#ED1C24" d="M3214.37,2973.377c-22.06,694.964-614.301,1246.092-1322.877,1230.936
	c-708.571-15.166-1265.075-590.882-1243.026-1285.835c12.206-384.541,223.634-758.341,657.982-1138.945
	c350.733-307.338,870.444-279.653,203.16-1611.279C2386.742,867.739,3261.144,1672.248,3214.37,2973.377z"/>
<path opacity="0.4" fill="#FFFFFF" d="M2243.221,3315.798c0,0,8.282-3.998,23.805-11.495c6.407-3.104,14.31-6.932,23.603-11.428
	c3.22-1.497,6.672-3.103,10.365-4.814c1.887-0.84,3.838-1.706,5.852-2.598c2.121-1.032,4.646-2.603,7.071-3.932
	c9.797-5.638,21.267-11.459,32.573-19.035c5.707-3.737,12.12-7.268,18.092-11.568c6.08-4.269,12.379-8.692,18.887-13.264
	c25.516-18.938,53.266-42.281,80.903-71.302c27.656-28.971,55.179-63.627,80.619-103.825c25.472-40.162,48.841-85.81,68.915-135.701
	c20.048-49.907,36.461-104.096,49.516-160.721c13.092-56.635,22.536-115.784,28.52-175.836
	c6.048-60.046,9.065-120.966,9.242-181.352c0.164-60.388-2.216-120.236-6.432-178.308c-4.217-58.077-10.479-114.356-17.688-167.754
	c-7.222-53.404-15.573-103.911-24.323-150.477c-17.429-93.167-36.273-170.573-50.684-224.57
	c-14.399-54.02-24.392-84.639-24.392-84.639s17.537,28.199,45.47,78.813c27.94,50.606,66.321,123.621,107.694,213.238
	c20.724,44.798,42.143,93.753,63.315,146.127c21.16,52.374,42.244,108.136,61.914,166.597
	c39.347,116.898,73.908,244.528,94.355,376.536c10.372,65.966,17.044,133.033,18.982,200.168
	c1.951,67.116-0.524,134.305-9.034,200.233c-8.553,65.903-22.833,130.529-43.039,191.929
	c-20.131,61.387-46.284,119.49-76.635,172.01c-30.263,52.564-64.673,99.381-98.837,139.318c-8.85,9.847-17.417,19.382-25.679,28.582
	c-8.308,9.221-17.189,17.556-25.352,25.854c-16.211,16.717-32.718,30.901-47.37,44.034c-3.763,3.294-7.083,6.389-10.959,9.592
	c-4.084,3.251-8.055,6.412-11.9,9.474c-7.783,6.094-15.087,11.805-21.879,17.118c-11.25,8.559-20.819,15.84-28.577,21.744
	c-13.275,10.017-20.358,15.36-20.358,15.36l-0.032,0.023c-106.052,79.999-270.515,73.821-367.338-13.803
	c-96.823-87.622-89.343-223.506,16.71-303.505C2212.548,3332.483,2228.166,3323.179,2243.221,3315.798z"/>
</svg>
