<?xml version="1.0" encoding="utf-8"?>
<!-- Generator: Adobe Illustrator 17.0.0, SVG Export Plug-In . SVG Version: 6.00 Build 0)  -->
<!DOCTYPE svg PUBLIC "-//W3C//DTD SVG 1.1//EN" "http://www.w3.org/Graphics/SVG/1.1/DTD/svg11.dtd">
<svg version="1.1" id="Isolation_Mode" xmlns="http://www.w3.org/2000/svg" xmlns:xlink="http://www.w3.org/1999/xlink" x="0px"
	 y="0px" width="3856px" height="4300px" viewBox="0 0 3856 4300" enable-background="new 0 0 3856 4300" xml:space="preserve">
<path fill="#FFFFFF" d="M3214.37,2973.377c-22.06,694.964-614.301,1246.092-1322.877,1230.936
	c-708.571-15.166-1265.075-590.882-1243.026-1285.835c12.206-384.541,223.634-758.341,657.982-1138.945
	c350.733-307.338,870.444-279.653,203.16-1611.279C2386.742,867.739,3261.144,1672.248,3214.37,2973.377z"/>
<path opacity="0.4" fill="#FFFFFF" d="M2243.221,3315.798c0,0,8.282-3.998,23.805-11.495c6.407-3.104,14.31-6.932,23.603-11.428
	c3.22-1.497,6.672-3.103,10.365-4.814c1.887-0.84,3.838-1.706,5.852-2.598c2.121-1.032,4.646-2.603,7.071-3.932
	c9.797-5.638,21.267-11.459,32.573-19.035c5.707-3.737,12.12-7.268,18.092-11.568c6.08-4.269,12.379-8.692,18.887-13.264
	c25.516-18.938,53.266-42.281,80.903-71.302c27.656-28.971,55.179-63.627,80.619-103.825c25.472-40.162,48.841-85.81,68.915-135.701
	c20.048-49.907,36.461-104.096,49.516-160.721c13.092-56.635,22.536-115.784,28.52-175.836
	c6.048-60.046,9.065-120.966,9.242-181.352c0.164-60.388-2.216-120.236-6.432-178.308c-4.217-58.077-10.479-114.356-17.688-167.754
	c-7.222-53.404-15.573-103.911-24.323-150.477c-17.429-93.167-36.273-170.573-50.684-224.57
	c-14.399-54.02-24.392-84.639-24.392-84.639s17.537,28.199,45.47,78.813c27.94,50.606,66.321,123.621,107.694,213.238
	c20.724,44.798,42.143,93.753,63.315,146.127c21.16,52.374,42.244,108.136,61.914,166.597
	c39.347,116.898,73.908,244.528,94.355,376.536c10.372,65.966,17.044,133.033,18.982,200.168
	c1.951,67.116-0.524,134.305-9.034,200.233c-8.553,65.903-22.833,130.529-43.039,191.929
	c-20.131,61.387-46.284,119.49-76.635,172.01c-30.263,52.564-64.673,99.381-98.837,139.318c-8.85,9.847-17.417,19.382-25.679,28.582
	c-8.308,9.221-17.189,17.556-25.352,25.854c-16.211,16.717-32.718,30.901-47.37,44.034c-3.763,3.294-7.083,6.389-10.959,9.592
	c-4.084,3.251-8.055,6.412-11.9,9.474c-7.783,6.094-15.087,11.805-21.879,17.118c-11.25,8.559-20.819,15.84-28.577,21.744
	c-13.275,10.017-20.358,15.36-20.358,15.36l-0.032,0.023c-106.052,79.999-270.515,73.821-367.338-13.803
	c-96.823-87.622-89.343-223.506,16.71-303.505C2212.548,3332.483,2228.166,3323.179,2243.221,3315.798z"/>
</svg>
